﻿# Tiled2Unity generated file. Do not modify by hand.
# Wavefront file for 'Home_mesh_0013.obj'

# Vertices (Count = 8)
v -704 -544 0
v -736 -544 0
v -736 -512 0
v -704 -512 0
v -672 -800 0
v -704 -800 0
v -704 -768 0
v -672 -768 0

# Texture cooridinates (Count = 8)
vt 0.4 0.3666667
vt 0.4333333 0.3666667
vt 0.4333333 0.4
vt 0.4 0.4
vt 0.3333333 0.2333333
vt 0.3666667 0.2333333
vt 0.3666667 0.2666667
vt 0.3333333 0.2666667

# Normal
vn 0 0 -1

# Mesh description
g Home_mesh_0013

# Faces
f 1/1/1 2/2/1 3/3/1 4/4/1
f 5/5/1 6/6/1 7/7/1 8/8/1

