﻿# Tiled2Unity generated file. Do not modify by hand.
# Wavefront file for 'Earth_mesh_0041.obj'

# Vertices (Count = 4)
v -1792 -224 0
v -1824 -224 0
v -1824 -192 0
v -1792 -192 0

# Texture cooridinates (Count = 4)
vt 0.4025157 0.7637408
vt 0.4528302 0.7637408
vt 0.4528302 0.7899918
vt 0.4025157 0.7899918

# Normal
vn 0 0 -1

# Mesh description
g Earth_mesh_0041

# Faces
f 1/1/1 2/2/1 3/3/1 4/4/1

