﻿# Tiled2Unity generated file. Do not modify by hand.
# Wavefront file for 'Earth_mesh_0011.obj'

# Vertices (Count = 16)
v -2336 -640 0
v -2368 -640 0
v -2368 -608 0
v -2336 -608 0
v -2368 -640 0
v -2400 -640 0
v -2400 -608 0
v -2368 -608 0
v -2336 -672 0
v -2368 -672 0
v -2368 -640 0
v -2336 -640 0
v -2368 -672 0
v -2400 -672 0
v -2400 -640 0
v -2368 -640 0

# Texture cooridinates (Count = 4)
vt 0.2666667 0.5666667
vt 0.3 0.5666667
vt 0.3 0.6
vt 0.2666667 0.6

# Normal
vn 0 0 -1

# Mesh description
g Earth_mesh_0011

# Faces
f 1/1/1 2/2/1 3/3/1 4/4/1
f 5/1/1 6/2/1 7/3/1 8/4/1
f 9/1/1 10/2/1 11/3/1 12/4/1
f 13/1/1 14/2/1 15/3/1 16/4/1

