﻿# Tiled2Unity generated file. Do not modify by hand.
# Wavefront file for 'Earth_mesh_0043.obj'

# Vertices (Count = 4)
v -2432 -1600 0
v -2464 -1600 0
v -2464 -1568 0
v -2432 -1568 0

# Texture cooridinates (Count = 4)
vt 0.8553459 0.9212469
vt 0.9056604 0.9212469
vt 0.9056604 0.947498
vt 0.8553459 0.947498

# Normal
vn 0 0 -1

# Mesh description
g Earth_mesh_0043

# Faces
f 1/1/1 2/2/1 3/3/1 4/4/1

