﻿# Tiled2Unity generated file. Do not modify by hand.
# Wavefront file for 'Earth_mesh_0015.obj'

# Vertices (Count = 16)
v -1376 -2944 0
v -1408 -2944 0
v -1408 -2912 0
v -1376 -2912 0
v -1408 -2944 0
v -1440 -2944 0
v -1440 -2912 0
v -1408 -2912 0
v -1376 -2976 0
v -1408 -2976 0
v -1408 -2944 0
v -1376 -2944 0
v -1408 -2976 0
v -1440 -2976 0
v -1440 -2944 0
v -1408 -2944 0

# Texture cooridinates (Count = 4)
vt 0.2666667 0.5666667
vt 0.3 0.5666667
vt 0.3 0.6
vt 0.2666667 0.6

# Normal
vn 0 0 -1

# Mesh description
g Earth_mesh_0015

# Faces
f 1/1/1 2/2/1 3/3/1 4/4/1
f 5/1/1 6/2/1 7/3/1 8/4/1
f 9/1/1 10/2/1 11/3/1 12/4/1
f 13/1/1 14/2/1 15/3/1 16/4/1

