﻿# Tiled2Unity generated file. Do not modify by hand.
# Wavefront file for 'Earth_mesh_0008.obj'

# Vertices (Count = 4)
v -2528 -1664 0
v -2560 -1664 0
v -2560 -1632 0
v -2528 -1632 0

# Texture cooridinates (Count = 4)
vt 0.3666667 0.5333333
vt 0.4 0.5333333
vt 0.4 0.5666667
vt 0.3666667 0.5666667

# Normal
vn 0 0 -1

# Mesh description
g Earth_mesh_0008

# Faces
f 1/1/1 2/2/1 3/3/1 4/4/1

