﻿# Tiled2Unity generated file. Do not modify by hand.
# Wavefront file for 'Earth_mesh_0060.obj'

# Vertices (Count = 4)
v -800 -3072 0
v -832 -3072 0
v -832 -3040 0
v -800 -3040 0

# Texture cooridinates (Count = 4)
vt 0.4025157 0.7637408
vt 0.4528302 0.7637408
vt 0.4528302 0.7899918
vt 0.4025157 0.7899918

# Normal
vn 0 0 -1

# Mesh description
g Earth_mesh_0060

# Faces
f 1/1/1 2/2/1 3/3/1 4/4/1

