﻿# Tiled2Unity generated file. Do not modify by hand.
# Wavefront file for 'Earth_mesh_0024.obj'

# Vertices (Count = 4)
v -1728 -128 0
v -1760 -128 0
v -1760 -96 0
v -1728 -96 0

# Texture cooridinates (Count = 4)
vt 0.3666667 0.5333333
vt 0.4 0.5333333
vt 0.4 0.5666667
vt 0.3666667 0.5666667

# Normal
vn 0 0 -1

# Mesh description
g Earth_mesh_0024

# Faces
f 1/1/1 2/2/1 3/3/1 4/4/1

