﻿# Tiled2Unity generated file. Do not modify by hand.
# Wavefront file for 'Gem_mesh_0010.obj'

# Vertices (Count = 24)
v -2752 -1760 0
v -2784 -1760 0
v -2784 -1728 0
v -2752 -1728 0
v -2784 -1760 0
v -2816 -1760 0
v -2816 -1728 0
v -2784 -1728 0
v -2752 -1792 0
v -2784 -1792 0
v -2784 -1760 0
v -2752 -1760 0
v -2784 -1792 0
v -2816 -1792 0
v -2816 -1760 0
v -2784 -1760 0
v -2752 -1824 0
v -2784 -1824 0
v -2784 -1792 0
v -2752 -1792 0
v -2784 -1824 0
v -2816 -1824 0
v -2816 -1792 0
v -2784 -1792 0

# Texture cooridinates (Count = 4)
vt 0.05031446 0.8162428
vt 0.1006289 0.8162428
vt 0.1006289 0.8424938
vt 0.05031446 0.8424938

# Normal
vn 0 0 -1

# Mesh description
g Gem_mesh_0010

# Faces
f 1/1/1 2/2/1 3/3/1 4/4/1
f 5/1/1 6/2/1 7/3/1 8/4/1
f 9/1/1 10/2/1 11/3/1 12/4/1
f 13/1/1 14/2/1 15/3/1 16/4/1
f 17/1/1 18/2/1 19/3/1 20/4/1
f 21/1/1 22/2/1 23/3/1 24/4/1

