﻿# Tiled2Unity generated file. Do not modify by hand.
# Wavefront file for 'Gem_mesh_0015.obj'

# Vertices (Count = 4)
v -6016 -1600 0
v -6048 -1600 0
v -6048 -1568 0
v -6016 -1568 0

# Texture cooridinates (Count = 4)
vt 0.7 0.8333333
vt 0.7333333 0.8333333
vt 0.7333333 0.8666667
vt 0.7 0.8666667

# Normal
vn 0 0 -1

# Mesh description
g Gem_mesh_0015

# Faces
f 1/1/1 2/2/1 3/3/1 4/4/1

