﻿# Tiled2Unity generated file. Do not modify by hand.
# Wavefront file for 'Gem_mesh_0016.obj'

# Vertices (Count = 8)
v -4832 -1536 0
v -4864 -1536 0
v -4864 -1504 0
v -4832 -1504 0
v -4864 -1536 0
v -4896 -1536 0
v -4896 -1504 0
v -4864 -1504 0

# Texture cooridinates (Count = 4)
vt 0.05031446 0.8162428
vt 0.1006289 0.8162428
vt 0.1006289 0.8424938
vt 0.05031446 0.8424938

# Normal
vn 0 0 -1

# Mesh description
g Gem_mesh_0016

# Faces
f 1/1/1 2/2/1 3/3/1 4/4/1
f 5/1/1 6/2/1 7/3/1 8/4/1

