﻿# Tiled2Unity generated file. Do not modify by hand.
# Wavefront file for 'Gem_mesh_0021.obj'

# Vertices (Count = 1980)
v -4416 -96 0
v -4448 -96 0
v -4448 -64 0
v -4416 -64 0
v -5280 -96 0
v -5312 -96 0
v -5312 -64 0
v -5280 -64 0
v -3520 -128 0
v -3552 -128 0
v -3552 -96 0
v -3520 -96 0
v -3552 -128 0
v -3584 -128 0
v -3584 -96 0
v -3552 -96 0
v -3584 -128 0
v -3616 -128 0
v -3616 -96 0
v -3584 -96 0
v -3840 -128 0
v -3872 -128 0
v -3872 -96 0
v -3840 -96 0
v -3872 -128 0
v -3904 -128 0
v -3904 -96 0
v -3872 -96 0
v -3904 -128 0
v -3936 -128 0
v -3936 -96 0
v -3904 -96 0
v -4352 -128 0
v -4384 -128 0
v -4384 -96 0
v -4352 -96 0
v -4384 -128 0
v -4416 -128 0
v -4416 -96 0
v -4384 -96 0
v -4416 -128 0
v -4448 -128 0
v -4448 -96 0
v -4416 -96 0
v -4448 -128 0
v -4480 -128 0
v -4480 -96 0
v -4448 -96 0
v -4640 -128 0
v -4672 -128 0
v -4672 -96 0
v -4640 -96 0
v -4672 -128 0
v -4704 -128 0
v -4704 -96 0
v -4672 -96 0
v -4704 -128 0
v -4736 -128 0
v -4736 -96 0
v -4704 -96 0
v -4736 -128 0
v -4768 -128 0
v -4768 -96 0
v -4736 -96 0
v -4928 -128 0
v -4960 -128 0
v -4960 -96 0
v -4928 -96 0
v -4960 -128 0
v -4992 -128 0
v -4992 -96 0
v -4960 -96 0
v -4992 -128 0
v -5024 -128 0
v -5024 -96 0
v -4992 -96 0
v -5024 -128 0
v -5056 -128 0
v -5056 -96 0
v -5024 -96 0
v -5216 -128 0
v -5248 -128 0
v -5248 -96 0
v -5216 -96 0
v -5248 -128 0
v -5280 -128 0
v -5280 -96 0
v -5248 -96 0
v -5280 -128 0
v -5312 -128 0
v -5312 -96 0
v -5280 -96 0
v -5312 -128 0
v -5344 -128 0
v -5344 -96 0
v -5312 -96 0
v -3520 -160 0
v -3552 -160 0
v -3552 -128 0
v -3520 -128 0
v -3552 -160 0
v -3584 -160 0
v -3584 -128 0
v -3552 -128 0
v -3584 -160 0
v -3616 -160 0
v -3616 -128 0
v -3584 -128 0
v -3840 -160 0
v -3872 -160 0
v -3872 -128 0
v -3840 -128 0
v -3872 -160 0
v -3904 -160 0
v -3904 -128 0
v -3872 -128 0
v -3904 -160 0
v -3936 -160 0
v -3936 -128 0
v -3904 -128 0
v -4352 -160 0
v -4384 -160 0
v -4384 -128 0
v -4352 -128 0
v -4384 -160 0
v -4416 -160 0
v -4416 -128 0
v -4384 -128 0
v -4416 -160 0
v -4448 -160 0
v -4448 -128 0
v -4416 -128 0
v -4448 -160 0
v -4480 -160 0
v -4480 -128 0
v -4448 -128 0
v -4640 -160 0
v -4672 -160 0
v -4672 -128 0
v -4640 -128 0
v -4672 -160 0
v -4704 -160 0
v -4704 -128 0
v -4672 -128 0
v -4704 -160 0
v -4736 -160 0
v -4736 -128 0
v -4704 -128 0
v -4736 -160 0
v -4768 -160 0
v -4768 -128 0
v -4736 -128 0
v -4928 -160 0
v -4960 -160 0
v -4960 -128 0
v -4928 -128 0
v -4960 -160 0
v -4992 -160 0
v -4992 -128 0
v -4960 -128 0
v -4992 -160 0
v -5024 -160 0
v -5024 -128 0
v -4992 -128 0
v -5024 -160 0
v -5056 -160 0
v -5056 -128 0
v -5024 -128 0
v -5216 -160 0
v -5248 -160 0
v -5248 -128 0
v -5216 -128 0
v -5248 -160 0
v -5280 -160 0
v -5280 -128 0
v -5248 -128 0
v -5280 -160 0
v -5312 -160 0
v -5312 -128 0
v -5280 -128 0
v -5312 -160 0
v -5344 -160 0
v -5344 -128 0
v -5312 -128 0
v -6144 -160 0
v -6176 -160 0
v -6176 -128 0
v -6144 -128 0
v -6176 -160 0
v -6208 -160 0
v -6208 -128 0
v -6176 -128 0
v -3520 -192 0
v -3552 -192 0
v -3552 -160 0
v -3520 -160 0
v -3552 -192 0
v -3584 -192 0
v -3584 -160 0
v -3552 -160 0
v -3584 -192 0
v -3616 -192 0
v -3616 -160 0
v -3584 -160 0
v -3840 -192 0
v -3872 -192 0
v -3872 -160 0
v -3840 -160 0
v -3872 -192 0
v -3904 -192 0
v -3904 -160 0
v -3872 -160 0
v -3904 -192 0
v -3936 -192 0
v -3936 -160 0
v -3904 -160 0
v -6144 -192 0
v -6176 -192 0
v -6176 -160 0
v -6144 -160 0
v -6176 -192 0
v -6208 -192 0
v -6208 -160 0
v -6176 -160 0
v -3520 -224 0
v -3552 -224 0
v -3552 -192 0
v -3520 -192 0
v -3552 -224 0
v -3584 -224 0
v -3584 -192 0
v -3552 -192 0
v -3584 -224 0
v -3616 -224 0
v -3616 -192 0
v -3584 -192 0
v -3840 -224 0
v -3872 -224 0
v -3872 -192 0
v -3840 -192 0
v -3872 -224 0
v -3904 -224 0
v -3904 -192 0
v -3872 -192 0
v -3904 -224 0
v -3936 -224 0
v -3936 -192 0
v -3904 -192 0
v -4512 -224 0
v -4544 -224 0
v -4544 -192 0
v -4512 -192 0
v -5088 -224 0
v -5120 -224 0
v -5120 -192 0
v -5088 -192 0
v -6144 -224 0
v -6176 -224 0
v -6176 -192 0
v -6144 -192 0
v -6176 -224 0
v -6208 -224 0
v -6208 -192 0
v -6176 -192 0
v -6304 -224 0
v -6336 -224 0
v -6336 -192 0
v -6304 -192 0
v -3520 -256 0
v -3552 -256 0
v -3552 -224 0
v -3520 -224 0
v -3552 -256 0
v -3584 -256 0
v -3584 -224 0
v -3552 -224 0
v -3584 -256 0
v -3616 -256 0
v -3616 -224 0
v -3584 -224 0
v -3840 -256 0
v -3872 -256 0
v -3872 -224 0
v -3840 -224 0
v -3872 -256 0
v -3904 -256 0
v -3904 -224 0
v -3872 -224 0
v -3904 -256 0
v -3936 -256 0
v -3936 -224 0
v -3904 -224 0
v -4512 -256 0
v -4544 -256 0
v -4544 -224 0
v -4512 -224 0
v -5088 -256 0
v -5120 -256 0
v -5120 -224 0
v -5088 -224 0
v -6272 -256 0
v -6304 -256 0
v -6304 -224 0
v -6272 -224 0
v -6304 -256 0
v -6336 -256 0
v -6336 -224 0
v -6304 -224 0
v -5088 -288 0
v -5120 -288 0
v -5120 -256 0
v -5088 -256 0
v -3520 -320 0
v -3552 -320 0
v -3552 -288 0
v -3520 -288 0
v -3552 -320 0
v -3584 -320 0
v -3584 -288 0
v -3552 -288 0
v -3584 -320 0
v -3616 -320 0
v -3616 -288 0
v -3584 -288 0
v -3840 -320 0
v -3872 -320 0
v -3872 -288 0
v -3840 -288 0
v -3872 -320 0
v -3904 -320 0
v -3904 -288 0
v -3872 -288 0
v -3904 -320 0
v -3936 -320 0
v -3936 -288 0
v -3904 -288 0
v -3520 -352 0
v -3552 -352 0
v -3552 -320 0
v -3520 -320 0
v -3552 -352 0
v -3584 -352 0
v -3584 -320 0
v -3552 -320 0
v -3584 -352 0
v -3616 -352 0
v -3616 -320 0
v -3584 -320 0
v -3840 -352 0
v -3872 -352 0
v -3872 -320 0
v -3840 -320 0
v -3872 -352 0
v -3904 -352 0
v -3904 -320 0
v -3872 -320 0
v -3904 -352 0
v -3936 -352 0
v -3936 -320 0
v -3904 -320 0
v -3520 -384 0
v -3552 -384 0
v -3552 -352 0
v -3520 -352 0
v -3552 -384 0
v -3584 -384 0
v -3584 -352 0
v -3552 -352 0
v -3584 -384 0
v -3616 -384 0
v -3616 -352 0
v -3584 -352 0
v -3840 -384 0
v -3872 -384 0
v -3872 -352 0
v -3840 -352 0
v -3872 -384 0
v -3904 -384 0
v -3904 -352 0
v -3872 -352 0
v -3904 -384 0
v -3936 -384 0
v -3936 -352 0
v -3904 -352 0
v -4640 -384 0
v -4672 -384 0
v -4672 -352 0
v -4640 -352 0
v -5024 -384 0
v -5056 -384 0
v -5056 -352 0
v -5024 -352 0
v -3520 -416 0
v -3552 -416 0
v -3552 -384 0
v -3520 -384 0
v -3552 -416 0
v -3584 -416 0
v -3584 -384 0
v -3552 -384 0
v -3584 -416 0
v -3616 -416 0
v -3616 -384 0
v -3584 -384 0
v -3840 -416 0
v -3872 -416 0
v -3872 -384 0
v -3840 -384 0
v -3872 -416 0
v -3904 -416 0
v -3904 -384 0
v -3872 -384 0
v -3904 -416 0
v -3936 -416 0
v -3936 -384 0
v -3904 -384 0
v -3520 -448 0
v -3552 -448 0
v -3552 -416 0
v -3520 -416 0
v -3552 -448 0
v -3584 -448 0
v -3584 -416 0
v -3552 -416 0
v -3584 -448 0
v -3616 -448 0
v -3616 -416 0
v -3584 -416 0
v -3840 -448 0
v -3872 -448 0
v -3872 -416 0
v -3840 -416 0
v -3872 -448 0
v -3904 -448 0
v -3904 -416 0
v -3872 -416 0
v -3904 -448 0
v -3936 -448 0
v -3936 -416 0
v -3904 -416 0
v -3520 -512 0
v -3552 -512 0
v -3552 -480 0
v -3520 -480 0
v -3552 -512 0
v -3584 -512 0
v -3584 -480 0
v -3552 -480 0
v -3584 -512 0
v -3616 -512 0
v -3616 -480 0
v -3584 -480 0
v -3840 -512 0
v -3872 -512 0
v -3872 -480 0
v -3840 -480 0
v -3872 -512 0
v -3904 -512 0
v -3904 -480 0
v -3872 -480 0
v -3904 -512 0
v -3936 -512 0
v -3936 -480 0
v -3904 -480 0
v -5792 -512 0
v -5824 -512 0
v -5824 -480 0
v -5792 -480 0
v -5824 -512 0
v -5856 -512 0
v -5856 -480 0
v -5824 -480 0
v -5888 -512 0
v -5920 -512 0
v -5920 -480 0
v -5888 -480 0
v -5920 -512 0
v -5952 -512 0
v -5952 -480 0
v -5920 -480 0
v -3520 -544 0
v -3552 -544 0
v -3552 -512 0
v -3520 -512 0
v -3552 -544 0
v -3584 -544 0
v -3584 -512 0
v -3552 -512 0
v -3584 -544 0
v -3616 -544 0
v -3616 -512 0
v -3584 -512 0
v -3840 -544 0
v -3872 -544 0
v -3872 -512 0
v -3840 -512 0
v -3872 -544 0
v -3904 -544 0
v -3904 -512 0
v -3872 -512 0
v -3904 -544 0
v -3936 -544 0
v -3936 -512 0
v -3904 -512 0
v -4800 -544 0
v -4832 -544 0
v -4832 -512 0
v -4800 -512 0
v -5792 -544 0
v -5824 -544 0
v -5824 -512 0
v -5792 -512 0
v -5824 -544 0
v -5856 -544 0
v -5856 -512 0
v -5824 -512 0
v -5888 -544 0
v -5920 -544 0
v -5920 -512 0
v -5888 -512 0
v -5920 -544 0
v -5952 -544 0
v -5952 -512 0
v -5920 -512 0
v -3520 -576 0
v -3552 -576 0
v -3552 -544 0
v -3520 -544 0
v -3552 -576 0
v -3584 -576 0
v -3584 -544 0
v -3552 -544 0
v -3584 -576 0
v -3616 -576 0
v -3616 -544 0
v -3584 -544 0
v -3840 -576 0
v -3872 -576 0
v -3872 -544 0
v -3840 -544 0
v -3872 -576 0
v -3904 -576 0
v -3904 -544 0
v -3872 -544 0
v -3904 -576 0
v -3936 -576 0
v -3936 -544 0
v -3904 -544 0
v -4800 -576 0
v -4832 -576 0
v -4832 -544 0
v -4800 -544 0
v -3232 -608 0
v -3264 -608 0
v -3264 -576 0
v -3232 -576 0
v -3360 -608 0
v -3392 -608 0
v -3392 -576 0
v -3360 -576 0
v -3488 -608 0
v -3520 -608 0
v -3520 -576 0
v -3488 -576 0
v -3520 -608 0
v -3552 -608 0
v -3552 -576 0
v -3520 -576 0
v -3552 -608 0
v -3584 -608 0
v -3584 -576 0
v -3552 -576 0
v -3584 -608 0
v -3616 -608 0
v -3616 -576 0
v -3584 -576 0
v -3840 -608 0
v -3872 -608 0
v -3872 -576 0
v -3840 -576 0
v -3872 -608 0
v -3904 -608 0
v -3904 -576 0
v -3872 -576 0
v -3904 -608 0
v -3936 -608 0
v -3936 -576 0
v -3904 -576 0
v -3936 -608 0
v -3968 -608 0
v -3968 -576 0
v -3936 -576 0
v -4064 -608 0
v -4096 -608 0
v -4096 -576 0
v -4064 -576 0
v -4192 -608 0
v -4224 -608 0
v -4224 -576 0
v -4192 -576 0
v -3232 -640 0
v -3264 -640 0
v -3264 -608 0
v -3232 -608 0
v -3360 -640 0
v -3392 -640 0
v -3392 -608 0
v -3360 -608 0
v -3488 -640 0
v -3520 -640 0
v -3520 -608 0
v -3488 -608 0
v -3520 -640 0
v -3552 -640 0
v -3552 -608 0
v -3520 -608 0
v -3552 -640 0
v -3584 -640 0
v -3584 -608 0
v -3552 -608 0
v -3584 -640 0
v -3616 -640 0
v -3616 -608 0
v -3584 -608 0
v -3840 -640 0
v -3872 -640 0
v -3872 -608 0
v -3840 -608 0
v -3872 -640 0
v -3904 -640 0
v -3904 -608 0
v -3872 -608 0
v -3904 -640 0
v -3936 -640 0
v -3936 -608 0
v -3904 -608 0
v -3936 -640 0
v -3968 -640 0
v -3968 -608 0
v -3936 -608 0
v -4064 -640 0
v -4096 -640 0
v -4096 -608 0
v -4064 -608 0
v -4192 -640 0
v -4224 -640 0
v -4224 -608 0
v -4192 -608 0
v -3232 -672 0
v -3264 -672 0
v -3264 -640 0
v -3232 -640 0
v -3360 -672 0
v -3392 -672 0
v -3392 -640 0
v -3360 -640 0
v -3488 -672 0
v -3520 -672 0
v -3520 -640 0
v -3488 -640 0
v -3936 -672 0
v -3968 -672 0
v -3968 -640 0
v -3936 -640 0
v -4064 -672 0
v -4096 -672 0
v -4096 -640 0
v -4064 -640 0
v -4192 -672 0
v -4224 -672 0
v -4224 -640 0
v -4192 -640 0
v -4448 -672 0
v -4480 -672 0
v -4480 -640 0
v -4448 -640 0
v -5312 -672 0
v -5344 -672 0
v -5344 -640 0
v -5312 -640 0
v -5824 -768 0
v -5856 -768 0
v -5856 -736 0
v -5824 -736 0
v -2976 -800 0
v -3008 -800 0
v -3008 -768 0
v -2976 -768 0
v -3424 -800 0
v -3456 -800 0
v -3456 -768 0
v -3424 -768 0
v -3776 -800 0
v -3808 -800 0
v -3808 -768 0
v -3776 -768 0
v -3968 -800 0
v -4000 -800 0
v -4000 -768 0
v -3968 -768 0
v -4160 -800 0
v -4192 -800 0
v -4192 -768 0
v -4160 -768 0
v -5824 -800 0
v -5856 -800 0
v -5856 -768 0
v -5824 -768 0
v -2976 -832 0
v -3008 -832 0
v -3008 -800 0
v -2976 -800 0
v -3424 -832 0
v -3456 -832 0
v -3456 -800 0
v -3424 -800 0
v -3776 -832 0
v -3808 -832 0
v -3808 -800 0
v -3776 -800 0
v -3968 -832 0
v -4000 -832 0
v -4000 -800 0
v -3968 -800 0
v -4160 -832 0
v -4192 -832 0
v -4192 -800 0
v -4160 -800 0
v -2976 -864 0
v -3008 -864 0
v -3008 -832 0
v -2976 -832 0
v -3424 -864 0
v -3456 -864 0
v -3456 -832 0
v -3424 -832 0
v -3776 -864 0
v -3808 -864 0
v -3808 -832 0
v -3776 -832 0
v -3968 -864 0
v -4000 -864 0
v -4000 -832 0
v -3968 -832 0
v -4160 -864 0
v -4192 -864 0
v -4192 -832 0
v -4160 -832 0
v -4480 -896 0
v -4512 -896 0
v -4512 -864 0
v -4480 -864 0
v -4512 -896 0
v -4544 -896 0
v -4544 -864 0
v -4512 -864 0
v -4544 -896 0
v -4576 -896 0
v -4576 -864 0
v -4544 -864 0
v -4576 -896 0
v -4608 -896 0
v -4608 -864 0
v -4576 -864 0
v -4608 -896 0
v -4640 -896 0
v -4640 -864 0
v -4608 -864 0
v -4640 -896 0
v -4672 -896 0
v -4672 -864 0
v -4640 -864 0
v -4672 -896 0
v -4704 -896 0
v -4704 -864 0
v -4672 -864 0
v -4704 -896 0
v -4736 -896 0
v -4736 -864 0
v -4704 -864 0
v -4736 -896 0
v -4768 -896 0
v -4768 -864 0
v -4736 -864 0
v -4768 -896 0
v -4800 -896 0
v -4800 -864 0
v -4768 -864 0
v -4800 -896 0
v -4832 -896 0
v -4832 -864 0
v -4800 -864 0
v -4832 -896 0
v -4864 -896 0
v -4864 -864 0
v -4832 -864 0
v -4864 -896 0
v -4896 -896 0
v -4896 -864 0
v -4864 -864 0
v -4896 -896 0
v -4928 -896 0
v -4928 -864 0
v -4896 -864 0
v -4928 -896 0
v -4960 -896 0
v -4960 -864 0
v -4928 -864 0
v -4960 -896 0
v -4992 -896 0
v -4992 -864 0
v -4960 -864 0
v -4992 -896 0
v -5024 -896 0
v -5024 -864 0
v -4992 -864 0
v -5024 -896 0
v -5056 -896 0
v -5056 -864 0
v -5024 -864 0
v -5056 -896 0
v -5088 -896 0
v -5088 -864 0
v -5056 -864 0
v -5088 -896 0
v -5120 -896 0
v -5120 -864 0
v -5088 -864 0
v -5120 -896 0
v -5152 -896 0
v -5152 -864 0
v -5120 -864 0
v -5152 -896 0
v -5184 -896 0
v -5184 -864 0
v -5152 -864 0
v -5184 -896 0
v -5216 -896 0
v -5216 -864 0
v -5184 -864 0
v -5216 -896 0
v -5248 -896 0
v -5248 -864 0
v -5216 -864 0
v -4480 -928 0
v -4512 -928 0
v -4512 -896 0
v -4480 -896 0
v -4512 -928 0
v -4544 -928 0
v -4544 -896 0
v -4512 -896 0
v -4544 -928 0
v -4576 -928 0
v -4576 -896 0
v -4544 -896 0
v -4576 -928 0
v -4608 -928 0
v -4608 -896 0
v -4576 -896 0
v -4608 -928 0
v -4640 -928 0
v -4640 -896 0
v -4608 -896 0
v -4640 -928 0
v -4672 -928 0
v -4672 -896 0
v -4640 -896 0
v -4672 -928 0
v -4704 -928 0
v -4704 -896 0
v -4672 -896 0
v -4704 -928 0
v -4736 -928 0
v -4736 -896 0
v -4704 -896 0
v -4736 -928 0
v -4768 -928 0
v -4768 -896 0
v -4736 -896 0
v -4768 -928 0
v -4800 -928 0
v -4800 -896 0
v -4768 -896 0
v -4800 -928 0
v -4832 -928 0
v -4832 -896 0
v -4800 -896 0
v -4832 -928 0
v -4864 -928 0
v -4864 -896 0
v -4832 -896 0
v -4864 -928 0
v -4896 -928 0
v -4896 -896 0
v -4864 -896 0
v -4896 -928 0
v -4928 -928 0
v -4928 -896 0
v -4896 -896 0
v -4928 -928 0
v -4960 -928 0
v -4960 -896 0
v -4928 -896 0
v -4960 -928 0
v -4992 -928 0
v -4992 -896 0
v -4960 -896 0
v -4992 -928 0
v -5024 -928 0
v -5024 -896 0
v -4992 -896 0
v -5024 -928 0
v -5056 -928 0
v -5056 -896 0
v -5024 -896 0
v -5056 -928 0
v -5088 -928 0
v -5088 -896 0
v -5056 -896 0
v -5088 -928 0
v -5120 -928 0
v -5120 -896 0
v -5088 -896 0
v -5120 -928 0
v -5152 -928 0
v -5152 -896 0
v -5120 -896 0
v -5152 -928 0
v -5184 -928 0
v -5184 -896 0
v -5152 -896 0
v -5184 -928 0
v -5216 -928 0
v -5216 -896 0
v -5184 -896 0
v -5216 -928 0
v -5248 -928 0
v -5248 -896 0
v -5216 -896 0
v -4480 -960 0
v -4512 -960 0
v -4512 -928 0
v -4480 -928 0
v -4512 -960 0
v -4544 -960 0
v -4544 -928 0
v -4512 -928 0
v -4544 -960 0
v -4576 -960 0
v -4576 -928 0
v -4544 -928 0
v -4576 -960 0
v -4608 -960 0
v -4608 -928 0
v -4576 -928 0
v -4608 -960 0
v -4640 -960 0
v -4640 -928 0
v -4608 -928 0
v -4640 -960 0
v -4672 -960 0
v -4672 -928 0
v -4640 -928 0
v -4672 -960 0
v -4704 -960 0
v -4704 -928 0
v -4672 -928 0
v -4704 -960 0
v -4736 -960 0
v -4736 -928 0
v -4704 -928 0
v -4736 -960 0
v -4768 -960 0
v -4768 -928 0
v -4736 -928 0
v -4768 -960 0
v -4800 -960 0
v -4800 -928 0
v -4768 -928 0
v -4800 -960 0
v -4832 -960 0
v -4832 -928 0
v -4800 -928 0
v -4832 -960 0
v -4864 -960 0
v -4864 -928 0
v -4832 -928 0
v -4864 -960 0
v -4896 -960 0
v -4896 -928 0
v -4864 -928 0
v -4896 -960 0
v -4928 -960 0
v -4928 -928 0
v -4896 -928 0
v -4928 -960 0
v -4960 -960 0
v -4960 -928 0
v -4928 -928 0
v -4960 -960 0
v -4992 -960 0
v -4992 -928 0
v -4960 -928 0
v -4992 -960 0
v -5024 -960 0
v -5024 -928 0
v -4992 -928 0
v -5024 -960 0
v -5056 -960 0
v -5056 -928 0
v -5024 -928 0
v -5056 -960 0
v -5088 -960 0
v -5088 -928 0
v -5056 -928 0
v -5088 -960 0
v -5120 -960 0
v -5120 -928 0
v -5088 -928 0
v -5120 -960 0
v -5152 -960 0
v -5152 -928 0
v -5120 -928 0
v -5152 -960 0
v -5184 -960 0
v -5184 -928 0
v -5152 -928 0
v -5184 -960 0
v -5216 -960 0
v -5216 -928 0
v -5184 -928 0
v -5216 -960 0
v -5248 -960 0
v -5248 -928 0
v -5216 -928 0
v -4480 -992 0
v -4512 -992 0
v -4512 -960 0
v -4480 -960 0
v -4512 -992 0
v -4544 -992 0
v -4544 -960 0
v -4512 -960 0
v -4544 -992 0
v -4576 -992 0
v -4576 -960 0
v -4544 -960 0
v -4576 -992 0
v -4608 -992 0
v -4608 -960 0
v -4576 -960 0
v -5120 -992 0
v -5152 -992 0
v -5152 -960 0
v -5120 -960 0
v -5152 -992 0
v -5184 -992 0
v -5184 -960 0
v -5152 -960 0
v -5184 -992 0
v -5216 -992 0
v -5216 -960 0
v -5184 -960 0
v -5216 -992 0
v -5248 -992 0
v -5248 -960 0
v -5216 -960 0
v -4480 -1024 0
v -4512 -1024 0
v -4512 -992 0
v -4480 -992 0
v -4512 -1024 0
v -4544 -1024 0
v -4544 -992 0
v -4512 -992 0
v -4544 -1024 0
v -4576 -1024 0
v -4576 -992 0
v -4544 -992 0
v -4576 -1024 0
v -4608 -1024 0
v -4608 -992 0
v -4576 -992 0
v -4896 -1024 0
v -4928 -1024 0
v -4928 -992 0
v -4896 -992 0
v -5120 -1024 0
v -5152 -1024 0
v -5152 -992 0
v -5120 -992 0
v -5152 -1024 0
v -5184 -1024 0
v -5184 -992 0
v -5152 -992 0
v -5184 -1024 0
v -5216 -1024 0
v -5216 -992 0
v -5184 -992 0
v -5216 -1024 0
v -5248 -1024 0
v -5248 -992 0
v -5216 -992 0
v -4480 -1056 0
v -4512 -1056 0
v -4512 -1024 0
v -4480 -1024 0
v -4512 -1056 0
v -4544 -1056 0
v -4544 -1024 0
v -4512 -1024 0
v -4544 -1056 0
v -4576 -1056 0
v -4576 -1024 0
v -4544 -1024 0
v -4576 -1056 0
v -4608 -1056 0
v -4608 -1024 0
v -4576 -1024 0
v -4896 -1056 0
v -4928 -1056 0
v -4928 -1024 0
v -4896 -1024 0
v -5120 -1056 0
v -5152 -1056 0
v -5152 -1024 0
v -5120 -1024 0
v -5152 -1056 0
v -5184 -1056 0
v -5184 -1024 0
v -5152 -1024 0
v -5184 -1056 0
v -5216 -1056 0
v -5216 -1024 0
v -5184 -1024 0
v -5216 -1056 0
v -5248 -1056 0
v -5248 -1024 0
v -5216 -1024 0
v -4480 -1088 0
v -4512 -1088 0
v -4512 -1056 0
v -4480 -1056 0
v -4512 -1088 0
v -4544 -1088 0
v -4544 -1056 0
v -4512 -1056 0
v -4544 -1088 0
v -4576 -1088 0
v -4576 -1056 0
v -4544 -1056 0
v -4576 -1088 0
v -4608 -1088 0
v -4608 -1056 0
v -4576 -1056 0
v -5120 -1088 0
v -5152 -1088 0
v -5152 -1056 0
v -5120 -1056 0
v -5152 -1088 0
v -5184 -1088 0
v -5184 -1056 0
v -5152 -1056 0
v -5184 -1088 0
v -5216 -1088 0
v -5216 -1056 0
v -5184 -1056 0
v -5216 -1088 0
v -5248 -1088 0
v -5248 -1056 0
v -5216 -1056 0
v -4480 -1120 0
v -4512 -1120 0
v -4512 -1088 0
v -4480 -1088 0
v -4512 -1120 0
v -4544 -1120 0
v -4544 -1088 0
v -4512 -1088 0
v -4544 -1120 0
v -4576 -1120 0
v -4576 -1088 0
v -4544 -1088 0
v -4576 -1120 0
v -4608 -1120 0
v -4608 -1088 0
v -4576 -1088 0
v -5120 -1120 0
v -5152 -1120 0
v -5152 -1088 0
v -5120 -1088 0
v -5152 -1120 0
v -5184 -1120 0
v -5184 -1088 0
v -5152 -1088 0
v -5184 -1120 0
v -5216 -1120 0
v -5216 -1088 0
v -5184 -1088 0
v -5216 -1120 0
v -5248 -1120 0
v -5248 -1088 0
v -5216 -1088 0
v -4480 -1152 0
v -4512 -1152 0
v -4512 -1120 0
v -4480 -1120 0
v -4512 -1152 0
v -4544 -1152 0
v -4544 -1120 0
v -4512 -1120 0
v -4544 -1152 0
v -4576 -1152 0
v -4576 -1120 0
v -4544 -1120 0
v -4576 -1152 0
v -4608 -1152 0
v -4608 -1120 0
v -4576 -1120 0
v -5120 -1152 0
v -5152 -1152 0
v -5152 -1120 0
v -5120 -1120 0
v -5152 -1152 0
v -5184 -1152 0
v -5184 -1120 0
v -5152 -1120 0
v -5184 -1152 0
v -5216 -1152 0
v -5216 -1120 0
v -5184 -1120 0
v -5216 -1152 0
v -5248 -1152 0
v -5248 -1120 0
v -5216 -1120 0
v -4480 -1184 0
v -4512 -1184 0
v -4512 -1152 0
v -4480 -1152 0
v -4512 -1184 0
v -4544 -1184 0
v -4544 -1152 0
v -4512 -1152 0
v -4544 -1184 0
v -4576 -1184 0
v -4576 -1152 0
v -4544 -1152 0
v -4576 -1184 0
v -4608 -1184 0
v -4608 -1152 0
v -4576 -1152 0
v -5120 -1184 0
v -5152 -1184 0
v -5152 -1152 0
v -5120 -1152 0
v -5152 -1184 0
v -5184 -1184 0
v -5184 -1152 0
v -5152 -1152 0
v -5184 -1184 0
v -5216 -1184 0
v -5216 -1152 0
v -5184 -1152 0
v -5216 -1184 0
v -5248 -1184 0
v -5248 -1152 0
v -5216 -1152 0
v -4480 -1216 0
v -4512 -1216 0
v -4512 -1184 0
v -4480 -1184 0
v -4512 -1216 0
v -4544 -1216 0
v -4544 -1184 0
v -4512 -1184 0
v -4544 -1216 0
v -4576 -1216 0
v -4576 -1184 0
v -4544 -1184 0
v -4576 -1216 0
v -4608 -1216 0
v -4608 -1184 0
v -4576 -1184 0
v -5120 -1216 0
v -5152 -1216 0
v -5152 -1184 0
v -5120 -1184 0
v -5152 -1216 0
v -5184 -1216 0
v -5184 -1184 0
v -5152 -1184 0
v -5184 -1216 0
v -5216 -1216 0
v -5216 -1184 0
v -5184 -1184 0
v -5216 -1216 0
v -5248 -1216 0
v -5248 -1184 0
v -5216 -1184 0
v -4480 -1248 0
v -4512 -1248 0
v -4512 -1216 0
v -4480 -1216 0
v -4512 -1248 0
v -4544 -1248 0
v -4544 -1216 0
v -4512 -1216 0
v -4544 -1248 0
v -4576 -1248 0
v -4576 -1216 0
v -4544 -1216 0
v -4576 -1248 0
v -4608 -1248 0
v -4608 -1216 0
v -4576 -1216 0
v -5120 -1248 0
v -5152 -1248 0
v -5152 -1216 0
v -5120 -1216 0
v -5152 -1248 0
v -5184 -1248 0
v -5184 -1216 0
v -5152 -1216 0
v -5184 -1248 0
v -5216 -1248 0
v -5216 -1216 0
v -5184 -1216 0
v -5216 -1248 0
v -5248 -1248 0
v -5248 -1216 0
v -5216 -1216 0
v -4480 -1280 0
v -4512 -1280 0
v -4512 -1248 0
v -4480 -1248 0
v -4512 -1280 0
v -4544 -1280 0
v -4544 -1248 0
v -4512 -1248 0
v -4544 -1280 0
v -4576 -1280 0
v -4576 -1248 0
v -4544 -1248 0
v -4576 -1280 0
v -4608 -1280 0
v -4608 -1248 0
v -4576 -1248 0
v -5120 -1280 0
v -5152 -1280 0
v -5152 -1248 0
v -5120 -1248 0
v -5152 -1280 0
v -5184 -1280 0
v -5184 -1248 0
v -5152 -1248 0
v -5184 -1280 0
v -5216 -1280 0
v -5216 -1248 0
v -5184 -1248 0
v -5216 -1280 0
v -5248 -1280 0
v -5248 -1248 0
v -5216 -1248 0
v -4480 -1312 0
v -4512 -1312 0
v -4512 -1280 0
v -4480 -1280 0
v -4512 -1312 0
v -4544 -1312 0
v -4544 -1280 0
v -4512 -1280 0
v -4544 -1312 0
v -4576 -1312 0
v -4576 -1280 0
v -4544 -1280 0
v -4576 -1312 0
v -4608 -1312 0
v -4608 -1280 0
v -4576 -1280 0
v -4704 -1312 0
v -4736 -1312 0
v -4736 -1280 0
v -4704 -1280 0
v -5120 -1312 0
v -5152 -1312 0
v -5152 -1280 0
v -5120 -1280 0
v -5152 -1312 0
v -5184 -1312 0
v -5184 -1280 0
v -5152 -1280 0
v -5184 -1312 0
v -5216 -1312 0
v -5216 -1280 0
v -5184 -1280 0
v -5216 -1312 0
v -5248 -1312 0
v -5248 -1280 0
v -5216 -1280 0
v -4480 -1344 0
v -4512 -1344 0
v -4512 -1312 0
v -4480 -1312 0
v -4512 -1344 0
v -4544 -1344 0
v -4544 -1312 0
v -4512 -1312 0
v -4544 -1344 0
v -4576 -1344 0
v -4576 -1312 0
v -4544 -1312 0
v -4576 -1344 0
v -4608 -1344 0
v -4608 -1312 0
v -4576 -1312 0
v -4704 -1344 0
v -4736 -1344 0
v -4736 -1312 0
v -4704 -1312 0
v -5120 -1344 0
v -5152 -1344 0
v -5152 -1312 0
v -5120 -1312 0
v -5152 -1344 0
v -5184 -1344 0
v -5184 -1312 0
v -5152 -1312 0
v -5184 -1344 0
v -5216 -1344 0
v -5216 -1312 0
v -5184 -1312 0
v -5216 -1344 0
v -5248 -1344 0
v -5248 -1312 0
v -5216 -1312 0
v -4480 -1376 0
v -4512 -1376 0
v -4512 -1344 0
v -4480 -1344 0
v -4512 -1376 0
v -4544 -1376 0
v -4544 -1344 0
v -4512 -1344 0
v -4544 -1376 0
v -4576 -1376 0
v -4576 -1344 0
v -4544 -1344 0
v -4576 -1376 0
v -4608 -1376 0
v -4608 -1344 0
v -4576 -1344 0
v -4832 -1376 0
v -4864 -1376 0
v -4864 -1344 0
v -4832 -1344 0
v -4864 -1376 0
v -4896 -1376 0
v -4896 -1344 0
v -4864 -1344 0
v -5120 -1376 0
v -5152 -1376 0
v -5152 -1344 0
v -5120 -1344 0
v -5152 -1376 0
v -5184 -1376 0
v -5184 -1344 0
v -5152 -1344 0
v -5184 -1376 0
v -5216 -1376 0
v -5216 -1344 0
v -5184 -1344 0
v -5216 -1376 0
v -5248 -1376 0
v -5248 -1344 0
v -5216 -1344 0
v -4480 -1408 0
v -4512 -1408 0
v -4512 -1376 0
v -4480 -1376 0
v -4512 -1408 0
v -4544 -1408 0
v -4544 -1376 0
v -4512 -1376 0
v -4544 -1408 0
v -4576 -1408 0
v -4576 -1376 0
v -4544 -1376 0
v -4576 -1408 0
v -4608 -1408 0
v -4608 -1376 0
v -4576 -1376 0
v -4608 -1408 0
v -4640 -1408 0
v -4640 -1376 0
v -4608 -1376 0
v -4640 -1408 0
v -4672 -1408 0
v -4672 -1376 0
v -4640 -1376 0
v -4672 -1408 0
v -4704 -1408 0
v -4704 -1376 0
v -4672 -1376 0
v -4704 -1408 0
v -4736 -1408 0
v -4736 -1376 0
v -4704 -1376 0
v -4736 -1408 0
v -4768 -1408 0
v -4768 -1376 0
v -4736 -1376 0
v -4768 -1408 0
v -4800 -1408 0
v -4800 -1376 0
v -4768 -1376 0
v -4800 -1408 0
v -4832 -1408 0
v -4832 -1376 0
v -4800 -1376 0
v -4832 -1408 0
v -4864 -1408 0
v -4864 -1376 0
v -4832 -1376 0
v -4864 -1408 0
v -4896 -1408 0
v -4896 -1376 0
v -4864 -1376 0
v -4896 -1408 0
v -4928 -1408 0
v -4928 -1376 0
v -4896 -1376 0
v -4928 -1408 0
v -4960 -1408 0
v -4960 -1376 0
v -4928 -1376 0
v -4960 -1408 0
v -4992 -1408 0
v -4992 -1376 0
v -4960 -1376 0
v -4992 -1408 0
v -5024 -1408 0
v -5024 -1376 0
v -4992 -1376 0
v -5024 -1408 0
v -5056 -1408 0
v -5056 -1376 0
v -5024 -1376 0
v -5056 -1408 0
v -5088 -1408 0
v -5088 -1376 0
v -5056 -1376 0
v -5088 -1408 0
v -5120 -1408 0
v -5120 -1376 0
v -5088 -1376 0
v -5120 -1408 0
v -5152 -1408 0
v -5152 -1376 0
v -5120 -1376 0
v -5152 -1408 0
v -5184 -1408 0
v -5184 -1376 0
v -5152 -1376 0
v -5184 -1408 0
v -5216 -1408 0
v -5216 -1376 0
v -5184 -1376 0
v -5216 -1408 0
v -5248 -1408 0
v -5248 -1376 0
v -5216 -1376 0
v -4480 -1440 0
v -4512 -1440 0
v -4512 -1408 0
v -4480 -1408 0
v -4512 -1440 0
v -4544 -1440 0
v -4544 -1408 0
v -4512 -1408 0
v -4544 -1440 0
v -4576 -1440 0
v -4576 -1408 0
v -4544 -1408 0
v -4576 -1440 0
v -4608 -1440 0
v -4608 -1408 0
v -4576 -1408 0
v -4608 -1440 0
v -4640 -1440 0
v -4640 -1408 0
v -4608 -1408 0
v -4640 -1440 0
v -4672 -1440 0
v -4672 -1408 0
v -4640 -1408 0
v -4672 -1440 0
v -4704 -1440 0
v -4704 -1408 0
v -4672 -1408 0
v -4704 -1440 0
v -4736 -1440 0
v -4736 -1408 0
v -4704 -1408 0
v -4736 -1440 0
v -4768 -1440 0
v -4768 -1408 0
v -4736 -1408 0
v -4768 -1440 0
v -4800 -1440 0
v -4800 -1408 0
v -4768 -1408 0
v -4800 -1440 0
v -4832 -1440 0
v -4832 -1408 0
v -4800 -1408 0
v -4832 -1440 0
v -4864 -1440 0
v -4864 -1408 0
v -4832 -1408 0
v -4864 -1440 0
v -4896 -1440 0
v -4896 -1408 0
v -4864 -1408 0
v -4896 -1440 0
v -4928 -1440 0
v -4928 -1408 0
v -4896 -1408 0
v -4928 -1440 0
v -4960 -1440 0
v -4960 -1408 0
v -4928 -1408 0
v -4960 -1440 0
v -4992 -1440 0
v -4992 -1408 0
v -4960 -1408 0
v -4992 -1440 0
v -5024 -1440 0
v -5024 -1408 0
v -4992 -1408 0
v -5024 -1440 0
v -5056 -1440 0
v -5056 -1408 0
v -5024 -1408 0
v -5056 -1440 0
v -5088 -1440 0
v -5088 -1408 0
v -5056 -1408 0
v -5088 -1440 0
v -5120 -1440 0
v -5120 -1408 0
v -5088 -1408 0
v -5120 -1440 0
v -5152 -1440 0
v -5152 -1408 0
v -5120 -1408 0
v -5152 -1440 0
v -5184 -1440 0
v -5184 -1408 0
v -5152 -1408 0
v -5184 -1440 0
v -5216 -1440 0
v -5216 -1408 0
v -5184 -1408 0
v -5216 -1440 0
v -5248 -1440 0
v -5248 -1408 0
v -5216 -1408 0
v -4480 -1472 0
v -4512 -1472 0
v -4512 -1440 0
v -4480 -1440 0
v -4512 -1472 0
v -4544 -1472 0
v -4544 -1440 0
v -4512 -1440 0
v -4544 -1472 0
v -4576 -1472 0
v -4576 -1440 0
v -4544 -1440 0
v -4576 -1472 0
v -4608 -1472 0
v -4608 -1440 0
v -4576 -1440 0
v -4608 -1472 0
v -4640 -1472 0
v -4640 -1440 0
v -4608 -1440 0
v -4640 -1472 0
v -4672 -1472 0
v -4672 -1440 0
v -4640 -1440 0
v -4672 -1472 0
v -4704 -1472 0
v -4704 -1440 0
v -4672 -1440 0
v -4704 -1472 0
v -4736 -1472 0
v -4736 -1440 0
v -4704 -1440 0
v -4736 -1472 0
v -4768 -1472 0
v -4768 -1440 0
v -4736 -1440 0
v -4768 -1472 0
v -4800 -1472 0
v -4800 -1440 0
v -4768 -1440 0
v -4800 -1472 0
v -4832 -1472 0
v -4832 -1440 0
v -4800 -1440 0
v -4896 -1472 0
v -4928 -1472 0
v -4928 -1440 0
v -4896 -1440 0
v -4928 -1472 0
v -4960 -1472 0
v -4960 -1440 0
v -4928 -1440 0
v -4960 -1472 0
v -4992 -1472 0
v -4992 -1440 0
v -4960 -1440 0
v -4992 -1472 0
v -5024 -1472 0
v -5024 -1440 0
v -4992 -1440 0
v -5024 -1472 0
v -5056 -1472 0
v -5056 -1440 0
v -5024 -1440 0
v -5056 -1472 0
v -5088 -1472 0
v -5088 -1440 0
v -5056 -1440 0
v -5088 -1472 0
v -5120 -1472 0
v -5120 -1440 0
v -5088 -1440 0
v -5120 -1472 0
v -5152 -1472 0
v -5152 -1440 0
v -5120 -1440 0
v -5152 -1472 0
v -5184 -1472 0
v -5184 -1440 0
v -5152 -1440 0
v -5184 -1472 0
v -5216 -1472 0
v -5216 -1440 0
v -5184 -1440 0
v -5216 -1472 0
v -5248 -1472 0
v -5248 -1440 0
v -5216 -1440 0
v -6304 -1472 0
v -6336 -1472 0
v -6336 -1440 0
v -6304 -1440 0
v -5984 -1504 0
v -6016 -1504 0
v -6016 -1472 0
v -5984 -1472 0
v -6016 -1504 0
v -6048 -1504 0
v -6048 -1472 0
v -6016 -1472 0
v -6144 -1504 0
v -6176 -1504 0
v -6176 -1472 0
v -6144 -1472 0
v -6176 -1504 0
v -6208 -1504 0
v -6208 -1472 0
v -6176 -1472 0
v -6272 -1504 0
v -6304 -1504 0
v -6304 -1472 0
v -6272 -1472 0
v -6304 -1504 0
v -6336 -1504 0
v -6336 -1472 0
v -6304 -1472 0
v -5984 -1536 0
v -6016 -1536 0
v -6016 -1504 0
v -5984 -1504 0
v -6016 -1536 0
v -6048 -1536 0
v -6048 -1504 0
v -6016 -1504 0
v -6144 -1536 0
v -6176 -1536 0
v -6176 -1504 0
v -6144 -1504 0
v -6176 -1536 0
v -6208 -1536 0
v -6208 -1504 0
v -6176 -1504 0
v -4448 -1664 0
v -4480 -1664 0
v -4480 -1632 0
v -4448 -1632 0
v -4896 -1664 0
v -4928 -1664 0
v -4928 -1632 0
v -4896 -1632 0
v -5248 -1664 0
v -5280 -1664 0
v -5280 -1632 0
v -5248 -1632 0
v -5440 -1664 0
v -5472 -1664 0
v -5472 -1632 0
v -5440 -1632 0
v -5632 -1664 0
v -5664 -1664 0
v -5664 -1632 0
v -5632 -1632 0
v -4448 -1696 0
v -4480 -1696 0
v -4480 -1664 0
v -4448 -1664 0
v -4896 -1696 0
v -4928 -1696 0
v -4928 -1664 0
v -4896 -1664 0
v -5248 -1696 0
v -5280 -1696 0
v -5280 -1664 0
v -5248 -1664 0
v -5440 -1696 0
v -5472 -1696 0
v -5472 -1664 0
v -5440 -1664 0
v -5632 -1696 0
v -5664 -1696 0
v -5664 -1664 0
v -5632 -1664 0
v -4448 -1728 0
v -4480 -1728 0
v -4480 -1696 0
v -4448 -1696 0
v -4896 -1728 0
v -4928 -1728 0
v -4928 -1696 0
v -4896 -1696 0
v -5248 -1728 0
v -5280 -1728 0
v -5280 -1696 0
v -5248 -1696 0
v -5440 -1728 0
v -5472 -1728 0
v -5472 -1696 0
v -5440 -1696 0
v -5632 -1728 0
v -5664 -1728 0
v -5664 -1696 0
v -5632 -1696 0
v -5984 -1760 0
v -6016 -1760 0
v -6016 -1728 0
v -5984 -1728 0
v -6016 -1760 0
v -6048 -1760 0
v -6048 -1728 0
v -6016 -1728 0
v -6144 -1760 0
v -6176 -1760 0
v -6176 -1728 0
v -6144 -1728 0
v -6176 -1760 0
v -6208 -1760 0
v -6208 -1728 0
v -6176 -1728 0
v -5984 -1792 0
v -6016 -1792 0
v -6016 -1760 0
v -5984 -1760 0
v -6016 -1792 0
v -6048 -1792 0
v -6048 -1760 0
v -6016 -1760 0
v -6144 -1792 0
v -6176 -1792 0
v -6176 -1760 0
v -6144 -1760 0
v -6176 -1792 0
v -6208 -1792 0
v -6208 -1760 0
v -6176 -1760 0
v -2976 -1856 0
v -3008 -1856 0
v -3008 -1824 0
v -2976 -1824 0
v -3424 -1856 0
v -3456 -1856 0
v -3456 -1824 0
v -3424 -1824 0
v -3776 -1856 0
v -3808 -1856 0
v -3808 -1824 0
v -3776 -1824 0
v -3968 -1856 0
v -4000 -1856 0
v -4000 -1824 0
v -3968 -1824 0
v -4160 -1856 0
v -4192 -1856 0
v -4192 -1824 0
v -4160 -1824 0
v -2976 -1888 0
v -3008 -1888 0
v -3008 -1856 0
v -2976 -1856 0
v -3424 -1888 0
v -3456 -1888 0
v -3456 -1856 0
v -3424 -1856 0
v -3776 -1888 0
v -3808 -1888 0
v -3808 -1856 0
v -3776 -1856 0
v -3968 -1888 0
v -4000 -1888 0
v -4000 -1856 0
v -3968 -1856 0
v -4160 -1888 0
v -4192 -1888 0
v -4192 -1856 0
v -4160 -1856 0
v -2816 -1984 0
v -2848 -1984 0
v -2848 -1952 0
v -2816 -1952 0
v -2816 -2016 0
v -2848 -2016 0
v -2848 -1984 0
v -2816 -1984 0
v -2848 -2016 0
v -2880 -2016 0
v -2880 -1984 0
v -2848 -1984 0
v -6304 -2176 0
v -6336 -2176 0
v -6336 -2144 0
v -6304 -2144 0
v -6272 -2208 0
v -6304 -2208 0
v -6304 -2176 0
v -6272 -2176 0
v -6304 -2208 0
v -6336 -2208 0
v -6336 -2176 0
v -6304 -2176 0
v -2816 -2656 0
v -2848 -2656 0
v -2848 -2624 0
v -2816 -2624 0
v -6304 -2656 0
v -6336 -2656 0
v -6336 -2624 0
v -6304 -2624 0
v -2816 -2688 0
v -2848 -2688 0
v -2848 -2656 0
v -2816 -2656 0
v -2848 -2688 0
v -2880 -2688 0
v -2880 -2656 0
v -2848 -2656 0
v -6272 -2688 0
v -6304 -2688 0
v -6304 -2656 0
v -6272 -2656 0
v -6304 -2688 0
v -6336 -2688 0
v -6336 -2656 0
v -6304 -2656 0

# Texture cooridinates (Count = 101)
vt 0.5333334 0.4
vt 0.5666667 0.4
vt 0.5666667 0.4333333
vt 0.5333334 0.4333333
vt 0.2333333 0.5333333
vt 0.2 0.5333333
vt 0.2 0.5666667
vt 0.2333333 0.5666667
vt 0.1666667 0.5333333
vt 0.1666667 0.5666667
vt 0.1333333 0.5333333
vt 0.1333333 0.5666667
vt 0.2333333 0.5
vt 0.2 0.5
vt 0.1666667 0.5
vt 0.1333333 0.5
vt 0.5333334 0.3666667
vt 0.5666667 0.3666667
vt 0.4666667 0.6666666
vt 0.5 0.6666666
vt 0.5 0.7
vt 0.4666667 0.7
vt 0.5333334 0.6666666
vt 0.5333334 0.7
vt 0.2333333 0.4666666
vt 0.2 0.4666666
vt 0.1666667 0.4666666
vt 0.1333333 0.4666666
vt 0.4666667 0.6333333
vt 0.5 0.6333333
vt 0.5333334 0.6333333
vt 0.5666667 0.2
vt 0.5333334 0.2
vt 0.5333334 0.2333333
vt 0.5666667 0.2333333
vt 0.5 0.2
vt 0.5 0.2333333
vt 0.4666667 0.2
vt 0.4666667 0.2333333
vt 0.6333333 0.2666667
vt 0.6666667 0.2666667
vt 0.6666667 0.3
vt 0.6333333 0.3
vt 0.4666667 0.6
vt 0.5 0.6
vt 0.5333334 0.6
vt 0.03333334 0.7
vt 0.06666667 0.7
vt 0.06666667 0.7333333
vt 0.03333334 0.7333333
vt 0.5666667 0.1666667
vt 0.5333334 0.1666667
vt 0.5 0.1666667
vt 0.4666667 0.1666667
vt 0.5666667 0.3333333
vt 0.6 0.3333333
vt 0.6 0.3666667
vt 0.1333333 0.8
vt 0.1666667 0.8
vt 0.1666667 0.8333333
vt 0.1333333 0.8333333
vt 0.2 0.8
vt 0.2 0.8333333
vt 0.1333333 0.7666667
vt 0.1666667 0.7666667
vt 0.2 0.7666667
vt 0.6666667 0.5
vt 0.6333333 0.5
vt 0.6333333 0.5333333
vt 0.6666667 0.5333333
vt 0.6666667 0.4666666
vt 0.6333333 0.4666666
vt 0.6666667 0.4333333
vt 0.6333333 0.4333333
vt 0.2666667 0.6666666
vt 0.3 0.6666666
vt 0.3 0.7
vt 0.2666667 0.7
vt 0.2666667 0.6333333
vt 0.3 0.6333333
vt 0.3666667 0.9666666
vt 0.3666667 0.9333333
vt 0.4 0.9333333
vt 0.4 0.9666666
vt 0.3333333 0.9333333
vt 0.3333333 0.9666666
vt 0.4666667 0.9666666
vt 0.5 0.9666666
vt 0.5 1
vt 0.4666667 1
vt 0.4666667 0.9333333
vt 0.5 0.9333333
vt 0.4333333 0.9666666
vt 0.4333333 1
vt 0.4333333 0.9333333
vt 0.3666667 1
vt 0.3333333 1
vt 0.4 1
vt 0.3333333 0.9
vt 0.3666667 0.9
vt 0.4 0.9

# Normal
vn 0 0 -1

# Mesh description
g Gem_mesh_0021

# Faces
f 1/1/1 2/2/1 3/3/1 4/4/1
f 5/1/1 6/2/1 7/3/1 8/4/1
f 9/5/1 10/6/1 11/7/1 12/8/1
f 13/6/1 14/9/1 15/10/1 16/7/1
f 17/9/1 18/11/1 19/12/1 20/10/1
f 21/11/1 22/9/1 23/10/1 24/12/1
f 25/9/1 26/6/1 27/7/1 28/10/1
f 29/6/1 30/5/1 31/8/1 32/7/1
f 33/1/1 34/2/1 35/3/1 36/4/1
f 37/1/1 38/2/1 39/3/1 40/4/1
f 41/1/1 42/2/1 43/3/1 44/4/1
f 45/1/1 46/2/1 47/3/1 48/4/1
f 49/1/1 50/2/1 51/3/1 52/4/1
f 53/1/1 54/2/1 55/3/1 56/4/1
f 57/1/1 58/2/1 59/3/1 60/4/1
f 61/1/1 62/2/1 63/3/1 64/4/1
f 65/1/1 66/2/1 67/3/1 68/4/1
f 69/1/1 70/2/1 71/3/1 72/4/1
f 73/1/1 74/2/1 75/3/1 76/4/1
f 77/1/1 78/2/1 79/3/1 80/4/1
f 81/1/1 82/2/1 83/3/1 84/4/1
f 85/1/1 86/2/1 87/3/1 88/4/1
f 89/1/1 90/2/1 91/3/1 92/4/1
f 93/1/1 94/2/1 95/3/1 96/4/1
f 97/13/1 98/14/1 99/6/1 100/5/1
f 101/14/1 102/15/1 103/9/1 104/6/1
f 105/15/1 106/16/1 107/11/1 108/9/1
f 109/16/1 110/15/1 111/9/1 112/11/1
f 113/15/1 114/14/1 115/6/1 116/9/1
f 117/14/1 118/13/1 119/5/1 120/6/1
f 121/17/1 122/18/1 123/2/1 124/1/1
f 125/17/1 126/18/1 127/2/1 128/1/1
f 129/17/1 130/18/1 131/2/1 132/1/1
f 133/17/1 134/18/1 135/2/1 136/1/1
f 137/17/1 138/18/1 139/2/1 140/1/1
f 141/17/1 142/18/1 143/2/1 144/1/1
f 145/17/1 146/18/1 147/2/1 148/1/1
f 149/17/1 150/18/1 151/2/1 152/1/1
f 153/17/1 154/18/1 155/2/1 156/1/1
f 157/17/1 158/18/1 159/2/1 160/1/1
f 161/17/1 162/18/1 163/2/1 164/1/1
f 165/17/1 166/18/1 167/2/1 168/1/1
f 169/17/1 170/18/1 171/2/1 172/1/1
f 173/17/1 174/18/1 175/2/1 176/1/1
f 177/17/1 178/18/1 179/2/1 180/1/1
f 181/17/1 182/18/1 183/2/1 184/1/1
f 185/19/1 186/20/1 187/21/1 188/22/1
f 189/20/1 190/23/1 191/24/1 192/21/1
f 193/25/1 194/26/1 195/14/1 196/13/1
f 197/26/1 198/27/1 199/15/1 200/14/1
f 201/27/1 202/28/1 203/16/1 204/15/1
f 205/28/1 206/27/1 207/15/1 208/16/1
f 209/27/1 210/26/1 211/14/1 212/15/1
f 213/26/1 214/25/1 215/13/1 216/14/1
f 217/29/1 218/30/1 219/20/1 220/19/1
f 221/30/1 222/31/1 223/23/1 224/20/1
f 225/32/1 226/33/1 227/34/1 228/35/1
f 229/33/1 230/36/1 231/37/1 232/34/1
f 233/36/1 234/38/1 235/39/1 236/37/1
f 237/38/1 238/36/1 239/37/1 240/39/1
f 241/36/1 242/33/1 243/34/1 244/37/1
f 245/33/1 246/32/1 247/35/1 248/34/1
f 249/40/1 250/41/1 251/42/1 252/43/1
f 253/40/1 254/41/1 255/42/1 256/43/1
f 257/44/1 258/45/1 259/30/1 260/29/1
f 261/45/1 262/46/1 263/31/1 264/30/1
f 265/47/1 266/48/1 267/49/1 268/50/1
f 269/51/1 270/52/1 271/33/1 272/32/1
f 273/52/1 274/53/1 275/36/1 276/33/1
f 277/53/1 278/54/1 279/38/1 280/36/1
f 281/54/1 282/53/1 283/36/1 284/38/1
f 285/53/1 286/52/1 287/33/1 288/36/1
f 289/52/1 290/51/1 291/32/1 292/33/1
f 293/40/1 294/41/1 295/42/1 296/43/1
f 297/40/1 298/41/1 299/42/1 300/43/1
f 301/47/1 302/48/1 303/49/1 304/50/1
f 305/47/1 306/48/1 307/49/1 308/50/1
f 309/40/1 310/41/1 311/42/1 312/43/1
f 313/5/1 314/6/1 315/7/1 316/8/1
f 317/6/1 318/9/1 319/10/1 320/7/1
f 321/9/1 322/11/1 323/12/1 324/10/1
f 325/11/1 326/9/1 327/10/1 328/12/1
f 329/9/1 330/6/1 331/7/1 332/10/1
f 333/6/1 334/5/1 335/8/1 336/7/1
f 337/13/1 338/14/1 339/6/1 340/5/1
f 341/14/1 342/15/1 343/9/1 344/6/1
f 345/15/1 346/16/1 347/11/1 348/9/1
f 349/16/1 350/15/1 351/9/1 352/11/1
f 353/15/1 354/14/1 355/6/1 356/9/1
f 357/14/1 358/13/1 359/5/1 360/6/1
f 361/25/1 362/26/1 363/14/1 364/13/1
f 365/26/1 366/27/1 367/15/1 368/14/1
f 369/27/1 370/28/1 371/16/1 372/15/1
f 373/28/1 374/27/1 375/15/1 376/16/1
f 377/27/1 378/26/1 379/14/1 380/15/1
f 381/26/1 382/25/1 383/13/1 384/14/1
f 385/55/1 386/56/1 387/57/1 388/18/1
f 389/55/1 390/56/1 391/57/1 392/18/1
f 393/32/1 394/33/1 395/34/1 396/35/1
f 397/33/1 398/36/1 399/37/1 400/34/1
f 401/36/1 402/38/1 403/39/1 404/37/1
f 405/38/1 406/36/1 407/37/1 408/39/1
f 409/36/1 410/33/1 411/34/1 412/37/1
f 413/33/1 414/32/1 415/35/1 416/34/1
f 417/51/1 418/52/1 419/33/1 420/32/1
f 421/52/1 422/53/1 423/36/1 424/33/1
f 425/53/1 426/54/1 427/38/1 428/36/1
f 429/54/1 430/53/1 431/36/1 432/38/1
f 433/53/1 434/52/1 435/33/1 436/36/1
f 437/52/1 438/51/1 439/32/1 440/33/1
f 441/5/1 442/6/1 443/7/1 444/8/1
f 445/6/1 446/9/1 447/10/1 448/7/1
f 449/9/1 450/11/1 451/12/1 452/10/1
f 453/11/1 454/9/1 455/10/1 456/12/1
f 457/9/1 458/6/1 459/7/1 460/10/1
f 461/6/1 462/5/1 463/8/1 464/7/1
f 465/58/1 466/59/1 467/60/1 468/61/1
f 469/59/1 470/62/1 471/63/1 472/60/1
f 473/58/1 474/59/1 475/60/1 476/61/1
f 477/59/1 478/62/1 479/63/1 480/60/1
f 481/13/1 482/14/1 483/6/1 484/5/1
f 485/14/1 486/15/1 487/9/1 488/6/1
f 489/15/1 490/16/1 491/11/1 492/9/1
f 493/16/1 494/15/1 495/9/1 496/11/1
f 497/15/1 498/14/1 499/6/1 500/9/1
f 501/14/1 502/13/1 503/5/1 504/6/1
f 505/40/1 506/41/1 507/42/1 508/43/1
f 509/64/1 510/65/1 511/59/1 512/58/1
f 513/65/1 514/66/1 515/62/1 516/59/1
f 517/64/1 518/65/1 519/59/1 520/58/1
f 521/65/1 522/66/1 523/62/1 524/59/1
f 525/25/1 526/26/1 527/14/1 528/13/1
f 529/26/1 530/27/1 531/15/1 532/14/1
f 533/27/1 534/28/1 535/16/1 536/15/1
f 537/28/1 538/27/1 539/15/1 540/16/1
f 541/27/1 542/26/1 543/14/1 544/15/1
f 545/26/1 546/25/1 547/13/1 548/14/1
f 549/40/1 550/41/1 551/42/1 552/43/1
f 553/67/1 554/68/1 555/69/1 556/70/1
f 557/67/1 558/68/1 559/69/1 560/70/1
f 561/67/1 562/68/1 563/69/1 564/70/1
f 565/32/1 566/33/1 567/34/1 568/35/1
f 569/33/1 570/36/1 571/37/1 572/34/1
f 573/36/1 574/38/1 575/39/1 576/37/1
f 577/38/1 578/36/1 579/37/1 580/39/1
f 581/36/1 582/33/1 583/34/1 584/37/1
f 585/33/1 586/32/1 587/35/1 588/34/1
f 589/68/1 590/67/1 591/70/1 592/69/1
f 593/68/1 594/67/1 595/70/1 596/69/1
f 597/68/1 598/67/1 599/70/1 600/69/1
f 601/71/1 602/72/1 603/68/1 604/67/1
f 605/71/1 606/72/1 607/68/1 608/67/1
f 609/71/1 610/72/1 611/68/1 612/67/1
f 613/51/1 614/52/1 615/33/1 616/32/1
f 617/52/1 618/53/1 619/36/1 620/33/1
f 621/53/1 622/54/1 623/38/1 624/36/1
f 625/54/1 626/53/1 627/36/1 628/38/1
f 629/53/1 630/52/1 631/33/1 632/36/1
f 633/52/1 634/51/1 635/32/1 636/33/1
f 637/72/1 638/71/1 639/67/1 640/68/1
f 641/72/1 642/71/1 643/67/1 644/68/1
f 645/72/1 646/71/1 647/67/1 648/68/1
f 649/73/1 650/74/1 651/72/1 652/71/1
f 653/73/1 654/74/1 655/72/1 656/71/1
f 657/73/1 658/74/1 659/72/1 660/71/1
f 661/74/1 662/73/1 663/71/1 664/72/1
f 665/74/1 666/73/1 667/71/1 668/72/1
f 669/74/1 670/73/1 671/71/1 672/72/1
f 673/55/1 674/56/1 675/57/1 676/18/1
f 677/55/1 678/56/1 679/57/1 680/18/1
f 681/75/1 682/76/1 683/77/1 684/78/1
f 685/68/1 686/67/1 687/70/1 688/69/1
f 689/68/1 690/67/1 691/70/1 692/69/1
f 693/68/1 694/67/1 695/70/1 696/69/1
f 697/68/1 698/67/1 699/70/1 700/69/1
f 701/68/1 702/67/1 703/70/1 704/69/1
f 705/79/1 706/80/1 707/76/1 708/75/1
f 709/72/1 710/71/1 711/67/1 712/68/1
f 713/72/1 714/71/1 715/67/1 716/68/1
f 717/72/1 718/71/1 719/67/1 720/68/1
f 721/72/1 722/71/1 723/67/1 724/68/1
f 725/72/1 726/71/1 727/67/1 728/68/1
f 729/74/1 730/73/1 731/71/1 732/72/1
f 733/74/1 734/73/1 735/71/1 736/72/1
f 737/74/1 738/73/1 739/71/1 740/72/1
f 741/74/1 742/73/1 743/71/1 744/72/1
f 745/74/1 746/73/1 747/71/1 748/72/1
f 749/81/1 750/82/1 751/83/1 752/84/1
f 753/81/1 754/82/1 755/83/1 756/84/1
f 757/81/1 758/82/1 759/83/1 760/84/1
f 761/81/1 762/82/1 763/83/1 764/84/1
f 765/81/1 766/82/1 767/83/1 768/84/1
f 769/81/1 770/82/1 771/83/1 772/84/1
f 773/81/1 774/82/1 775/83/1 776/84/1
f 777/81/1 778/82/1 779/83/1 780/84/1
f 781/81/1 782/82/1 783/83/1 784/84/1
f 785/81/1 786/82/1 787/83/1 788/84/1
f 789/81/1 790/82/1 791/83/1 792/84/1
f 793/81/1 794/82/1 795/83/1 796/84/1
f 797/81/1 798/82/1 799/83/1 800/84/1
f 801/81/1 802/82/1 803/83/1 804/84/1
f 805/81/1 806/82/1 807/83/1 808/84/1
f 809/81/1 810/82/1 811/83/1 812/84/1
f 813/81/1 814/82/1 815/83/1 816/84/1
f 817/81/1 818/82/1 819/83/1 820/84/1
f 821/81/1 822/82/1 823/83/1 824/84/1
f 825/81/1 826/82/1 827/83/1 828/84/1
f 829/81/1 830/82/1 831/83/1 832/84/1
f 833/81/1 834/82/1 835/83/1 836/84/1
f 837/81/1 838/82/1 839/83/1 840/84/1
f 841/81/1 842/82/1 843/83/1 844/84/1
f 845/85/1 846/82/1 847/81/1 848/86/1
f 849/85/1 850/82/1 851/81/1 852/86/1
f 853/82/1 854/83/1 855/84/1 856/81/1
f 857/82/1 858/83/1 859/84/1 860/81/1
f 861/82/1 862/81/1 863/86/1 864/85/1
f 865/82/1 866/81/1 867/86/1 868/85/1
f 869/82/1 870/81/1 871/86/1 872/85/1
f 873/82/1 874/81/1 875/86/1 876/85/1
f 877/82/1 878/81/1 879/86/1 880/85/1
f 881/82/1 882/81/1 883/86/1 884/85/1
f 885/82/1 886/81/1 887/86/1 888/85/1
f 889/82/1 890/81/1 891/86/1 892/85/1
f 893/82/1 894/81/1 895/86/1 896/85/1
f 897/82/1 898/81/1 899/86/1 900/85/1
f 901/82/1 902/81/1 903/86/1 904/85/1
f 905/82/1 906/81/1 907/86/1 908/85/1
f 909/82/1 910/81/1 911/86/1 912/85/1
f 913/82/1 914/81/1 915/86/1 916/85/1
f 917/82/1 918/81/1 919/86/1 920/85/1
f 921/82/1 922/81/1 923/86/1 924/85/1
f 925/85/1 926/82/1 927/81/1 928/86/1
f 929/85/1 930/82/1 931/81/1 932/86/1
f 933/82/1 934/83/1 935/84/1 936/81/1
f 937/82/1 938/83/1 939/84/1 940/81/1
f 941/85/1 942/82/1 943/81/1 944/86/1
f 945/85/1 946/82/1 947/81/1 948/86/1
f 949/82/1 950/83/1 951/84/1 952/81/1
f 953/82/1 954/83/1 955/84/1 956/81/1
f 957/82/1 958/81/1 959/86/1 960/85/1
f 961/82/1 962/81/1 963/86/1 964/85/1
f 965/82/1 966/81/1 967/86/1 968/85/1
f 969/82/1 970/81/1 971/86/1 972/85/1
f 973/82/1 974/81/1 975/86/1 976/85/1
f 977/82/1 978/81/1 979/86/1 980/85/1
f 981/82/1 982/81/1 983/86/1 984/85/1
f 985/82/1 986/81/1 987/86/1 988/85/1
f 989/82/1 990/81/1 991/86/1 992/85/1
f 993/82/1 994/81/1 995/86/1 996/85/1
f 997/82/1 998/81/1 999/86/1 1000/85/1
f 1001/82/1 1002/81/1 1003/86/1 1004/85/1
f 1005/82/1 1006/81/1 1007/86/1 1008/85/1
f 1009/82/1 1010/81/1 1011/86/1 1012/85/1
f 1013/82/1 1014/81/1 1015/86/1 1016/85/1
f 1017/82/1 1018/81/1 1019/86/1 1020/85/1
f 1021/85/1 1022/82/1 1023/81/1 1024/86/1
f 1025/85/1 1026/82/1 1027/81/1 1028/86/1
f 1029/82/1 1030/83/1 1031/84/1 1032/81/1
f 1033/82/1 1034/83/1 1035/84/1 1036/81/1
f 1037/85/1 1038/82/1 1039/81/1 1040/86/1
f 1041/85/1 1042/82/1 1043/81/1 1044/86/1
f 1045/82/1 1046/83/1 1047/84/1 1048/81/1
f 1049/82/1 1050/83/1 1051/84/1 1052/81/1
f 1053/85/1 1054/82/1 1055/81/1 1056/86/1
f 1057/85/1 1058/82/1 1059/81/1 1060/86/1
f 1061/82/1 1062/83/1 1063/84/1 1064/81/1
f 1065/82/1 1066/83/1 1067/84/1 1068/81/1
f 1069/85/1 1070/82/1 1071/81/1 1072/86/1
f 1073/85/1 1074/82/1 1075/81/1 1076/86/1
f 1077/82/1 1078/83/1 1079/84/1 1080/81/1
f 1081/82/1 1082/83/1 1083/84/1 1084/81/1
f 1085/87/1 1086/88/1 1087/89/1 1088/90/1
f 1089/85/1 1090/82/1 1091/81/1 1092/86/1
f 1093/85/1 1094/82/1 1095/81/1 1096/86/1
f 1097/82/1 1098/83/1 1099/84/1 1100/81/1
f 1101/82/1 1102/83/1 1103/84/1 1104/81/1
f 1105/85/1 1106/82/1 1107/81/1 1108/86/1
f 1109/85/1 1110/82/1 1111/81/1 1112/86/1
f 1113/82/1 1114/83/1 1115/84/1 1116/81/1
f 1117/82/1 1118/83/1 1119/84/1 1120/81/1
f 1121/91/1 1122/92/1 1123/88/1 1124/87/1
f 1125/85/1 1126/82/1 1127/81/1 1128/86/1
f 1129/85/1 1130/82/1 1131/81/1 1132/86/1
f 1133/82/1 1134/83/1 1135/84/1 1136/81/1
f 1137/82/1 1138/83/1 1139/84/1 1140/81/1
f 1141/85/1 1142/82/1 1143/81/1 1144/86/1
f 1145/85/1 1146/82/1 1147/81/1 1148/86/1
f 1149/82/1 1150/83/1 1151/84/1 1152/81/1
f 1153/82/1 1154/83/1 1155/84/1 1156/81/1
f 1157/85/1 1158/82/1 1159/81/1 1160/86/1
f 1161/85/1 1162/82/1 1163/81/1 1164/86/1
f 1165/82/1 1166/83/1 1167/84/1 1168/81/1
f 1169/82/1 1170/83/1 1171/84/1 1172/81/1
f 1173/85/1 1174/82/1 1175/81/1 1176/86/1
f 1177/85/1 1178/82/1 1179/81/1 1180/86/1
f 1181/82/1 1182/83/1 1183/84/1 1184/81/1
f 1185/82/1 1186/83/1 1187/84/1 1188/81/1
f 1189/85/1 1190/82/1 1191/81/1 1192/86/1
f 1193/85/1 1194/82/1 1195/81/1 1196/86/1
f 1197/82/1 1198/83/1 1199/84/1 1200/81/1
f 1201/82/1 1202/83/1 1203/84/1 1204/81/1
f 1205/85/1 1206/82/1 1207/81/1 1208/86/1
f 1209/85/1 1210/82/1 1211/81/1 1212/86/1
f 1213/82/1 1214/83/1 1215/84/1 1216/81/1
f 1217/82/1 1218/83/1 1219/84/1 1220/81/1
f 1221/85/1 1222/82/1 1223/81/1 1224/86/1
f 1225/85/1 1226/82/1 1227/81/1 1228/86/1
f 1229/82/1 1230/83/1 1231/84/1 1232/81/1
f 1233/82/1 1234/83/1 1235/84/1 1236/81/1
f 1237/85/1 1238/82/1 1239/81/1 1240/86/1
f 1241/85/1 1242/82/1 1243/81/1 1244/86/1
f 1245/82/1 1246/83/1 1247/84/1 1248/81/1
f 1249/82/1 1250/83/1 1251/84/1 1252/81/1
f 1253/85/1 1254/82/1 1255/81/1 1256/86/1
f 1257/85/1 1258/82/1 1259/81/1 1260/86/1
f 1261/82/1 1262/83/1 1263/84/1 1264/81/1
f 1265/82/1 1266/83/1 1267/84/1 1268/81/1
f 1269/85/1 1270/82/1 1271/81/1 1272/86/1
f 1273/85/1 1274/82/1 1275/81/1 1276/86/1
f 1277/82/1 1278/83/1 1279/84/1 1280/81/1
f 1281/82/1 1282/83/1 1283/84/1 1284/81/1
f 1285/85/1 1286/82/1 1287/81/1 1288/86/1
f 1289/85/1 1290/82/1 1291/81/1 1292/86/1
f 1293/82/1 1294/83/1 1295/84/1 1296/81/1
f 1297/82/1 1298/83/1 1299/84/1 1300/81/1
f 1301/85/1 1302/82/1 1303/81/1 1304/86/1
f 1305/85/1 1306/82/1 1307/81/1 1308/86/1
f 1309/82/1 1310/83/1 1311/84/1 1312/81/1
f 1313/82/1 1314/83/1 1315/84/1 1316/81/1
f 1317/85/1 1318/82/1 1319/81/1 1320/86/1
f 1321/85/1 1322/82/1 1323/81/1 1324/86/1
f 1325/82/1 1326/83/1 1327/84/1 1328/81/1
f 1329/82/1 1330/83/1 1331/84/1 1332/81/1
f 1333/85/1 1334/82/1 1335/81/1 1336/86/1
f 1337/85/1 1338/82/1 1339/81/1 1340/86/1
f 1341/82/1 1342/83/1 1343/84/1 1344/81/1
f 1345/82/1 1346/83/1 1347/84/1 1348/81/1
f 1349/85/1 1350/82/1 1351/81/1 1352/86/1
f 1353/85/1 1354/82/1 1355/81/1 1356/86/1
f 1357/82/1 1358/83/1 1359/84/1 1360/81/1
f 1361/82/1 1362/83/1 1363/84/1 1364/81/1
f 1365/85/1 1366/82/1 1367/81/1 1368/86/1
f 1369/85/1 1370/82/1 1371/81/1 1372/86/1
f 1373/82/1 1374/83/1 1375/84/1 1376/81/1
f 1377/82/1 1378/83/1 1379/84/1 1380/81/1
f 1381/93/1 1382/87/1 1383/90/1 1384/94/1
f 1385/85/1 1386/82/1 1387/81/1 1388/86/1
f 1389/85/1 1390/82/1 1391/81/1 1392/86/1
f 1393/82/1 1394/83/1 1395/84/1 1396/81/1
f 1397/82/1 1398/83/1 1399/84/1 1400/81/1
f 1401/85/1 1402/82/1 1403/81/1 1404/86/1
f 1405/85/1 1406/82/1 1407/81/1 1408/86/1
f 1409/82/1 1410/83/1 1411/84/1 1412/81/1
f 1413/82/1 1414/83/1 1415/84/1 1416/81/1
f 1417/95/1 1418/91/1 1419/87/1 1420/93/1
f 1421/85/1 1422/82/1 1423/81/1 1424/86/1
f 1425/85/1 1426/82/1 1427/81/1 1428/86/1
f 1429/82/1 1430/83/1 1431/84/1 1432/81/1
f 1433/82/1 1434/83/1 1435/84/1 1436/81/1
f 1437/85/1 1438/82/1 1439/81/1 1440/86/1
f 1441/85/1 1442/82/1 1443/81/1 1444/86/1
f 1445/82/1 1446/83/1 1447/84/1 1448/81/1
f 1449/82/1 1450/83/1 1451/84/1 1452/81/1
f 1453/86/1 1454/81/1 1455/96/1 1456/97/1
f 1457/81/1 1458/84/1 1459/98/1 1460/96/1
f 1461/85/1 1462/82/1 1463/81/1 1464/86/1
f 1465/85/1 1466/82/1 1467/81/1 1468/86/1
f 1469/82/1 1470/83/1 1471/84/1 1472/81/1
f 1473/82/1 1474/83/1 1475/84/1 1476/81/1
f 1477/85/1 1478/82/1 1479/81/1 1480/86/1
f 1481/85/1 1482/82/1 1483/81/1 1484/86/1
f 1485/82/1 1486/83/1 1487/84/1 1488/81/1
f 1489/82/1 1490/83/1 1491/84/1 1492/81/1
f 1493/81/1 1494/82/1 1495/83/1 1496/84/1
f 1497/81/1 1498/82/1 1499/83/1 1500/84/1
f 1501/81/1 1502/82/1 1503/83/1 1504/84/1
f 1505/81/1 1506/82/1 1507/83/1 1508/84/1
f 1509/81/1 1510/82/1 1511/83/1 1512/84/1
f 1513/81/1 1514/82/1 1515/83/1 1516/84/1
f 1517/81/1 1518/82/1 1519/83/1 1520/84/1
f 1521/85/1 1522/82/1 1523/81/1 1524/86/1
f 1525/82/1 1526/83/1 1527/84/1 1528/81/1
f 1529/81/1 1530/82/1 1531/83/1 1532/84/1
f 1533/81/1 1534/82/1 1535/83/1 1536/84/1
f 1537/81/1 1538/82/1 1539/83/1 1540/84/1
f 1541/81/1 1542/82/1 1543/83/1 1544/84/1
f 1545/81/1 1546/82/1 1547/83/1 1548/84/1
f 1549/81/1 1550/82/1 1551/83/1 1552/84/1
f 1553/81/1 1554/82/1 1555/83/1 1556/84/1
f 1557/85/1 1558/82/1 1559/81/1 1560/86/1
f 1561/85/1 1562/82/1 1563/81/1 1564/86/1
f 1565/82/1 1566/83/1 1567/84/1 1568/81/1
f 1569/82/1 1570/83/1 1571/84/1 1572/81/1
f 1573/85/1 1574/82/1 1575/81/1 1576/86/1
f 1577/85/1 1578/82/1 1579/81/1 1580/86/1
f 1581/85/1 1582/82/1 1583/81/1 1584/86/1
f 1585/85/1 1586/82/1 1587/81/1 1588/86/1
f 1589/85/1 1590/82/1 1591/81/1 1592/86/1
f 1593/85/1 1594/82/1 1595/81/1 1596/86/1
f 1597/85/1 1598/82/1 1599/81/1 1600/86/1
f 1601/85/1 1602/82/1 1603/81/1 1604/86/1
f 1605/85/1 1606/82/1 1607/81/1 1608/86/1
f 1609/85/1 1610/82/1 1611/81/1 1612/86/1
f 1613/85/1 1614/82/1 1615/81/1 1616/86/1
f 1617/99/1 1618/100/1 1619/82/1 1620/85/1
f 1621/100/1 1622/101/1 1623/83/1 1624/82/1
f 1625/82/1 1626/83/1 1627/84/1 1628/81/1
f 1629/82/1 1630/83/1 1631/84/1 1632/81/1
f 1633/82/1 1634/83/1 1635/84/1 1636/81/1
f 1637/82/1 1638/83/1 1639/84/1 1640/81/1
f 1641/82/1 1642/83/1 1643/84/1 1644/81/1
f 1645/82/1 1646/83/1 1647/84/1 1648/81/1
f 1649/82/1 1650/83/1 1651/84/1 1652/81/1
f 1653/82/1 1654/83/1 1655/84/1 1656/81/1
f 1657/82/1 1658/83/1 1659/84/1 1660/81/1
f 1661/82/1 1662/83/1 1663/84/1 1664/81/1
f 1665/82/1 1666/83/1 1667/84/1 1668/81/1
f 1669/99/1 1670/100/1 1671/82/1 1672/85/1
f 1673/99/1 1674/100/1 1675/82/1 1676/85/1
f 1677/99/1 1678/100/1 1679/82/1 1680/85/1
f 1681/99/1 1682/100/1 1683/82/1 1684/85/1
f 1685/99/1 1686/100/1 1687/82/1 1688/85/1
f 1689/99/1 1690/100/1 1691/82/1 1692/85/1
f 1693/99/1 1694/100/1 1695/82/1 1696/85/1
f 1697/99/1 1698/100/1 1699/82/1 1700/85/1
f 1701/99/1 1702/100/1 1703/82/1 1704/85/1
f 1705/99/1 1706/100/1 1707/82/1 1708/85/1
f 1709/99/1 1710/100/1 1711/82/1 1712/85/1
f 1713/100/1 1714/101/1 1715/83/1 1716/82/1
f 1717/100/1 1718/101/1 1719/83/1 1720/82/1
f 1721/100/1 1722/101/1 1723/83/1 1724/82/1
f 1725/100/1 1726/101/1 1727/83/1 1728/82/1
f 1729/100/1 1730/101/1 1731/83/1 1732/82/1
f 1733/100/1 1734/101/1 1735/83/1 1736/82/1
f 1737/100/1 1738/101/1 1739/83/1 1740/82/1
f 1741/100/1 1742/101/1 1743/83/1 1744/82/1
f 1745/100/1 1746/101/1 1747/83/1 1748/82/1
f 1749/100/1 1750/101/1 1751/83/1 1752/82/1
f 1753/100/1 1754/101/1 1755/83/1 1756/82/1
f 1757/47/1 1758/48/1 1759/49/1 1760/50/1
f 1761/58/1 1762/59/1 1763/60/1 1764/61/1
f 1765/59/1 1766/62/1 1767/63/1 1768/60/1
f 1769/58/1 1770/59/1 1771/60/1 1772/61/1
f 1773/59/1 1774/62/1 1775/63/1 1776/60/1
f 1777/47/1 1778/48/1 1779/49/1 1780/50/1
f 1781/47/1 1782/48/1 1783/49/1 1784/50/1
f 1785/64/1 1786/65/1 1787/59/1 1788/58/1
f 1789/65/1 1790/66/1 1791/62/1 1792/59/1
f 1793/64/1 1794/65/1 1795/59/1 1796/58/1
f 1797/65/1 1798/66/1 1799/62/1 1800/59/1
f 1801/68/1 1802/67/1 1803/70/1 1804/69/1
f 1805/68/1 1806/67/1 1807/70/1 1808/69/1
f 1809/68/1 1810/67/1 1811/70/1 1812/69/1
f 1813/68/1 1814/67/1 1815/70/1 1816/69/1
f 1817/68/1 1818/67/1 1819/70/1 1820/69/1
f 1821/72/1 1822/71/1 1823/67/1 1824/68/1
f 1825/72/1 1826/71/1 1827/67/1 1828/68/1
f 1829/72/1 1830/71/1 1831/67/1 1832/68/1
f 1833/72/1 1834/71/1 1835/67/1 1836/68/1
f 1837/72/1 1838/71/1 1839/67/1 1840/68/1
f 1841/74/1 1842/73/1 1843/71/1 1844/72/1
f 1845/74/1 1846/73/1 1847/71/1 1848/72/1
f 1849/74/1 1850/73/1 1851/71/1 1852/72/1
f 1853/74/1 1854/73/1 1855/71/1 1856/72/1
f 1857/74/1 1858/73/1 1859/71/1 1860/72/1
f 1861/58/1 1862/59/1 1863/60/1 1864/61/1
f 1865/59/1 1866/62/1 1867/63/1 1868/60/1
f 1869/58/1 1870/59/1 1871/60/1 1872/61/1
f 1873/59/1 1874/62/1 1875/63/1 1876/60/1
f 1877/64/1 1878/65/1 1879/59/1 1880/58/1
f 1881/65/1 1882/66/1 1883/62/1 1884/59/1
f 1885/64/1 1886/65/1 1887/59/1 1888/58/1
f 1889/65/1 1890/66/1 1891/62/1 1892/59/1
f 1893/72/1 1894/71/1 1895/67/1 1896/68/1
f 1897/72/1 1898/71/1 1899/67/1 1900/68/1
f 1901/72/1 1902/71/1 1903/67/1 1904/68/1
f 1905/72/1 1906/71/1 1907/67/1 1908/68/1
f 1909/72/1 1910/71/1 1911/67/1 1912/68/1
f 1913/74/1 1914/73/1 1915/71/1 1916/72/1
f 1917/74/1 1918/73/1 1919/71/1 1920/72/1
f 1921/74/1 1922/73/1 1923/71/1 1924/72/1
f 1925/74/1 1926/73/1 1927/71/1 1928/72/1
f 1929/74/1 1930/73/1 1931/71/1 1932/72/1
f 1933/48/1 1934/47/1 1935/50/1 1936/49/1
f 1937/48/1 1938/47/1 1939/50/1 1940/49/1
f 1941/48/1 1942/47/1 1943/50/1 1944/49/1
f 1945/47/1 1946/48/1 1947/49/1 1948/50/1
f 1949/47/1 1950/48/1 1951/49/1 1952/50/1
f 1953/47/1 1954/48/1 1955/49/1 1956/50/1
f 1957/48/1 1958/47/1 1959/50/1 1960/49/1
f 1961/47/1 1962/48/1 1963/49/1 1964/50/1
f 1965/48/1 1966/47/1 1967/50/1 1968/49/1
f 1969/48/1 1970/47/1 1971/50/1 1972/49/1
f 1973/47/1 1974/48/1 1975/49/1 1976/50/1
f 1977/47/1 1978/48/1 1979/49/1 1980/50/1

