﻿# Tiled2Unity generated file. Do not modify by hand.
# Wavefront file for 'CrashCity_mesh_0019.obj'

# Vertices (Count = 3304)
v -320 -128 0
v -352 -128 0
v -352 -96 0
v -320 -96 0
v -352 -128 0
v -384 -128 0
v -384 -96 0
v -352 -96 0
v -384 -128 0
v -416 -128 0
v -416 -96 0
v -384 -96 0
v -416 -128 0
v -448 -128 0
v -448 -96 0
v -416 -96 0
v -448 -128 0
v -480 -128 0
v -480 -96 0
v -448 -96 0
v -320 -160 0
v -352 -160 0
v -352 -128 0
v -320 -128 0
v -352 -160 0
v -384 -160 0
v -384 -128 0
v -352 -128 0
v -384 -160 0
v -416 -160 0
v -416 -128 0
v -384 -128 0
v -416 -160 0
v -448 -160 0
v -448 -128 0
v -416 -128 0
v -448 -160 0
v -480 -160 0
v -480 -128 0
v -448 -128 0
v -320 -192 0
v -352 -192 0
v -352 -160 0
v -320 -160 0
v -352 -192 0
v -384 -192 0
v -384 -160 0
v -352 -160 0
v -384 -192 0
v -416 -192 0
v -416 -160 0
v -384 -160 0
v -416 -192 0
v -448 -192 0
v -448 -160 0
v -416 -160 0
v -448 -192 0
v -480 -192 0
v -480 -160 0
v -448 -160 0
v -352 -224 0
v -384 -224 0
v -384 -192 0
v -352 -192 0
v -416 -224 0
v -448 -224 0
v -448 -192 0
v -416 -192 0
v -1120 -224 0
v -1152 -224 0
v -1152 -192 0
v -1120 -192 0
v -1152 -224 0
v -1184 -224 0
v -1184 -192 0
v -1152 -192 0
v -1184 -224 0
v -1216 -224 0
v -1216 -192 0
v -1184 -192 0
v -1216 -224 0
v -1248 -224 0
v -1248 -192 0
v -1216 -192 0
v -1248 -224 0
v -1280 -224 0
v -1280 -192 0
v -1248 -192 0
v -1280 -224 0
v -1312 -224 0
v -1312 -192 0
v -1280 -192 0
v -1312 -224 0
v -1344 -224 0
v -1344 -192 0
v -1312 -192 0
v -1344 -224 0
v -1376 -224 0
v -1376 -192 0
v -1344 -192 0
v -1376 -224 0
v -1408 -224 0
v -1408 -192 0
v -1376 -192 0
v -1408 -224 0
v -1440 -224 0
v -1440 -192 0
v -1408 -192 0
v -1440 -224 0
v -1472 -224 0
v -1472 -192 0
v -1440 -192 0
v -352 -256 0
v -384 -256 0
v -384 -224 0
v -352 -224 0
v -416 -256 0
v -448 -256 0
v -448 -224 0
v -416 -224 0
v -1120 -256 0
v -1152 -256 0
v -1152 -224 0
v -1120 -224 0
v -1152 -256 0
v -1184 -256 0
v -1184 -224 0
v -1152 -224 0
v -1184 -256 0
v -1216 -256 0
v -1216 -224 0
v -1184 -224 0
v -1216 -256 0
v -1248 -256 0
v -1248 -224 0
v -1216 -224 0
v -1248 -256 0
v -1280 -256 0
v -1280 -224 0
v -1248 -224 0
v -1280 -256 0
v -1312 -256 0
v -1312 -224 0
v -1280 -224 0
v -1312 -256 0
v -1344 -256 0
v -1344 -224 0
v -1312 -224 0
v -1344 -256 0
v -1376 -256 0
v -1376 -224 0
v -1344 -224 0
v -1376 -256 0
v -1408 -256 0
v -1408 -224 0
v -1376 -224 0
v -1408 -256 0
v -1440 -256 0
v -1440 -224 0
v -1408 -224 0
v -1440 -256 0
v -1472 -256 0
v -1472 -224 0
v -1440 -224 0
v -352 -288 0
v -384 -288 0
v -384 -256 0
v -352 -256 0
v -416 -288 0
v -448 -288 0
v -448 -256 0
v -416 -256 0
v -1120 -288 0
v -1152 -288 0
v -1152 -256 0
v -1120 -256 0
v -1152 -288 0
v -1184 -288 0
v -1184 -256 0
v -1152 -256 0
v -1184 -288 0
v -1216 -288 0
v -1216 -256 0
v -1184 -256 0
v -1216 -288 0
v -1248 -288 0
v -1248 -256 0
v -1216 -256 0
v -1248 -288 0
v -1280 -288 0
v -1280 -256 0
v -1248 -256 0
v -1280 -288 0
v -1312 -288 0
v -1312 -256 0
v -1280 -256 0
v -1312 -288 0
v -1344 -288 0
v -1344 -256 0
v -1312 -256 0
v -1344 -288 0
v -1376 -288 0
v -1376 -256 0
v -1344 -256 0
v -1376 -288 0
v -1408 -288 0
v -1408 -256 0
v -1376 -256 0
v -1408 -288 0
v -1440 -288 0
v -1440 -256 0
v -1408 -256 0
v -1440 -288 0
v -1472 -288 0
v -1472 -256 0
v -1440 -256 0
v -352 -320 0
v -384 -320 0
v -384 -288 0
v -352 -288 0
v -384 -320 0
v -416 -320 0
v -416 -288 0
v -384 -288 0
v -416 -320 0
v -448 -320 0
v -448 -288 0
v -416 -288 0
v -448 -320 0
v -480 -320 0
v -480 -288 0
v -448 -288 0
v -736 -320 0
v -768 -320 0
v -768 -288 0
v -736 -288 0
v -800 -320 0
v -832 -320 0
v -832 -288 0
v -800 -288 0
v -864 -320 0
v -896 -320 0
v -896 -288 0
v -864 -288 0
v -928 -320 0
v -960 -320 0
v -960 -288 0
v -928 -288 0
v -1152 -320 0
v -1184 -320 0
v -1184 -288 0
v -1152 -288 0
v -1216 -320 0
v -1248 -320 0
v -1248 -288 0
v -1216 -288 0
v -1280 -320 0
v -1312 -320 0
v -1312 -288 0
v -1280 -288 0
v -1312 -320 0
v -1344 -320 0
v -1344 -288 0
v -1312 -288 0
v -1344 -320 0
v -1376 -320 0
v -1376 -288 0
v -1344 -288 0
v -1376 -320 0
v -1408 -320 0
v -1408 -288 0
v -1376 -288 0
v -1408 -320 0
v -1440 -320 0
v -1440 -288 0
v -1408 -288 0
v -352 -352 0
v -384 -352 0
v -384 -320 0
v -352 -320 0
v -416 -352 0
v -448 -352 0
v -448 -320 0
v -416 -320 0
v -1152 -352 0
v -1184 -352 0
v -1184 -320 0
v -1152 -320 0
v -1216 -352 0
v -1248 -352 0
v -1248 -320 0
v -1216 -320 0
v -1280 -352 0
v -1312 -352 0
v -1312 -320 0
v -1280 -320 0
v -1312 -352 0
v -1344 -352 0
v -1344 -320 0
v -1312 -320 0
v -1344 -352 0
v -1376 -352 0
v -1376 -320 0
v -1344 -320 0
v -1408 -352 0
v -1440 -352 0
v -1440 -320 0
v -1408 -320 0
v -352 -384 0
v -384 -384 0
v -384 -352 0
v -352 -352 0
v -416 -384 0
v -448 -384 0
v -448 -352 0
v -416 -352 0
v -736 -384 0
v -768 -384 0
v -768 -352 0
v -736 -352 0
v -800 -384 0
v -832 -384 0
v -832 -352 0
v -800 -352 0
v -864 -384 0
v -896 -384 0
v -896 -352 0
v -864 -352 0
v -928 -384 0
v -960 -384 0
v -960 -352 0
v -928 -352 0
v -1152 -384 0
v -1184 -384 0
v -1184 -352 0
v -1152 -352 0
v -1216 -384 0
v -1248 -384 0
v -1248 -352 0
v -1216 -352 0
v -1280 -384 0
v -1312 -384 0
v -1312 -352 0
v -1280 -352 0
v -1312 -384 0
v -1344 -384 0
v -1344 -352 0
v -1312 -352 0
v -352 -416 0
v -384 -416 0
v -384 -384 0
v -352 -384 0
v -416 -416 0
v -448 -416 0
v -448 -384 0
v -416 -384 0
v -1152 -416 0
v -1184 -416 0
v -1184 -384 0
v -1152 -384 0
v -1184 -416 0
v -1216 -416 0
v -1216 -384 0
v -1184 -384 0
v -1216 -416 0
v -1248 -416 0
v -1248 -384 0
v -1216 -384 0
v -1248 -416 0
v -1280 -416 0
v -1280 -384 0
v -1248 -384 0
v -1280 -416 0
v -1312 -416 0
v -1312 -384 0
v -1280 -384 0
v -1312 -416 0
v -1344 -416 0
v -1344 -384 0
v -1312 -384 0
v -1344 -416 0
v -1376 -416 0
v -1376 -384 0
v -1344 -384 0
v -1408 -416 0
v -1440 -416 0
v -1440 -384 0
v -1408 -384 0
v -736 -448 0
v -768 -448 0
v -768 -416 0
v -736 -416 0
v -800 -448 0
v -832 -448 0
v -832 -416 0
v -800 -416 0
v -864 -448 0
v -896 -448 0
v -896 -416 0
v -864 -416 0
v -928 -448 0
v -960 -448 0
v -960 -416 0
v -928 -416 0
v -1152 -448 0
v -1184 -448 0
v -1184 -416 0
v -1152 -416 0
v -1216 -448 0
v -1248 -448 0
v -1248 -416 0
v -1216 -416 0
v -1280 -448 0
v -1312 -448 0
v -1312 -416 0
v -1280 -416 0
v -1312 -448 0
v -1344 -448 0
v -1344 -416 0
v -1312 -416 0
v -1344 -448 0
v -1376 -448 0
v -1376 -416 0
v -1344 -416 0
v -1408 -448 0
v -1440 -448 0
v -1440 -416 0
v -1408 -416 0
v -1152 -480 0
v -1184 -480 0
v -1184 -448 0
v -1152 -448 0
v -1216 -480 0
v -1248 -480 0
v -1248 -448 0
v -1216 -448 0
v -1280 -480 0
v -1312 -480 0
v -1312 -448 0
v -1280 -448 0
v -1312 -480 0
v -1344 -480 0
v -1344 -448 0
v -1312 -448 0
v -1344 -480 0
v -1376 -480 0
v -1376 -448 0
v -1344 -448 0
v -1408 -480 0
v -1440 -480 0
v -1440 -448 0
v -1408 -448 0
v -1152 -512 0
v -1184 -512 0
v -1184 -480 0
v -1152 -480 0
v -1216 -512 0
v -1248 -512 0
v -1248 -480 0
v -1216 -480 0
v -1312 -512 0
v -1344 -512 0
v -1344 -480 0
v -1312 -480 0
v -1344 -512 0
v -1376 -512 0
v -1376 -480 0
v -1344 -480 0
v -1408 -512 0
v -1440 -512 0
v -1440 -480 0
v -1408 -480 0
v -1440 -512 0
v -1472 -512 0
v -1472 -480 0
v -1440 -480 0
v -320 -576 0
v -352 -576 0
v -352 -544 0
v -320 -544 0
v -352 -576 0
v -384 -576 0
v -384 -544 0
v -352 -544 0
v -384 -576 0
v -416 -576 0
v -416 -544 0
v -384 -544 0
v -416 -576 0
v -448 -576 0
v -448 -544 0
v -416 -544 0
v -448 -576 0
v -480 -576 0
v -480 -544 0
v -448 -544 0
v -320 -608 0
v -352 -608 0
v -352 -576 0
v -320 -576 0
v -352 -608 0
v -384 -608 0
v -384 -576 0
v -352 -576 0
v -384 -608 0
v -416 -608 0
v -416 -576 0
v -384 -576 0
v -416 -608 0
v -448 -608 0
v -448 -576 0
v -416 -576 0
v -448 -608 0
v -480 -608 0
v -480 -576 0
v -448 -576 0
v -320 -640 0
v -352 -640 0
v -352 -608 0
v -320 -608 0
v -352 -640 0
v -384 -640 0
v -384 -608 0
v -352 -608 0
v -384 -640 0
v -416 -640 0
v -416 -608 0
v -384 -608 0
v -416 -640 0
v -448 -640 0
v -448 -608 0
v -416 -608 0
v -448 -640 0
v -480 -640 0
v -480 -608 0
v -448 -608 0
v -352 -672 0
v -384 -672 0
v -384 -640 0
v -352 -640 0
v -416 -672 0
v -448 -672 0
v -448 -640 0
v -416 -640 0
v -352 -704 0
v -384 -704 0
v -384 -672 0
v -352 -672 0
v -416 -704 0
v -448 -704 0
v -448 -672 0
v -416 -672 0
v -352 -736 0
v -384 -736 0
v -384 -704 0
v -352 -704 0
v -416 -736 0
v -448 -736 0
v -448 -704 0
v -416 -704 0
v -352 -768 0
v -384 -768 0
v -384 -736 0
v -352 -736 0
v -384 -768 0
v -416 -768 0
v -416 -736 0
v -384 -736 0
v -416 -768 0
v -448 -768 0
v -448 -736 0
v -416 -736 0
v -448 -768 0
v -480 -768 0
v -480 -736 0
v -448 -736 0
v -352 -800 0
v -384 -800 0
v -384 -768 0
v -352 -768 0
v -416 -800 0
v -448 -800 0
v -448 -768 0
v -416 -768 0
v -352 -832 0
v -384 -832 0
v -384 -800 0
v -352 -800 0
v -416 -832 0
v -448 -832 0
v -448 -800 0
v -416 -800 0
v -352 -864 0
v -384 -864 0
v -384 -832 0
v -352 -832 0
v -416 -864 0
v -448 -864 0
v -448 -832 0
v -416 -832 0
v -1120 -1344 0
v -1152 -1344 0
v -1152 -1312 0
v -1120 -1312 0
v -1152 -1344 0
v -1184 -1344 0
v -1184 -1312 0
v -1152 -1312 0
v -1184 -1344 0
v -1216 -1344 0
v -1216 -1312 0
v -1184 -1312 0
v -1216 -1344 0
v -1248 -1344 0
v -1248 -1312 0
v -1216 -1312 0
v -1248 -1344 0
v -1280 -1344 0
v -1280 -1312 0
v -1248 -1312 0
v -1280 -1344 0
v -1312 -1344 0
v -1312 -1312 0
v -1280 -1312 0
v -1312 -1344 0
v -1344 -1344 0
v -1344 -1312 0
v -1312 -1312 0
v -1344 -1344 0
v -1376 -1344 0
v -1376 -1312 0
v -1344 -1312 0
v -1376 -1344 0
v -1408 -1344 0
v -1408 -1312 0
v -1376 -1312 0
v -1408 -1344 0
v -1440 -1344 0
v -1440 -1312 0
v -1408 -1312 0
v -1440 -1344 0
v -1472 -1344 0
v -1472 -1312 0
v -1440 -1312 0
v -1568 -1344 0
v -1600 -1344 0
v -1600 -1312 0
v -1568 -1312 0
v -1600 -1344 0
v -1632 -1344 0
v -1632 -1312 0
v -1600 -1312 0
v -1632 -1344 0
v -1664 -1344 0
v -1664 -1312 0
v -1632 -1312 0
v -1664 -1344 0
v -1696 -1344 0
v -1696 -1312 0
v -1664 -1312 0
v -1696 -1344 0
v -1728 -1344 0
v -1728 -1312 0
v -1696 -1312 0
v -1728 -1344 0
v -1760 -1344 0
v -1760 -1312 0
v -1728 -1312 0
v -1760 -1344 0
v -1792 -1344 0
v -1792 -1312 0
v -1760 -1312 0
v -1792 -1344 0
v -1824 -1344 0
v -1824 -1312 0
v -1792 -1312 0
v -1824 -1344 0
v -1856 -1344 0
v -1856 -1312 0
v -1824 -1312 0
v -1856 -1344 0
v -1888 -1344 0
v -1888 -1312 0
v -1856 -1312 0
v -1888 -1344 0
v -1920 -1344 0
v -1920 -1312 0
v -1888 -1312 0
v -1120 -1376 0
v -1152 -1376 0
v -1152 -1344 0
v -1120 -1344 0
v -1152 -1376 0
v -1184 -1376 0
v -1184 -1344 0
v -1152 -1344 0
v -1184 -1376 0
v -1216 -1376 0
v -1216 -1344 0
v -1184 -1344 0
v -1216 -1376 0
v -1248 -1376 0
v -1248 -1344 0
v -1216 -1344 0
v -1248 -1376 0
v -1280 -1376 0
v -1280 -1344 0
v -1248 -1344 0
v -1280 -1376 0
v -1312 -1376 0
v -1312 -1344 0
v -1280 -1344 0
v -1312 -1376 0
v -1344 -1376 0
v -1344 -1344 0
v -1312 -1344 0
v -1344 -1376 0
v -1376 -1376 0
v -1376 -1344 0
v -1344 -1344 0
v -1376 -1376 0
v -1408 -1376 0
v -1408 -1344 0
v -1376 -1344 0
v -1408 -1376 0
v -1440 -1376 0
v -1440 -1344 0
v -1408 -1344 0
v -1440 -1376 0
v -1472 -1376 0
v -1472 -1344 0
v -1440 -1344 0
v -1568 -1376 0
v -1600 -1376 0
v -1600 -1344 0
v -1568 -1344 0
v -1600 -1376 0
v -1632 -1376 0
v -1632 -1344 0
v -1600 -1344 0
v -1632 -1376 0
v -1664 -1376 0
v -1664 -1344 0
v -1632 -1344 0
v -1664 -1376 0
v -1696 -1376 0
v -1696 -1344 0
v -1664 -1344 0
v -1696 -1376 0
v -1728 -1376 0
v -1728 -1344 0
v -1696 -1344 0
v -1728 -1376 0
v -1760 -1376 0
v -1760 -1344 0
v -1728 -1344 0
v -1760 -1376 0
v -1792 -1376 0
v -1792 -1344 0
v -1760 -1344 0
v -1792 -1376 0
v -1824 -1376 0
v -1824 -1344 0
v -1792 -1344 0
v -1824 -1376 0
v -1856 -1376 0
v -1856 -1344 0
v -1824 -1344 0
v -1856 -1376 0
v -1888 -1376 0
v -1888 -1344 0
v -1856 -1344 0
v -1888 -1376 0
v -1920 -1376 0
v -1920 -1344 0
v -1888 -1344 0
v -1120 -1408 0
v -1152 -1408 0
v -1152 -1376 0
v -1120 -1376 0
v -1152 -1408 0
v -1184 -1408 0
v -1184 -1376 0
v -1152 -1376 0
v -1184 -1408 0
v -1216 -1408 0
v -1216 -1376 0
v -1184 -1376 0
v -1216 -1408 0
v -1248 -1408 0
v -1248 -1376 0
v -1216 -1376 0
v -1248 -1408 0
v -1280 -1408 0
v -1280 -1376 0
v -1248 -1376 0
v -1280 -1408 0
v -1312 -1408 0
v -1312 -1376 0
v -1280 -1376 0
v -1312 -1408 0
v -1344 -1408 0
v -1344 -1376 0
v -1312 -1376 0
v -1344 -1408 0
v -1376 -1408 0
v -1376 -1376 0
v -1344 -1376 0
v -1376 -1408 0
v -1408 -1408 0
v -1408 -1376 0
v -1376 -1376 0
v -1408 -1408 0
v -1440 -1408 0
v -1440 -1376 0
v -1408 -1376 0
v -1440 -1408 0
v -1472 -1408 0
v -1472 -1376 0
v -1440 -1376 0
v -1568 -1408 0
v -1600 -1408 0
v -1600 -1376 0
v -1568 -1376 0
v -1600 -1408 0
v -1632 -1408 0
v -1632 -1376 0
v -1600 -1376 0
v -1632 -1408 0
v -1664 -1408 0
v -1664 -1376 0
v -1632 -1376 0
v -1664 -1408 0
v -1696 -1408 0
v -1696 -1376 0
v -1664 -1376 0
v -1696 -1408 0
v -1728 -1408 0
v -1728 -1376 0
v -1696 -1376 0
v -1728 -1408 0
v -1760 -1408 0
v -1760 -1376 0
v -1728 -1376 0
v -1760 -1408 0
v -1792 -1408 0
v -1792 -1376 0
v -1760 -1376 0
v -1792 -1408 0
v -1824 -1408 0
v -1824 -1376 0
v -1792 -1376 0
v -1824 -1408 0
v -1856 -1408 0
v -1856 -1376 0
v -1824 -1376 0
v -1856 -1408 0
v -1888 -1408 0
v -1888 -1376 0
v -1856 -1376 0
v -1888 -1408 0
v -1920 -1408 0
v -1920 -1376 0
v -1888 -1376 0
v -1152 -1440 0
v -1184 -1440 0
v -1184 -1408 0
v -1152 -1408 0
v -1216 -1440 0
v -1248 -1440 0
v -1248 -1408 0
v -1216 -1408 0
v -1312 -1440 0
v -1344 -1440 0
v -1344 -1408 0
v -1312 -1408 0
v -1408 -1440 0
v -1440 -1440 0
v -1440 -1408 0
v -1408 -1408 0
v -1600 -1440 0
v -1632 -1440 0
v -1632 -1408 0
v -1600 -1408 0
v -1664 -1440 0
v -1696 -1440 0
v -1696 -1408 0
v -1664 -1408 0
v -1728 -1440 0
v -1760 -1440 0
v -1760 -1408 0
v -1728 -1408 0
v -1760 -1440 0
v -1792 -1440 0
v -1792 -1408 0
v -1760 -1408 0
v -1792 -1440 0
v -1824 -1440 0
v -1824 -1408 0
v -1792 -1408 0
v -1824 -1440 0
v -1856 -1440 0
v -1856 -1408 0
v -1824 -1408 0
v -1856 -1440 0
v -1888 -1440 0
v -1888 -1408 0
v -1856 -1408 0
v -1152 -1472 0
v -1184 -1472 0
v -1184 -1440 0
v -1152 -1440 0
v -1184 -1472 0
v -1216 -1472 0
v -1216 -1440 0
v -1184 -1440 0
v -1216 -1472 0
v -1248 -1472 0
v -1248 -1440 0
v -1216 -1440 0
v -1248 -1472 0
v -1280 -1472 0
v -1280 -1440 0
v -1248 -1440 0
v -1280 -1472 0
v -1312 -1472 0
v -1312 -1440 0
v -1280 -1440 0
v -1312 -1472 0
v -1344 -1472 0
v -1344 -1440 0
v -1312 -1440 0
v -1344 -1472 0
v -1376 -1472 0
v -1376 -1440 0
v -1344 -1440 0
v -1376 -1472 0
v -1408 -1472 0
v -1408 -1440 0
v -1376 -1440 0
v -1408 -1472 0
v -1440 -1472 0
v -1440 -1440 0
v -1408 -1440 0
v -1600 -1472 0
v -1632 -1472 0
v -1632 -1440 0
v -1600 -1440 0
v -1664 -1472 0
v -1696 -1472 0
v -1696 -1440 0
v -1664 -1440 0
v -1728 -1472 0
v -1760 -1472 0
v -1760 -1440 0
v -1728 -1440 0
v -1760 -1472 0
v -1792 -1472 0
v -1792 -1440 0
v -1760 -1440 0
v -1792 -1472 0
v -1824 -1472 0
v -1824 -1440 0
v -1792 -1440 0
v -1856 -1472 0
v -1888 -1472 0
v -1888 -1440 0
v -1856 -1440 0
v -1152 -1504 0
v -1184 -1504 0
v -1184 -1472 0
v -1152 -1472 0
v -1216 -1504 0
v -1248 -1504 0
v -1248 -1472 0
v -1216 -1472 0
v -1280 -1504 0
v -1312 -1504 0
v -1312 -1472 0
v -1280 -1472 0
v -1600 -1504 0
v -1632 -1504 0
v -1632 -1472 0
v -1600 -1472 0
v -1664 -1504 0
v -1696 -1504 0
v -1696 -1472 0
v -1664 -1472 0
v -1728 -1504 0
v -1760 -1504 0
v -1760 -1472 0
v -1728 -1472 0
v -1760 -1504 0
v -1792 -1504 0
v -1792 -1472 0
v -1760 -1472 0
v -1152 -1536 0
v -1184 -1536 0
v -1184 -1504 0
v -1152 -1504 0
v -1184 -1536 0
v -1216 -1536 0
v -1216 -1504 0
v -1184 -1504 0
v -1216 -1536 0
v -1248 -1536 0
v -1248 -1504 0
v -1216 -1504 0
v -1248 -1536 0
v -1280 -1536 0
v -1280 -1504 0
v -1248 -1504 0
v -1344 -1536 0
v -1376 -1536 0
v -1376 -1504 0
v -1344 -1504 0
v -1376 -1536 0
v -1408 -1536 0
v -1408 -1504 0
v -1376 -1504 0
v -1408 -1536 0
v -1440 -1536 0
v -1440 -1504 0
v -1408 -1504 0
v -1600 -1536 0
v -1632 -1536 0
v -1632 -1504 0
v -1600 -1504 0
v -1632 -1536 0
v -1664 -1536 0
v -1664 -1504 0
v -1632 -1504 0
v -1664 -1536 0
v -1696 -1536 0
v -1696 -1504 0
v -1664 -1504 0
v -1696 -1536 0
v -1728 -1536 0
v -1728 -1504 0
v -1696 -1504 0
v -1728 -1536 0
v -1760 -1536 0
v -1760 -1504 0
v -1728 -1504 0
v -1760 -1536 0
v -1792 -1536 0
v -1792 -1504 0
v -1760 -1504 0
v -1792 -1536 0
v -1824 -1536 0
v -1824 -1504 0
v -1792 -1504 0
v -1856 -1536 0
v -1888 -1536 0
v -1888 -1504 0
v -1856 -1504 0
v -1152 -1568 0
v -1184 -1568 0
v -1184 -1536 0
v -1152 -1536 0
v -1184 -1568 0
v -1216 -1568 0
v -1216 -1536 0
v -1184 -1536 0
v -1216 -1568 0
v -1248 -1568 0
v -1248 -1536 0
v -1216 -1536 0
v -1280 -1568 0
v -1312 -1568 0
v -1312 -1536 0
v -1280 -1536 0
v -1344 -1568 0
v -1376 -1568 0
v -1376 -1536 0
v -1344 -1536 0
v -1376 -1568 0
v -1408 -1568 0
v -1408 -1536 0
v -1376 -1536 0
v -1408 -1568 0
v -1440 -1568 0
v -1440 -1536 0
v -1408 -1536 0
v -1600 -1568 0
v -1632 -1568 0
v -1632 -1536 0
v -1600 -1536 0
v -1664 -1568 0
v -1696 -1568 0
v -1696 -1536 0
v -1664 -1536 0
v -1728 -1568 0
v -1760 -1568 0
v -1760 -1536 0
v -1728 -1536 0
v -1760 -1568 0
v -1792 -1568 0
v -1792 -1536 0
v -1760 -1536 0
v -1792 -1568 0
v -1824 -1568 0
v -1824 -1536 0
v -1792 -1536 0
v -1856 -1568 0
v -1888 -1568 0
v -1888 -1536 0
v -1856 -1536 0
v -1152 -1600 0
v -1184 -1600 0
v -1184 -1568 0
v -1152 -1568 0
v -1184 -1600 0
v -1216 -1600 0
v -1216 -1568 0
v -1184 -1568 0
v -1216 -1600 0
v -1248 -1600 0
v -1248 -1568 0
v -1216 -1568 0
v -1280 -1600 0
v -1312 -1600 0
v -1312 -1568 0
v -1280 -1568 0
v -1312 -1600 0
v -1344 -1600 0
v -1344 -1568 0
v -1312 -1568 0
v -1344 -1600 0
v -1376 -1600 0
v -1376 -1568 0
v -1344 -1568 0
v -1376 -1600 0
v -1408 -1600 0
v -1408 -1568 0
v -1376 -1568 0
v -1408 -1600 0
v -1440 -1600 0
v -1440 -1568 0
v -1408 -1568 0
v -1600 -1600 0
v -1632 -1600 0
v -1632 -1568 0
v -1600 -1568 0
v -1664 -1600 0
v -1696 -1600 0
v -1696 -1568 0
v -1664 -1568 0
v -1728 -1600 0
v -1760 -1600 0
v -1760 -1568 0
v -1728 -1568 0
v -1760 -1600 0
v -1792 -1600 0
v -1792 -1568 0
v -1760 -1568 0
v -1792 -1600 0
v -1824 -1600 0
v -1824 -1568 0
v -1792 -1568 0
v -1856 -1600 0
v -1888 -1600 0
v -1888 -1568 0
v -1856 -1568 0
v -1152 -1632 0
v -1184 -1632 0
v -1184 -1600 0
v -1152 -1600 0
v -1216 -1632 0
v -1248 -1632 0
v -1248 -1600 0
v -1216 -1600 0
v -1280 -1632 0
v -1312 -1632 0
v -1312 -1600 0
v -1280 -1600 0
v -1344 -1632 0
v -1376 -1632 0
v -1376 -1600 0
v -1344 -1600 0
v -1408 -1632 0
v -1440 -1632 0
v -1440 -1600 0
v -1408 -1600 0
v -1440 -1632 0
v -1472 -1632 0
v -1472 -1600 0
v -1440 -1600 0
v -1600 -1632 0
v -1632 -1632 0
v -1632 -1600 0
v -1600 -1600 0
v -1664 -1632 0
v -1696 -1632 0
v -1696 -1600 0
v -1664 -1600 0
v -1760 -1632 0
v -1792 -1632 0
v -1792 -1600 0
v -1760 -1600 0
v -1792 -1632 0
v -1824 -1632 0
v -1824 -1600 0
v -1792 -1600 0
v -1856 -1632 0
v -1888 -1632 0
v -1888 -1600 0
v -1856 -1600 0
v -1888 -1632 0
v -1920 -1632 0
v -1920 -1600 0
v -1888 -1600 0
v -1568 -1984 0
v -1600 -1984 0
v -1600 -1952 0
v -1568 -1952 0
v -1600 -1984 0
v -1632 -1984 0
v -1632 -1952 0
v -1600 -1952 0
v -1632 -1984 0
v -1664 -1984 0
v -1664 -1952 0
v -1632 -1952 0
v -1664 -1984 0
v -1696 -1984 0
v -1696 -1952 0
v -1664 -1952 0
v -1696 -1984 0
v -1728 -1984 0
v -1728 -1952 0
v -1696 -1952 0
v -1728 -1984 0
v -1760 -1984 0
v -1760 -1952 0
v -1728 -1952 0
v -1760 -1984 0
v -1792 -1984 0
v -1792 -1952 0
v -1760 -1952 0
v -1792 -1984 0
v -1824 -1984 0
v -1824 -1952 0
v -1792 -1952 0
v -1824 -1984 0
v -1856 -1984 0
v -1856 -1952 0
v -1824 -1952 0
v -1856 -1984 0
v -1888 -1984 0
v -1888 -1952 0
v -1856 -1952 0
v -1888 -1984 0
v -1920 -1984 0
v -1920 -1952 0
v -1888 -1952 0
v -2016 -1984 0
v -2048 -1984 0
v -2048 -1952 0
v -2016 -1952 0
v -2048 -1984 0
v -2080 -1984 0
v -2080 -1952 0
v -2048 -1952 0
v -2080 -1984 0
v -2112 -1984 0
v -2112 -1952 0
v -2080 -1952 0
v -2112 -1984 0
v -2144 -1984 0
v -2144 -1952 0
v -2112 -1952 0
v -2144 -1984 0
v -2176 -1984 0
v -2176 -1952 0
v -2144 -1952 0
v -2176 -1984 0
v -2208 -1984 0
v -2208 -1952 0
v -2176 -1952 0
v -2208 -1984 0
v -2240 -1984 0
v -2240 -1952 0
v -2208 -1952 0
v -2240 -1984 0
v -2272 -1984 0
v -2272 -1952 0
v -2240 -1952 0
v -2272 -1984 0
v -2304 -1984 0
v -2304 -1952 0
v -2272 -1952 0
v -2304 -1984 0
v -2336 -1984 0
v -2336 -1952 0
v -2304 -1952 0
v -2336 -1984 0
v -2368 -1984 0
v -2368 -1952 0
v -2336 -1952 0
v -2464 -1984 0
v -2496 -1984 0
v -2496 -1952 0
v -2464 -1952 0
v -2496 -1984 0
v -2528 -1984 0
v -2528 -1952 0
v -2496 -1952 0
v -2528 -1984 0
v -2560 -1984 0
v -2560 -1952 0
v -2528 -1952 0
v -2560 -1984 0
v -2592 -1984 0
v -2592 -1952 0
v -2560 -1952 0
v -2592 -1984 0
v -2624 -1984 0
v -2624 -1952 0
v -2592 -1952 0
v -2624 -1984 0
v -2656 -1984 0
v -2656 -1952 0
v -2624 -1952 0
v -2656 -1984 0
v -2688 -1984 0
v -2688 -1952 0
v -2656 -1952 0
v -2688 -1984 0
v -2720 -1984 0
v -2720 -1952 0
v -2688 -1952 0
v -2720 -1984 0
v -2752 -1984 0
v -2752 -1952 0
v -2720 -1952 0
v -2752 -1984 0
v -2784 -1984 0
v -2784 -1952 0
v -2752 -1952 0
v -2784 -1984 0
v -2816 -1984 0
v -2816 -1952 0
v -2784 -1952 0
v -1568 -2016 0
v -1600 -2016 0
v -1600 -1984 0
v -1568 -1984 0
v -1600 -2016 0
v -1632 -2016 0
v -1632 -1984 0
v -1600 -1984 0
v -1632 -2016 0
v -1664 -2016 0
v -1664 -1984 0
v -1632 -1984 0
v -1664 -2016 0
v -1696 -2016 0
v -1696 -1984 0
v -1664 -1984 0
v -1696 -2016 0
v -1728 -2016 0
v -1728 -1984 0
v -1696 -1984 0
v -1728 -2016 0
v -1760 -2016 0
v -1760 -1984 0
v -1728 -1984 0
v -1760 -2016 0
v -1792 -2016 0
v -1792 -1984 0
v -1760 -1984 0
v -1792 -2016 0
v -1824 -2016 0
v -1824 -1984 0
v -1792 -1984 0
v -1824 -2016 0
v -1856 -2016 0
v -1856 -1984 0
v -1824 -1984 0
v -1856 -2016 0
v -1888 -2016 0
v -1888 -1984 0
v -1856 -1984 0
v -1888 -2016 0
v -1920 -2016 0
v -1920 -1984 0
v -1888 -1984 0
v -2016 -2016 0
v -2048 -2016 0
v -2048 -1984 0
v -2016 -1984 0
v -2048 -2016 0
v -2080 -2016 0
v -2080 -1984 0
v -2048 -1984 0
v -2080 -2016 0
v -2112 -2016 0
v -2112 -1984 0
v -2080 -1984 0
v -2112 -2016 0
v -2144 -2016 0
v -2144 -1984 0
v -2112 -1984 0
v -2144 -2016 0
v -2176 -2016 0
v -2176 -1984 0
v -2144 -1984 0
v -2176 -2016 0
v -2208 -2016 0
v -2208 -1984 0
v -2176 -1984 0
v -2208 -2016 0
v -2240 -2016 0
v -2240 -1984 0
v -2208 -1984 0
v -2240 -2016 0
v -2272 -2016 0
v -2272 -1984 0
v -2240 -1984 0
v -2272 -2016 0
v -2304 -2016 0
v -2304 -1984 0
v -2272 -1984 0
v -2304 -2016 0
v -2336 -2016 0
v -2336 -1984 0
v -2304 -1984 0
v -2336 -2016 0
v -2368 -2016 0
v -2368 -1984 0
v -2336 -1984 0
v -2464 -2016 0
v -2496 -2016 0
v -2496 -1984 0
v -2464 -1984 0
v -2496 -2016 0
v -2528 -2016 0
v -2528 -1984 0
v -2496 -1984 0
v -2528 -2016 0
v -2560 -2016 0
v -2560 -1984 0
v -2528 -1984 0
v -2560 -2016 0
v -2592 -2016 0
v -2592 -1984 0
v -2560 -1984 0
v -2592 -2016 0
v -2624 -2016 0
v -2624 -1984 0
v -2592 -1984 0
v -2624 -2016 0
v -2656 -2016 0
v -2656 -1984 0
v -2624 -1984 0
v -2656 -2016 0
v -2688 -2016 0
v -2688 -1984 0
v -2656 -1984 0
v -2688 -2016 0
v -2720 -2016 0
v -2720 -1984 0
v -2688 -1984 0
v -2720 -2016 0
v -2752 -2016 0
v -2752 -1984 0
v -2720 -1984 0
v -2752 -2016 0
v -2784 -2016 0
v -2784 -1984 0
v -2752 -1984 0
v -2784 -2016 0
v -2816 -2016 0
v -2816 -1984 0
v -2784 -1984 0
v -1568 -2048 0
v -1600 -2048 0
v -1600 -2016 0
v -1568 -2016 0
v -1600 -2048 0
v -1632 -2048 0
v -1632 -2016 0
v -1600 -2016 0
v -1632 -2048 0
v -1664 -2048 0
v -1664 -2016 0
v -1632 -2016 0
v -1664 -2048 0
v -1696 -2048 0
v -1696 -2016 0
v -1664 -2016 0
v -1696 -2048 0
v -1728 -2048 0
v -1728 -2016 0
v -1696 -2016 0
v -1728 -2048 0
v -1760 -2048 0
v -1760 -2016 0
v -1728 -2016 0
v -1760 -2048 0
v -1792 -2048 0
v -1792 -2016 0
v -1760 -2016 0
v -1792 -2048 0
v -1824 -2048 0
v -1824 -2016 0
v -1792 -2016 0
v -1824 -2048 0
v -1856 -2048 0
v -1856 -2016 0
v -1824 -2016 0
v -1856 -2048 0
v -1888 -2048 0
v -1888 -2016 0
v -1856 -2016 0
v -1888 -2048 0
v -1920 -2048 0
v -1920 -2016 0
v -1888 -2016 0
v -2016 -2048 0
v -2048 -2048 0
v -2048 -2016 0
v -2016 -2016 0
v -2048 -2048 0
v -2080 -2048 0
v -2080 -2016 0
v -2048 -2016 0
v -2080 -2048 0
v -2112 -2048 0
v -2112 -2016 0
v -2080 -2016 0
v -2112 -2048 0
v -2144 -2048 0
v -2144 -2016 0
v -2112 -2016 0
v -2144 -2048 0
v -2176 -2048 0
v -2176 -2016 0
v -2144 -2016 0
v -2176 -2048 0
v -2208 -2048 0
v -2208 -2016 0
v -2176 -2016 0
v -2208 -2048 0
v -2240 -2048 0
v -2240 -2016 0
v -2208 -2016 0
v -2240 -2048 0
v -2272 -2048 0
v -2272 -2016 0
v -2240 -2016 0
v -2272 -2048 0
v -2304 -2048 0
v -2304 -2016 0
v -2272 -2016 0
v -2304 -2048 0
v -2336 -2048 0
v -2336 -2016 0
v -2304 -2016 0
v -2336 -2048 0
v -2368 -2048 0
v -2368 -2016 0
v -2336 -2016 0
v -2464 -2048 0
v -2496 -2048 0
v -2496 -2016 0
v -2464 -2016 0
v -2496 -2048 0
v -2528 -2048 0
v -2528 -2016 0
v -2496 -2016 0
v -2528 -2048 0
v -2560 -2048 0
v -2560 -2016 0
v -2528 -2016 0
v -2560 -2048 0
v -2592 -2048 0
v -2592 -2016 0
v -2560 -2016 0
v -2592 -2048 0
v -2624 -2048 0
v -2624 -2016 0
v -2592 -2016 0
v -2624 -2048 0
v -2656 -2048 0
v -2656 -2016 0
v -2624 -2016 0
v -2656 -2048 0
v -2688 -2048 0
v -2688 -2016 0
v -2656 -2016 0
v -2688 -2048 0
v -2720 -2048 0
v -2720 -2016 0
v -2688 -2016 0
v -2720 -2048 0
v -2752 -2048 0
v -2752 -2016 0
v -2720 -2016 0
v -2752 -2048 0
v -2784 -2048 0
v -2784 -2016 0
v -2752 -2016 0
v -2784 -2048 0
v -2816 -2048 0
v -2816 -2016 0
v -2784 -2016 0
v -1600 -2080 0
v -1632 -2080 0
v -1632 -2048 0
v -1600 -2048 0
v -1664 -2080 0
v -1696 -2080 0
v -1696 -2048 0
v -1664 -2048 0
v -1728 -2080 0
v -1760 -2080 0
v -1760 -2048 0
v -1728 -2048 0
v -1760 -2080 0
v -1792 -2080 0
v -1792 -2048 0
v -1760 -2048 0
v -1792 -2080 0
v -1824 -2080 0
v -1824 -2048 0
v -1792 -2048 0
v -1824 -2080 0
v -1856 -2080 0
v -1856 -2048 0
v -1824 -2048 0
v -1856 -2080 0
v -1888 -2080 0
v -1888 -2048 0
v -1856 -2048 0
v -2048 -2080 0
v -2080 -2080 0
v -2080 -2048 0
v -2048 -2048 0
v -2144 -2080 0
v -2176 -2080 0
v -2176 -2048 0
v -2144 -2048 0
v -2176 -2080 0
v -2208 -2080 0
v -2208 -2048 0
v -2176 -2048 0
v -2240 -2080 0
v -2272 -2080 0
v -2272 -2048 0
v -2240 -2048 0
v -2496 -2080 0
v -2528 -2080 0
v -2528 -2048 0
v -2496 -2048 0
v -2592 -2080 0
v -2624 -2080 0
v -2624 -2048 0
v -2592 -2048 0
v -2656 -2080 0
v -2688 -2080 0
v -2688 -2048 0
v -2656 -2048 0
v -2720 -2080 0
v -2752 -2080 0
v -2752 -2048 0
v -2720 -2048 0
v -1600 -2112 0
v -1632 -2112 0
v -1632 -2080 0
v -1600 -2080 0
v -1664 -2112 0
v -1696 -2112 0
v -1696 -2080 0
v -1664 -2080 0
v -1728 -2112 0
v -1760 -2112 0
v -1760 -2080 0
v -1728 -2080 0
v -1760 -2112 0
v -1792 -2112 0
v -1792 -2080 0
v -1760 -2080 0
v -1792 -2112 0
v -1824 -2112 0
v -1824 -2080 0
v -1792 -2080 0
v -1856 -2112 0
v -1888 -2112 0
v -1888 -2080 0
v -1856 -2080 0
v -2048 -2112 0
v -2080 -2112 0
v -2080 -2080 0
v -2048 -2080 0
v -2080 -2112 0
v -2112 -2112 0
v -2112 -2080 0
v -2080 -2080 0
v -2112 -2112 0
v -2144 -2112 0
v -2144 -2080 0
v -2112 -2080 0
v -2176 -2112 0
v -2208 -2112 0
v -2208 -2080 0
v -2176 -2080 0
v -2208 -2112 0
v -2240 -2112 0
v -2240 -2080 0
v -2208 -2080 0
v -2240 -2112 0
v -2272 -2112 0
v -2272 -2080 0
v -2240 -2080 0
v -2304 -2112 0
v -2336 -2112 0
v -2336 -2080 0
v -2304 -2080 0
v -2464 -2112 0
v -2496 -2112 0
v -2496 -2080 0
v -2464 -2080 0
v -2496 -2112 0
v -2528 -2112 0
v -2528 -2080 0
v -2496 -2080 0
v -2528 -2112 0
v -2560 -2112 0
v -2560 -2080 0
v -2528 -2080 0
v -2560 -2112 0
v -2592 -2112 0
v -2592 -2080 0
v -2560 -2080 0
v -2592 -2112 0
v -2624 -2112 0
v -2624 -2080 0
v -2592 -2080 0
v -2624 -2112 0
v -2656 -2112 0
v -2656 -2080 0
v -2624 -2080 0
v -2656 -2112 0
v -2688 -2112 0
v -2688 -2080 0
v -2656 -2080 0
v -2688 -2112 0
v -2720 -2112 0
v -2720 -2080 0
v -2688 -2080 0
v -2720 -2112 0
v -2752 -2112 0
v -2752 -2080 0
v -2720 -2080 0
v -2752 -2112 0
v -2784 -2112 0
v -2784 -2080 0
v -2752 -2080 0
v -2784 -2112 0
v -2816 -2112 0
v -2816 -2080 0
v -2784 -2080 0
v -1600 -2144 0
v -1632 -2144 0
v -1632 -2112 0
v -1600 -2112 0
v -1664 -2144 0
v -1696 -2144 0
v -1696 -2112 0
v -1664 -2112 0
v -1728 -2144 0
v -1760 -2144 0
v -1760 -2112 0
v -1728 -2112 0
v -1760 -2144 0
v -1792 -2144 0
v -1792 -2112 0
v -1760 -2112 0
v -2048 -2144 0
v -2080 -2144 0
v -2080 -2112 0
v -2048 -2112 0
v -2176 -2144 0
v -2208 -2144 0
v -2208 -2112 0
v -2176 -2112 0
v -2464 -2144 0
v -2496 -2144 0
v -2496 -2112 0
v -2464 -2112 0
v -2560 -2144 0
v -2592 -2144 0
v -2592 -2112 0
v -2560 -2112 0
v -2656 -2144 0
v -2688 -2144 0
v -2688 -2112 0
v -2656 -2112 0
v -2752 -2144 0
v -2784 -2144 0
v -2784 -2112 0
v -2752 -2112 0
v -1600 -2176 0
v -1632 -2176 0
v -1632 -2144 0
v -1600 -2144 0
v -1632 -2176 0
v -1664 -2176 0
v -1664 -2144 0
v -1632 -2144 0
v -1664 -2176 0
v -1696 -2176 0
v -1696 -2144 0
v -1664 -2144 0
v -1696 -2176 0
v -1728 -2176 0
v -1728 -2144 0
v -1696 -2144 0
v -1728 -2176 0
v -1760 -2176 0
v -1760 -2144 0
v -1728 -2144 0
v -1760 -2176 0
v -1792 -2176 0
v -1792 -2144 0
v -1760 -2144 0
v -1792 -2176 0
v -1824 -2176 0
v -1824 -2144 0
v -1792 -2144 0
v -1856 -2176 0
v -1888 -2176 0
v -1888 -2144 0
v -1856 -2144 0
v -2016 -2176 0
v -2048 -2176 0
v -2048 -2144 0
v -2016 -2144 0
v -2048 -2176 0
v -2080 -2176 0
v -2080 -2144 0
v -2048 -2144 0
v -2112 -2176 0
v -2144 -2176 0
v -2144 -2144 0
v -2112 -2144 0
v -2176 -2176 0
v -2208 -2176 0
v -2208 -2144 0
v -2176 -2144 0
v -2240 -2176 0
v -2272 -2176 0
v -2272 -2144 0
v -2240 -2144 0
v -2304 -2176 0
v -2336 -2176 0
v -2336 -2144 0
v -2304 -2144 0
v -2496 -2176 0
v -2528 -2176 0
v -2528 -2144 0
v -2496 -2144 0
v -2560 -2176 0
v -2592 -2176 0
v -2592 -2144 0
v -2560 -2144 0
v -2624 -2176 0
v -2656 -2176 0
v -2656 -2144 0
v -2624 -2144 0
v -2656 -2176 0
v -2688 -2176 0
v -2688 -2144 0
v -2656 -2144 0
v -2688 -2176 0
v -2720 -2176 0
v -2720 -2144 0
v -2688 -2144 0
v -2752 -2176 0
v -2784 -2176 0
v -2784 -2144 0
v -2752 -2144 0
v -2784 -2176 0
v -2816 -2176 0
v -2816 -2144 0
v -2784 -2144 0
v -1600 -2208 0
v -1632 -2208 0
v -1632 -2176 0
v -1600 -2176 0
v -1664 -2208 0
v -1696 -2208 0
v -1696 -2176 0
v -1664 -2176 0
v -1728 -2208 0
v -1760 -2208 0
v -1760 -2176 0
v -1728 -2176 0
v -1760 -2208 0
v -1792 -2208 0
v -1792 -2176 0
v -1760 -2176 0
v -1792 -2208 0
v -1824 -2208 0
v -1824 -2176 0
v -1792 -2176 0
v -1856 -2208 0
v -1888 -2208 0
v -1888 -2176 0
v -1856 -2176 0
v -2016 -2208 0
v -2048 -2208 0
v -2048 -2176 0
v -2016 -2176 0
v -2112 -2208 0
v -2144 -2208 0
v -2144 -2176 0
v -2112 -2176 0
v -2304 -2208 0
v -2336 -2208 0
v -2336 -2176 0
v -2304 -2176 0
v -2528 -2208 0
v -2560 -2208 0
v -2560 -2176 0
v -2528 -2176 0
v -2560 -2208 0
v -2592 -2208 0
v -2592 -2176 0
v -2560 -2176 0
v -2624 -2208 0
v -2656 -2208 0
v -2656 -2176 0
v -2624 -2176 0
v -1600 -2240 0
v -1632 -2240 0
v -1632 -2208 0
v -1600 -2208 0
v -1664 -2240 0
v -1696 -2240 0
v -1696 -2208 0
v -1664 -2208 0
v -1728 -2240 0
v -1760 -2240 0
v -1760 -2208 0
v -1728 -2208 0
v -1760 -2240 0
v -1792 -2240 0
v -1792 -2208 0
v -1760 -2208 0
v -1792 -2240 0
v -1824 -2240 0
v -1824 -2208 0
v -1792 -2208 0
v -1856 -2240 0
v -1888 -2240 0
v -1888 -2208 0
v -1856 -2208 0
v -2016 -2240 0
v -2048 -2240 0
v -2048 -2208 0
v -2016 -2208 0
v -2048 -2240 0
v -2080 -2240 0
v -2080 -2208 0
v -2048 -2208 0
v -2112 -2240 0
v -2144 -2240 0
v -2144 -2208 0
v -2112 -2208 0
v -2176 -2240 0
v -2208 -2240 0
v -2208 -2208 0
v -2176 -2208 0
v -2240 -2240 0
v -2272 -2240 0
v -2272 -2208 0
v -2240 -2208 0
v -2304 -2240 0
v -2336 -2240 0
v -2336 -2208 0
v -2304 -2208 0
v -2496 -2240 0
v -2528 -2240 0
v -2528 -2208 0
v -2496 -2208 0
v -2528 -2240 0
v -2560 -2240 0
v -2560 -2208 0
v -2528 -2208 0
v -2560 -2240 0
v -2592 -2240 0
v -2592 -2208 0
v -2560 -2208 0
v -2624 -2240 0
v -2656 -2240 0
v -2656 -2208 0
v -2624 -2208 0
v -2688 -2240 0
v -2720 -2240 0
v -2720 -2208 0
v -2688 -2208 0
v -2752 -2240 0
v -2784 -2240 0
v -2784 -2208 0
v -2752 -2208 0
v -2784 -2240 0
v -2816 -2240 0
v -2816 -2208 0
v -2784 -2208 0
v -1600 -2272 0
v -1632 -2272 0
v -1632 -2240 0
v -1600 -2240 0
v -1664 -2272 0
v -1696 -2272 0
v -1696 -2240 0
v -1664 -2240 0
v -1760 -2272 0
v -1792 -2272 0
v -1792 -2240 0
v -1760 -2240 0
v -1792 -2272 0
v -1824 -2272 0
v -1824 -2240 0
v -1792 -2240 0
v -1856 -2272 0
v -1888 -2272 0
v -1888 -2240 0
v -1856 -2240 0
v -1888 -2272 0
v -1920 -2272 0
v -1920 -2240 0
v -1888 -2240 0
v -2016 -2272 0
v -2048 -2272 0
v -2048 -2240 0
v -2016 -2240 0
v -2048 -2272 0
v -2080 -2272 0
v -2080 -2240 0
v -2048 -2240 0
v -2080 -2272 0
v -2112 -2272 0
v -2112 -2240 0
v -2080 -2240 0
v -2112 -2272 0
v -2144 -2272 0
v -2144 -2240 0
v -2112 -2240 0
v -2176 -2272 0
v -2208 -2272 0
v -2208 -2240 0
v -2176 -2240 0
v -2240 -2272 0
v -2272 -2272 0
v -2272 -2240 0
v -2240 -2240 0
v -2464 -2272 0
v -2496 -2272 0
v -2496 -2240 0
v -2464 -2240 0
v -2496 -2272 0
v -2528 -2272 0
v -2528 -2240 0
v -2496 -2240 0
v -2528 -2272 0
v -2560 -2272 0
v -2560 -2240 0
v -2528 -2240 0
v -2560 -2272 0
v -2592 -2272 0
v -2592 -2240 0
v -2560 -2240 0
v -2656 -2272 0
v -2688 -2272 0
v -2688 -2240 0
v -2656 -2240 0
v -2688 -2272 0
v -2720 -2272 0
v -2720 -2240 0
v -2688 -2240 0
v -1568 -2400 0
v -1600 -2400 0
v -1600 -2368 0
v -1568 -2368 0
v -1600 -2400 0
v -1632 -2400 0
v -1632 -2368 0
v -1600 -2368 0
v -1632 -2400 0
v -1664 -2400 0
v -1664 -2368 0
v -1632 -2368 0
v -1664 -2400 0
v -1696 -2400 0
v -1696 -2368 0
v -1664 -2368 0
v -1696 -2400 0
v -1728 -2400 0
v -1728 -2368 0
v -1696 -2368 0
v -1728 -2400 0
v -1760 -2400 0
v -1760 -2368 0
v -1728 -2368 0
v -1760 -2400 0
v -1792 -2400 0
v -1792 -2368 0
v -1760 -2368 0
v -1792 -2400 0
v -1824 -2400 0
v -1824 -2368 0
v -1792 -2368 0
v -1824 -2400 0
v -1856 -2400 0
v -1856 -2368 0
v -1824 -2368 0
v -1856 -2400 0
v -1888 -2400 0
v -1888 -2368 0
v -1856 -2368 0
v -1888 -2400 0
v -1920 -2400 0
v -1920 -2368 0
v -1888 -2368 0
v -2016 -2400 0
v -2048 -2400 0
v -2048 -2368 0
v -2016 -2368 0
v -2048 -2400 0
v -2080 -2400 0
v -2080 -2368 0
v -2048 -2368 0
v -2080 -2400 0
v -2112 -2400 0
v -2112 -2368 0
v -2080 -2368 0
v -2112 -2400 0
v -2144 -2400 0
v -2144 -2368 0
v -2112 -2368 0
v -2144 -2400 0
v -2176 -2400 0
v -2176 -2368 0
v -2144 -2368 0
v -2176 -2400 0
v -2208 -2400 0
v -2208 -2368 0
v -2176 -2368 0
v -2208 -2400 0
v -2240 -2400 0
v -2240 -2368 0
v -2208 -2368 0
v -2240 -2400 0
v -2272 -2400 0
v -2272 -2368 0
v -2240 -2368 0
v -2272 -2400 0
v -2304 -2400 0
v -2304 -2368 0
v -2272 -2368 0
v -2304 -2400 0
v -2336 -2400 0
v -2336 -2368 0
v -2304 -2368 0
v -2336 -2400 0
v -2368 -2400 0
v -2368 -2368 0
v -2336 -2368 0
v -2464 -2400 0
v -2496 -2400 0
v -2496 -2368 0
v -2464 -2368 0
v -2496 -2400 0
v -2528 -2400 0
v -2528 -2368 0
v -2496 -2368 0
v -2528 -2400 0
v -2560 -2400 0
v -2560 -2368 0
v -2528 -2368 0
v -2560 -2400 0
v -2592 -2400 0
v -2592 -2368 0
v -2560 -2368 0
v -2592 -2400 0
v -2624 -2400 0
v -2624 -2368 0
v -2592 -2368 0
v -2624 -2400 0
v -2656 -2400 0
v -2656 -2368 0
v -2624 -2368 0
v -2656 -2400 0
v -2688 -2400 0
v -2688 -2368 0
v -2656 -2368 0
v -2688 -2400 0
v -2720 -2400 0
v -2720 -2368 0
v -2688 -2368 0
v -2720 -2400 0
v -2752 -2400 0
v -2752 -2368 0
v -2720 -2368 0
v -2752 -2400 0
v -2784 -2400 0
v -2784 -2368 0
v -2752 -2368 0
v -2784 -2400 0
v -2816 -2400 0
v -2816 -2368 0
v -2784 -2368 0
v -1568 -2432 0
v -1600 -2432 0
v -1600 -2400 0
v -1568 -2400 0
v -1600 -2432 0
v -1632 -2432 0
v -1632 -2400 0
v -1600 -2400 0
v -1632 -2432 0
v -1664 -2432 0
v -1664 -2400 0
v -1632 -2400 0
v -1664 -2432 0
v -1696 -2432 0
v -1696 -2400 0
v -1664 -2400 0
v -1696 -2432 0
v -1728 -2432 0
v -1728 -2400 0
v -1696 -2400 0
v -1728 -2432 0
v -1760 -2432 0
v -1760 -2400 0
v -1728 -2400 0
v -1760 -2432 0
v -1792 -2432 0
v -1792 -2400 0
v -1760 -2400 0
v -1792 -2432 0
v -1824 -2432 0
v -1824 -2400 0
v -1792 -2400 0
v -1824 -2432 0
v -1856 -2432 0
v -1856 -2400 0
v -1824 -2400 0
v -1856 -2432 0
v -1888 -2432 0
v -1888 -2400 0
v -1856 -2400 0
v -1888 -2432 0
v -1920 -2432 0
v -1920 -2400 0
v -1888 -2400 0
v -2016 -2432 0
v -2048 -2432 0
v -2048 -2400 0
v -2016 -2400 0
v -2048 -2432 0
v -2080 -2432 0
v -2080 -2400 0
v -2048 -2400 0
v -2080 -2432 0
v -2112 -2432 0
v -2112 -2400 0
v -2080 -2400 0
v -2112 -2432 0
v -2144 -2432 0
v -2144 -2400 0
v -2112 -2400 0
v -2144 -2432 0
v -2176 -2432 0
v -2176 -2400 0
v -2144 -2400 0
v -2176 -2432 0
v -2208 -2432 0
v -2208 -2400 0
v -2176 -2400 0
v -2208 -2432 0
v -2240 -2432 0
v -2240 -2400 0
v -2208 -2400 0
v -2240 -2432 0
v -2272 -2432 0
v -2272 -2400 0
v -2240 -2400 0
v -2272 -2432 0
v -2304 -2432 0
v -2304 -2400 0
v -2272 -2400 0
v -2304 -2432 0
v -2336 -2432 0
v -2336 -2400 0
v -2304 -2400 0
v -2336 -2432 0
v -2368 -2432 0
v -2368 -2400 0
v -2336 -2400 0
v -2464 -2432 0
v -2496 -2432 0
v -2496 -2400 0
v -2464 -2400 0
v -2496 -2432 0
v -2528 -2432 0
v -2528 -2400 0
v -2496 -2400 0
v -2528 -2432 0
v -2560 -2432 0
v -2560 -2400 0
v -2528 -2400 0
v -2560 -2432 0
v -2592 -2432 0
v -2592 -2400 0
v -2560 -2400 0
v -2592 -2432 0
v -2624 -2432 0
v -2624 -2400 0
v -2592 -2400 0
v -2624 -2432 0
v -2656 -2432 0
v -2656 -2400 0
v -2624 -2400 0
v -2656 -2432 0
v -2688 -2432 0
v -2688 -2400 0
v -2656 -2400 0
v -2688 -2432 0
v -2720 -2432 0
v -2720 -2400 0
v -2688 -2400 0
v -2720 -2432 0
v -2752 -2432 0
v -2752 -2400 0
v -2720 -2400 0
v -2752 -2432 0
v -2784 -2432 0
v -2784 -2400 0
v -2752 -2400 0
v -2784 -2432 0
v -2816 -2432 0
v -2816 -2400 0
v -2784 -2400 0
v -1568 -2464 0
v -1600 -2464 0
v -1600 -2432 0
v -1568 -2432 0
v -1600 -2464 0
v -1632 -2464 0
v -1632 -2432 0
v -1600 -2432 0
v -1632 -2464 0
v -1664 -2464 0
v -1664 -2432 0
v -1632 -2432 0
v -1664 -2464 0
v -1696 -2464 0
v -1696 -2432 0
v -1664 -2432 0
v -1696 -2464 0
v -1728 -2464 0
v -1728 -2432 0
v -1696 -2432 0
v -1728 -2464 0
v -1760 -2464 0
v -1760 -2432 0
v -1728 -2432 0
v -1760 -2464 0
v -1792 -2464 0
v -1792 -2432 0
v -1760 -2432 0
v -1792 -2464 0
v -1824 -2464 0
v -1824 -2432 0
v -1792 -2432 0
v -1824 -2464 0
v -1856 -2464 0
v -1856 -2432 0
v -1824 -2432 0
v -1856 -2464 0
v -1888 -2464 0
v -1888 -2432 0
v -1856 -2432 0
v -1888 -2464 0
v -1920 -2464 0
v -1920 -2432 0
v -1888 -2432 0
v -2016 -2464 0
v -2048 -2464 0
v -2048 -2432 0
v -2016 -2432 0
v -2048 -2464 0
v -2080 -2464 0
v -2080 -2432 0
v -2048 -2432 0
v -2080 -2464 0
v -2112 -2464 0
v -2112 -2432 0
v -2080 -2432 0
v -2112 -2464 0
v -2144 -2464 0
v -2144 -2432 0
v -2112 -2432 0
v -2144 -2464 0
v -2176 -2464 0
v -2176 -2432 0
v -2144 -2432 0
v -2176 -2464 0
v -2208 -2464 0
v -2208 -2432 0
v -2176 -2432 0
v -2208 -2464 0
v -2240 -2464 0
v -2240 -2432 0
v -2208 -2432 0
v -2240 -2464 0
v -2272 -2464 0
v -2272 -2432 0
v -2240 -2432 0
v -2272 -2464 0
v -2304 -2464 0
v -2304 -2432 0
v -2272 -2432 0
v -2304 -2464 0
v -2336 -2464 0
v -2336 -2432 0
v -2304 -2432 0
v -2336 -2464 0
v -2368 -2464 0
v -2368 -2432 0
v -2336 -2432 0
v -2464 -2464 0
v -2496 -2464 0
v -2496 -2432 0
v -2464 -2432 0
v -2496 -2464 0
v -2528 -2464 0
v -2528 -2432 0
v -2496 -2432 0
v -2528 -2464 0
v -2560 -2464 0
v -2560 -2432 0
v -2528 -2432 0
v -2560 -2464 0
v -2592 -2464 0
v -2592 -2432 0
v -2560 -2432 0
v -2592 -2464 0
v -2624 -2464 0
v -2624 -2432 0
v -2592 -2432 0
v -2624 -2464 0
v -2656 -2464 0
v -2656 -2432 0
v -2624 -2432 0
v -2656 -2464 0
v -2688 -2464 0
v -2688 -2432 0
v -2656 -2432 0
v -2688 -2464 0
v -2720 -2464 0
v -2720 -2432 0
v -2688 -2432 0
v -2720 -2464 0
v -2752 -2464 0
v -2752 -2432 0
v -2720 -2432 0
v -2752 -2464 0
v -2784 -2464 0
v -2784 -2432 0
v -2752 -2432 0
v -2784 -2464 0
v -2816 -2464 0
v -2816 -2432 0
v -2784 -2432 0
v -1600 -2496 0
v -1632 -2496 0
v -1632 -2464 0
v -1600 -2464 0
v -1664 -2496 0
v -1696 -2496 0
v -1696 -2464 0
v -1664 -2464 0
v -1728 -2496 0
v -1760 -2496 0
v -1760 -2464 0
v -1728 -2464 0
v -1792 -2496 0
v -1824 -2496 0
v -1824 -2464 0
v -1792 -2464 0
v -1824 -2496 0
v -1856 -2496 0
v -1856 -2464 0
v -1824 -2464 0
v -1856 -2496 0
v -1888 -2496 0
v -1888 -2464 0
v -1856 -2464 0
v -2080 -2496 0
v -2112 -2496 0
v -2112 -2464 0
v -2080 -2464 0
v -2144 -2496 0
v -2176 -2496 0
v -2176 -2464 0
v -2144 -2464 0
v -2272 -2496 0
v -2304 -2496 0
v -2304 -2464 0
v -2272 -2464 0
v -2624 -2496 0
v -2656 -2496 0
v -2656 -2464 0
v -2624 -2464 0
v -2720 -2496 0
v -2752 -2496 0
v -2752 -2464 0
v -2720 -2464 0
v -2752 -2496 0
v -2784 -2496 0
v -2784 -2464 0
v -2752 -2464 0
v -2784 -2496 0
v -2816 -2496 0
v -2816 -2464 0
v -2784 -2464 0
v -1600 -2528 0
v -1632 -2528 0
v -1632 -2496 0
v -1600 -2496 0
v -1664 -2528 0
v -1696 -2528 0
v -1696 -2496 0
v -1664 -2496 0
v -1728 -2528 0
v -1760 -2528 0
v -1760 -2496 0
v -1728 -2496 0
v -1792 -2528 0
v -1824 -2528 0
v -1824 -2496 0
v -1792 -2496 0
v -1824 -2528 0
v -1856 -2528 0
v -1856 -2496 0
v -1824 -2496 0
v -1856 -2528 0
v -1888 -2528 0
v -1888 -2496 0
v -1856 -2496 0
v -2048 -2528 0
v -2080 -2528 0
v -2080 -2496 0
v -2048 -2496 0
v -2080 -2528 0
v -2112 -2528 0
v -2112 -2496 0
v -2080 -2496 0
v -2112 -2528 0
v -2144 -2528 0
v -2144 -2496 0
v -2112 -2496 0
v -2176 -2528 0
v -2208 -2528 0
v -2208 -2496 0
v -2176 -2496 0
v -2240 -2528 0
v -2272 -2528 0
v -2272 -2496 0
v -2240 -2496 0
v -2272 -2528 0
v -2304 -2528 0
v -2304 -2496 0
v -2272 -2496 0
v -2304 -2528 0
v -2336 -2528 0
v -2336 -2496 0
v -2304 -2496 0
v -2336 -2528 0
v -2368 -2528 0
v -2368 -2496 0
v -2336 -2496 0
v -2496 -2528 0
v -2528 -2528 0
v -2528 -2496 0
v -2496 -2496 0
v -2560 -2528 0
v -2592 -2528 0
v -2592 -2496 0
v -2560 -2496 0
v -2592 -2528 0
v -2624 -2528 0
v -2624 -2496 0
v -2592 -2496 0
v -2624 -2528 0
v -2656 -2528 0
v -2656 -2496 0
v -2624 -2496 0
v -2688 -2528 0
v -2720 -2528 0
v -2720 -2496 0
v -2688 -2496 0
v -2720 -2528 0
v -2752 -2528 0
v -2752 -2496 0
v -2720 -2496 0
v -2752 -2528 0
v -2784 -2528 0
v -2784 -2496 0
v -2752 -2496 0
v -2784 -2528 0
v -2816 -2528 0
v -2816 -2496 0
v -2784 -2496 0
v -1600 -2560 0
v -1632 -2560 0
v -1632 -2528 0
v -1600 -2528 0
v -1664 -2560 0
v -1696 -2560 0
v -1696 -2528 0
v -1664 -2528 0
v -1728 -2560 0
v -1760 -2560 0
v -1760 -2528 0
v -1728 -2528 0
v -1792 -2560 0
v -1824 -2560 0
v -1824 -2528 0
v -1792 -2528 0
v -1824 -2560 0
v -1856 -2560 0
v -1856 -2528 0
v -1824 -2528 0
v -1856 -2560 0
v -1888 -2560 0
v -1888 -2528 0
v -1856 -2528 0
v -2112 -2560 0
v -2144 -2560 0
v -2144 -2528 0
v -2112 -2528 0
v -2144 -2560 0
v -2176 -2560 0
v -2176 -2528 0
v -2144 -2528 0
v -2560 -2560 0
v -2592 -2560 0
v -2592 -2528 0
v -2560 -2528 0
v -2592 -2560 0
v -2624 -2560 0
v -2624 -2528 0
v -2592 -2528 0
v -2624 -2560 0
v -2656 -2560 0
v -2656 -2528 0
v -2624 -2528 0
v -2656 -2560 0
v -2688 -2560 0
v -2688 -2528 0
v -2656 -2528 0
v -2752 -2560 0
v -2784 -2560 0
v -2784 -2528 0
v -2752 -2528 0
v -1568 -2592 0
v -1600 -2592 0
v -1600 -2560 0
v -1568 -2560 0
v -1600 -2592 0
v -1632 -2592 0
v -1632 -2560 0
v -1600 -2560 0
v -1664 -2592 0
v -1696 -2592 0
v -1696 -2560 0
v -1664 -2560 0
v -1696 -2592 0
v -1728 -2592 0
v -1728 -2560 0
v -1696 -2560 0
v -1728 -2592 0
v -1760 -2592 0
v -1760 -2560 0
v -1728 -2560 0
v -1792 -2592 0
v -1824 -2592 0
v -1824 -2560 0
v -1792 -2560 0
v -1824 -2592 0
v -1856 -2592 0
v -1856 -2560 0
v -1824 -2560 0
v -1856 -2592 0
v -1888 -2592 0
v -1888 -2560 0
v -1856 -2560 0
v -1888 -2592 0
v -1920 -2592 0
v -1920 -2560 0
v -1888 -2560 0
v -2048 -2592 0
v -2080 -2592 0
v -2080 -2560 0
v -2048 -2560 0
v -2080 -2592 0
v -2112 -2592 0
v -2112 -2560 0
v -2080 -2560 0
v -2112 -2592 0
v -2144 -2592 0
v -2144 -2560 0
v -2112 -2560 0
v -2176 -2592 0
v -2208 -2592 0
v -2208 -2560 0
v -2176 -2560 0
v -2208 -2592 0
v -2240 -2592 0
v -2240 -2560 0
v -2208 -2560 0
v -2240 -2592 0
v -2272 -2592 0
v -2272 -2560 0
v -2240 -2560 0
v -2272 -2592 0
v -2304 -2592 0
v -2304 -2560 0
v -2272 -2560 0
v -2304 -2592 0
v -2336 -2592 0
v -2336 -2560 0
v -2304 -2560 0
v -2336 -2592 0
v -2368 -2592 0
v -2368 -2560 0
v -2336 -2560 0
v -2496 -2592 0
v -2528 -2592 0
v -2528 -2560 0
v -2496 -2560 0
v -2560 -2592 0
v -2592 -2592 0
v -2592 -2560 0
v -2560 -2560 0
v -2592 -2592 0
v -2624 -2592 0
v -2624 -2560 0
v -2592 -2560 0
v -2624 -2592 0
v -2656 -2592 0
v -2656 -2560 0
v -2624 -2560 0
v -2656 -2592 0
v -2688 -2592 0
v -2688 -2560 0
v -2656 -2560 0
v -2688 -2592 0
v -2720 -2592 0
v -2720 -2560 0
v -2688 -2560 0
v -2752 -2592 0
v -2784 -2592 0
v -2784 -2560 0
v -2752 -2560 0
v -2784 -2592 0
v -2816 -2592 0
v -2816 -2560 0
v -2784 -2560 0
v -1600 -2624 0
v -1632 -2624 0
v -1632 -2592 0
v -1600 -2592 0
v -1664 -2624 0
v -1696 -2624 0
v -1696 -2592 0
v -1664 -2592 0
v -1728 -2624 0
v -1760 -2624 0
v -1760 -2592 0
v -1728 -2592 0
v -1792 -2624 0
v -1824 -2624 0
v -1824 -2592 0
v -1792 -2592 0
v -1824 -2624 0
v -1856 -2624 0
v -1856 -2592 0
v -1824 -2592 0
v -1856 -2624 0
v -1888 -2624 0
v -1888 -2592 0
v -1856 -2592 0
v -2112 -2624 0
v -2144 -2624 0
v -2144 -2592 0
v -2112 -2592 0
v -2176 -2624 0
v -2208 -2624 0
v -2208 -2592 0
v -2176 -2592 0
v -2304 -2624 0
v -2336 -2624 0
v -2336 -2592 0
v -2304 -2592 0
v -2560 -2624 0
v -2592 -2624 0
v -2592 -2592 0
v -2560 -2592 0
v -2624 -2624 0
v -2656 -2624 0
v -2656 -2592 0
v -2624 -2592 0
v -1600 -2656 0
v -1632 -2656 0
v -1632 -2624 0
v -1600 -2624 0
v -1664 -2656 0
v -1696 -2656 0
v -1696 -2624 0
v -1664 -2624 0
v -1728 -2656 0
v -1760 -2656 0
v -1760 -2624 0
v -1728 -2624 0
v -1792 -2656 0
v -1824 -2656 0
v -1824 -2624 0
v -1792 -2624 0
v -1824 -2656 0
v -1856 -2656 0
v -1856 -2624 0
v -1824 -2624 0
v -1856 -2656 0
v -1888 -2656 0
v -1888 -2624 0
v -1856 -2624 0
v -2048 -2656 0
v -2080 -2656 0
v -2080 -2624 0
v -2048 -2624 0
v -2112 -2656 0
v -2144 -2656 0
v -2144 -2624 0
v -2112 -2624 0
v -2144 -2656 0
v -2176 -2656 0
v -2176 -2624 0
v -2144 -2624 0
v -2176 -2656 0
v -2208 -2656 0
v -2208 -2624 0
v -2176 -2624 0
v -2240 -2656 0
v -2272 -2656 0
v -2272 -2624 0
v -2240 -2624 0
v -2304 -2656 0
v -2336 -2656 0
v -2336 -2624 0
v -2304 -2624 0
v -2336 -2656 0
v -2368 -2656 0
v -2368 -2624 0
v -2336 -2624 0
v -2464 -2656 0
v -2496 -2656 0
v -2496 -2624 0
v -2464 -2624 0
v -2496 -2656 0
v -2528 -2656 0
v -2528 -2624 0
v -2496 -2624 0
v -2528 -2656 0
v -2560 -2656 0
v -2560 -2624 0
v -2528 -2624 0
v -2560 -2656 0
v -2592 -2656 0
v -2592 -2624 0
v -2560 -2624 0
v -2592 -2656 0
v -2624 -2656 0
v -2624 -2624 0
v -2592 -2624 0
v -2624 -2656 0
v -2656 -2656 0
v -2656 -2624 0
v -2624 -2624 0
v -2688 -2656 0
v -2720 -2656 0
v -2720 -2624 0
v -2688 -2624 0
v -2752 -2656 0
v -2784 -2656 0
v -2784 -2624 0
v -2752 -2624 0
v -2784 -2656 0
v -2816 -2656 0
v -2816 -2624 0
v -2784 -2624 0
v -96 -2688 0
v -128 -2688 0
v -128 -2656 0
v -96 -2656 0
v -128 -2688 0
v -160 -2688 0
v -160 -2656 0
v -128 -2656 0
v -160 -2688 0
v -192 -2688 0
v -192 -2656 0
v -160 -2656 0
v -192 -2688 0
v -224 -2688 0
v -224 -2656 0
v -192 -2656 0
v -224 -2688 0
v -256 -2688 0
v -256 -2656 0
v -224 -2656 0
v -256 -2688 0
v -288 -2688 0
v -288 -2656 0
v -256 -2656 0
v -288 -2688 0
v -320 -2688 0
v -320 -2656 0
v -288 -2656 0
v -320 -2688 0
v -352 -2688 0
v -352 -2656 0
v -320 -2656 0
v -352 -2688 0
v -384 -2688 0
v -384 -2656 0
v -352 -2656 0
v -384 -2688 0
v -416 -2688 0
v -416 -2656 0
v -384 -2656 0
v -416 -2688 0
v -448 -2688 0
v -448 -2656 0
v -416 -2656 0
v -1600 -2688 0
v -1632 -2688 0
v -1632 -2656 0
v -1600 -2656 0
v -1664 -2688 0
v -1696 -2688 0
v -1696 -2656 0
v -1664 -2656 0
v -1728 -2688 0
v -1760 -2688 0
v -1760 -2656 0
v -1728 -2656 0
v -1760 -2688 0
v -1792 -2688 0
v -1792 -2656 0
v -1760 -2656 0
v -1792 -2688 0
v -1824 -2688 0
v -1824 -2656 0
v -1792 -2656 0
v -1824 -2688 0
v -1856 -2688 0
v -1856 -2656 0
v -1824 -2656 0
v -1856 -2688 0
v -1888 -2688 0
v -1888 -2656 0
v -1856 -2656 0
v -2048 -2688 0
v -2080 -2688 0
v -2080 -2656 0
v -2048 -2656 0
v -2112 -2688 0
v -2144 -2688 0
v -2144 -2656 0
v -2112 -2656 0
v -2176 -2688 0
v -2208 -2688 0
v -2208 -2656 0
v -2176 -2656 0
v -2208 -2688 0
v -2240 -2688 0
v -2240 -2656 0
v -2208 -2656 0
v -2240 -2688 0
v -2272 -2688 0
v -2272 -2656 0
v -2240 -2656 0
v -2272 -2688 0
v -2304 -2688 0
v -2304 -2656 0
v -2272 -2656 0
v -2336 -2688 0
v -2368 -2688 0
v -2368 -2656 0
v -2336 -2656 0
v -2464 -2688 0
v -2496 -2688 0
v -2496 -2656 0
v -2464 -2656 0
v -2496 -2688 0
v -2528 -2688 0
v -2528 -2656 0
v -2496 -2656 0
v -2528 -2688 0
v -2560 -2688 0
v -2560 -2656 0
v -2528 -2656 0
v -2624 -2688 0
v -2656 -2688 0
v -2656 -2656 0
v -2624 -2656 0
v -2656 -2688 0
v -2688 -2688 0
v -2688 -2656 0
v -2656 -2656 0
v -2688 -2688 0
v -2720 -2688 0
v -2720 -2656 0
v -2688 -2656 0
v -96 -2720 0
v -128 -2720 0
v -128 -2688 0
v -96 -2688 0
v -128 -2720 0
v -160 -2720 0
v -160 -2688 0
v -128 -2688 0
v -160 -2720 0
v -192 -2720 0
v -192 -2688 0
v -160 -2688 0
v -192 -2720 0
v -224 -2720 0
v -224 -2688 0
v -192 -2688 0
v -224 -2720 0
v -256 -2720 0
v -256 -2688 0
v -224 -2688 0
v -256 -2720 0
v -288 -2720 0
v -288 -2688 0
v -256 -2688 0
v -288 -2720 0
v -320 -2720 0
v -320 -2688 0
v -288 -2688 0
v -320 -2720 0
v -352 -2720 0
v -352 -2688 0
v -320 -2688 0
v -352 -2720 0
v -384 -2720 0
v -384 -2688 0
v -352 -2688 0
v -384 -2720 0
v -416 -2720 0
v -416 -2688 0
v -384 -2688 0
v -416 -2720 0
v -448 -2720 0
v -448 -2688 0
v -416 -2688 0
v -96 -2752 0
v -128 -2752 0
v -128 -2720 0
v -96 -2720 0
v -128 -2752 0
v -160 -2752 0
v -160 -2720 0
v -128 -2720 0
v -160 -2752 0
v -192 -2752 0
v -192 -2720 0
v -160 -2720 0
v -192 -2752 0
v -224 -2752 0
v -224 -2720 0
v -192 -2720 0
v -224 -2752 0
v -256 -2752 0
v -256 -2720 0
v -224 -2720 0
v -256 -2752 0
v -288 -2752 0
v -288 -2720 0
v -256 -2720 0
v -288 -2752 0
v -320 -2752 0
v -320 -2720 0
v -288 -2720 0
v -320 -2752 0
v -352 -2752 0
v -352 -2720 0
v -320 -2720 0
v -352 -2752 0
v -384 -2752 0
v -384 -2720 0
v -352 -2720 0
v -384 -2752 0
v -416 -2752 0
v -416 -2720 0
v -384 -2720 0
v -416 -2752 0
v -448 -2752 0
v -448 -2720 0
v -416 -2720 0
v -128 -2784 0
v -160 -2784 0
v -160 -2752 0
v -128 -2752 0
v -192 -2784 0
v -224 -2784 0
v -224 -2752 0
v -192 -2752 0
v -256 -2784 0
v -288 -2784 0
v -288 -2752 0
v -256 -2752 0
v -320 -2784 0
v -352 -2784 0
v -352 -2752 0
v -320 -2752 0
v -352 -2784 0
v -384 -2784 0
v -384 -2752 0
v -352 -2752 0
v -384 -2784 0
v -416 -2784 0
v -416 -2752 0
v -384 -2752 0
v -128 -2816 0
v -160 -2816 0
v -160 -2784 0
v -128 -2784 0
v -192 -2816 0
v -224 -2816 0
v -224 -2784 0
v -192 -2784 0
v -256 -2816 0
v -288 -2816 0
v -288 -2784 0
v -256 -2784 0
v -320 -2816 0
v -352 -2816 0
v -352 -2784 0
v -320 -2784 0
v -352 -2816 0
v -384 -2816 0
v -384 -2784 0
v -352 -2784 0
v -384 -2816 0
v -416 -2816 0
v -416 -2784 0
v -384 -2784 0
v -128 -2848 0
v -160 -2848 0
v -160 -2816 0
v -128 -2816 0
v -192 -2848 0
v -224 -2848 0
v -224 -2816 0
v -192 -2816 0
v -256 -2848 0
v -288 -2848 0
v -288 -2816 0
v -256 -2816 0
v -320 -2848 0
v -352 -2848 0
v -352 -2816 0
v -320 -2816 0
v -352 -2848 0
v -384 -2848 0
v -384 -2816 0
v -352 -2816 0
v -384 -2848 0
v -416 -2848 0
v -416 -2816 0
v -384 -2816 0
v -96 -2880 0
v -128 -2880 0
v -128 -2848 0
v -96 -2848 0
v -128 -2880 0
v -160 -2880 0
v -160 -2848 0
v -128 -2848 0
v -192 -2880 0
v -224 -2880 0
v -224 -2848 0
v -192 -2848 0
v -224 -2880 0
v -256 -2880 0
v -256 -2848 0
v -224 -2848 0
v -256 -2880 0
v -288 -2880 0
v -288 -2848 0
v -256 -2848 0
v -320 -2880 0
v -352 -2880 0
v -352 -2848 0
v -320 -2848 0
v -352 -2880 0
v -384 -2880 0
v -384 -2848 0
v -352 -2848 0
v -384 -2880 0
v -416 -2880 0
v -416 -2848 0
v -384 -2848 0
v -416 -2880 0
v -448 -2880 0
v -448 -2848 0
v -416 -2848 0
v -128 -2912 0
v -160 -2912 0
v -160 -2880 0
v -128 -2880 0
v -192 -2912 0
v -224 -2912 0
v -224 -2880 0
v -192 -2880 0
v -256 -2912 0
v -288 -2912 0
v -288 -2880 0
v -256 -2880 0
v -320 -2912 0
v -352 -2912 0
v -352 -2880 0
v -320 -2880 0
v -352 -2912 0
v -384 -2912 0
v -384 -2880 0
v -352 -2880 0
v -384 -2912 0
v -416 -2912 0
v -416 -2880 0
v -384 -2880 0
v -128 -2944 0
v -160 -2944 0
v -160 -2912 0
v -128 -2912 0
v -192 -2944 0
v -224 -2944 0
v -224 -2912 0
v -192 -2912 0
v -256 -2944 0
v -288 -2944 0
v -288 -2912 0
v -256 -2912 0
v -320 -2944 0
v -352 -2944 0
v -352 -2912 0
v -320 -2912 0
v -352 -2944 0
v -384 -2944 0
v -384 -2912 0
v -352 -2912 0
v -384 -2944 0
v -416 -2944 0
v -416 -2912 0
v -384 -2912 0
v -128 -2976 0
v -160 -2976 0
v -160 -2944 0
v -128 -2944 0
v -192 -2976 0
v -224 -2976 0
v -224 -2944 0
v -192 -2944 0
v -256 -2976 0
v -288 -2976 0
v -288 -2944 0
v -256 -2944 0
v -288 -2976 0
v -320 -2976 0
v -320 -2944 0
v -288 -2944 0
v -320 -2976 0
v -352 -2976 0
v -352 -2944 0
v -320 -2944 0
v -352 -2976 0
v -384 -2976 0
v -384 -2944 0
v -352 -2944 0
v -384 -2976 0
v -416 -2976 0
v -416 -2944 0
v -384 -2944 0

# Texture cooridinates (Count = 20)
vt 0.7666667 0.3333333
vt 0.8 0.3333333
vt 0.8 0.3666667
vt 0.7666667 0.3666667
vt 0.8333333 0.3
vt 0.8 0.3
vt 0.8333333 0.3333333
vt 0.8666667 0.4333333
vt 0.8333333 0.4333333
vt 0.8333333 0.4666666
vt 0.8666667 0.4666666
vt 0.8333333 0.2333333
vt 0.8 0.2333333
vt 0.8 0.2666667
vt 0.8333333 0.2666667
vt 0.7666667 0.4
vt 0.7333333 0.4
vt 0.7333333 0.4333333
vt 0.7666667 0.4333333
vt 0.7333333 0.3666667

# Normal
vn 0 0 -1

# Mesh description
g CrashCity_mesh_0019

# Faces
f 1/1/1 2/2/1 3/3/1 4/4/1
f 5/5/1 6/6/1 7/2/1 8/7/1
f 9/5/1 10/6/1 11/2/1 12/7/1
f 13/5/1 14/6/1 15/2/1 16/7/1
f 17/1/1 18/2/1 19/3/1 20/4/1
f 21/5/1 22/6/1 23/2/1 24/7/1
f 25/5/1 26/6/1 27/2/1 28/7/1
f 29/5/1 30/6/1 31/2/1 32/7/1
f 33/1/1 34/2/1 35/3/1 36/4/1
f 37/5/1 38/6/1 39/2/1 40/7/1
f 41/5/1 42/6/1 43/2/1 44/7/1
f 45/5/1 46/6/1 47/2/1 48/7/1
f 49/1/1 50/2/1 51/3/1 52/4/1
f 53/5/1 54/6/1 55/2/1 56/7/1
f 57/5/1 58/6/1 59/2/1 60/7/1
f 61/8/1 62/9/1 63/10/1 64/11/1
f 65/8/1 66/9/1 67/10/1 68/11/1
f 69/5/1 70/6/1 71/2/1 72/7/1
f 73/1/1 74/2/1 75/3/1 76/4/1
f 77/5/1 78/6/1 79/2/1 80/7/1
f 81/5/1 82/6/1 83/2/1 84/7/1
f 85/5/1 86/6/1 87/2/1 88/7/1
f 89/5/1 90/6/1 91/2/1 92/7/1
f 93/5/1 94/6/1 95/2/1 96/7/1
f 97/5/1 98/6/1 99/2/1 100/7/1
f 101/5/1 102/6/1 103/2/1 104/7/1
f 105/5/1 106/6/1 107/2/1 108/7/1
f 109/5/1 110/6/1 111/2/1 112/7/1
f 113/12/1 114/13/1 115/14/1 116/15/1
f 117/12/1 118/13/1 119/14/1 120/15/1
f 121/5/1 122/6/1 123/2/1 124/7/1
f 125/5/1 126/6/1 127/2/1 128/7/1
f 129/5/1 130/6/1 131/2/1 132/7/1
f 133/5/1 134/6/1 135/2/1 136/7/1
f 137/1/1 138/2/1 139/3/1 140/4/1
f 141/5/1 142/6/1 143/2/1 144/7/1
f 145/5/1 146/6/1 147/2/1 148/7/1
f 149/1/1 150/2/1 151/3/1 152/4/1
f 153/1/1 154/2/1 155/3/1 156/4/1
f 157/5/1 158/6/1 159/2/1 160/7/1
f 161/5/1 162/6/1 163/2/1 164/7/1
f 165/8/1 166/9/1 167/10/1 168/11/1
f 169/8/1 170/9/1 171/10/1 172/11/1
f 173/5/1 174/6/1 175/2/1 176/7/1
f 177/5/1 178/6/1 179/2/1 180/7/1
f 181/5/1 182/6/1 183/2/1 184/7/1
f 185/5/1 186/6/1 187/2/1 188/7/1
f 189/5/1 190/6/1 191/2/1 192/7/1
f 193/1/1 194/2/1 195/3/1 196/4/1
f 197/5/1 198/6/1 199/2/1 200/7/1
f 201/5/1 202/6/1 203/2/1 204/7/1
f 205/5/1 206/6/1 207/2/1 208/7/1
f 209/5/1 210/6/1 211/2/1 212/7/1
f 213/5/1 214/6/1 215/2/1 216/7/1
f 217/12/1 218/13/1 219/14/1 220/15/1
f 221/8/1 222/9/1 223/10/1 224/11/1
f 225/12/1 226/13/1 227/14/1 228/15/1
f 229/8/1 230/9/1 231/10/1 232/11/1
f 233/12/1 234/13/1 235/14/1 236/15/1
f 237/12/1 238/13/1 239/14/1 240/15/1
f 241/12/1 242/13/1 243/14/1 244/15/1
f 245/12/1 246/13/1 247/14/1 248/15/1
f 249/8/1 250/9/1 251/10/1 252/11/1
f 253/8/1 254/9/1 255/10/1 256/11/1
f 257/8/1 258/9/1 259/10/1 260/11/1
f 261/8/1 262/9/1 263/10/1 264/11/1
f 265/8/1 266/9/1 267/10/1 268/11/1
f 269/8/1 270/9/1 271/10/1 272/11/1
f 273/8/1 274/9/1 275/10/1 276/11/1
f 277/8/1 278/9/1 279/10/1 280/11/1
f 281/8/1 282/9/1 283/10/1 284/11/1
f 285/12/1 286/13/1 287/14/1 288/15/1
f 289/12/1 290/13/1 291/14/1 292/15/1
f 293/12/1 294/13/1 295/14/1 296/15/1
f 297/8/1 298/9/1 299/10/1 300/11/1
f 301/12/1 302/13/1 303/14/1 304/15/1
f 305/12/1 306/13/1 307/14/1 308/15/1
f 309/12/1 310/13/1 311/14/1 312/15/1
f 313/12/1 314/13/1 315/14/1 316/15/1
f 317/12/1 318/13/1 319/14/1 320/15/1
f 321/12/1 322/13/1 323/14/1 324/15/1
f 325/12/1 326/13/1 327/14/1 328/15/1
f 329/12/1 330/13/1 331/14/1 332/15/1
f 333/8/1 334/9/1 335/10/1 336/11/1
f 337/8/1 338/9/1 339/10/1 340/11/1
f 341/8/1 342/9/1 343/10/1 344/11/1
f 345/8/1 346/9/1 347/10/1 348/11/1
f 349/8/1 350/9/1 351/10/1 352/11/1
f 353/8/1 354/9/1 355/10/1 356/11/1
f 357/12/1 358/13/1 359/14/1 360/15/1
f 361/8/1 362/9/1 363/10/1 364/11/1
f 365/12/1 366/13/1 367/14/1 368/15/1
f 369/8/1 370/9/1 371/10/1 372/11/1
f 373/12/1 374/13/1 375/14/1 376/15/1
f 377/8/1 378/9/1 379/10/1 380/11/1
f 381/12/1 382/13/1 383/14/1 384/15/1
f 385/12/1 386/13/1 387/14/1 388/15/1
f 389/12/1 390/13/1 391/14/1 392/15/1
f 393/12/1 394/13/1 395/14/1 396/15/1
f 397/12/1 398/13/1 399/14/1 400/15/1
f 401/12/1 402/13/1 403/14/1 404/15/1
f 405/8/1 406/9/1 407/10/1 408/11/1
f 409/8/1 410/9/1 411/10/1 412/11/1
f 413/8/1 414/9/1 415/10/1 416/11/1
f 417/8/1 418/9/1 419/10/1 420/11/1
f 421/8/1 422/9/1 423/10/1 424/11/1
f 425/8/1 426/9/1 427/10/1 428/11/1
f 429/12/1 430/13/1 431/14/1 432/15/1
f 433/12/1 434/13/1 435/14/1 436/15/1
f 437/12/1 438/13/1 439/14/1 440/15/1
f 441/8/1 442/9/1 443/10/1 444/11/1
f 445/12/1 446/13/1 447/14/1 448/15/1
f 449/12/1 450/13/1 451/14/1 452/15/1
f 453/8/1 454/9/1 455/10/1 456/11/1
f 457/8/1 458/9/1 459/10/1 460/11/1
f 461/8/1 462/9/1 463/10/1 464/11/1
f 465/8/1 466/9/1 467/10/1 468/11/1
f 469/8/1 470/9/1 471/10/1 472/11/1
f 473/8/1 474/9/1 475/10/1 476/11/1
f 477/1/1 478/2/1 479/3/1 480/4/1
f 481/1/1 482/2/1 483/3/1 484/4/1
f 485/5/1 486/6/1 487/2/1 488/7/1
f 489/5/1 490/6/1 491/2/1 492/7/1
f 493/5/1 494/6/1 495/2/1 496/7/1
f 497/1/1 498/2/1 499/3/1 500/4/1
f 501/1/1 502/2/1 503/3/1 504/4/1
f 505/5/1 506/6/1 507/2/1 508/7/1
f 509/5/1 510/6/1 511/2/1 512/7/1
f 513/5/1 514/6/1 515/2/1 516/7/1
f 517/5/1 518/6/1 519/2/1 520/7/1
f 521/5/1 522/6/1 523/2/1 524/7/1
f 525/5/1 526/6/1 527/2/1 528/7/1
f 529/5/1 530/6/1 531/2/1 532/7/1
f 533/5/1 534/6/1 535/2/1 536/7/1
f 537/8/1 538/9/1 539/10/1 540/11/1
f 541/8/1 542/9/1 543/10/1 544/11/1
f 545/12/1 546/13/1 547/14/1 548/15/1
f 549/12/1 550/13/1 551/14/1 552/15/1
f 553/8/1 554/9/1 555/10/1 556/11/1
f 557/8/1 558/9/1 559/10/1 560/11/1
f 561/12/1 562/13/1 563/14/1 564/15/1
f 565/8/1 566/9/1 567/10/1 568/11/1
f 569/12/1 570/13/1 571/14/1 572/15/1
f 573/8/1 574/9/1 575/10/1 576/11/1
f 577/8/1 578/9/1 579/10/1 580/11/1
f 581/8/1 582/9/1 583/10/1 584/11/1
f 585/12/1 586/13/1 587/14/1 588/15/1
f 589/12/1 590/13/1 591/14/1 592/15/1
f 593/8/1 594/9/1 595/10/1 596/11/1
f 597/8/1 598/9/1 599/10/1 600/11/1
f 601/5/1 602/6/1 603/2/1 604/7/1
f 605/1/1 606/2/1 607/3/1 608/4/1
f 609/5/1 610/6/1 611/2/1 612/7/1
f 613/5/1 614/6/1 615/2/1 616/7/1
f 617/5/1 618/6/1 619/2/1 620/7/1
f 621/5/1 622/6/1 623/2/1 624/7/1
f 625/5/1 626/6/1 627/2/1 628/7/1
f 629/5/1 630/6/1 631/2/1 632/7/1
f 633/5/1 634/6/1 635/2/1 636/7/1
f 637/5/1 638/6/1 639/2/1 640/7/1
f 641/5/1 642/6/1 643/2/1 644/7/1
f 645/5/1 646/6/1 647/2/1 648/7/1
f 649/1/1 650/2/1 651/3/1 652/4/1
f 653/5/1 654/6/1 655/2/1 656/7/1
f 657/5/1 658/6/1 659/2/1 660/7/1
f 661/5/1 662/6/1 663/2/1 664/7/1
f 665/5/1 666/6/1 667/2/1 668/7/1
f 669/5/1 670/6/1 671/2/1 672/7/1
f 673/5/1 674/6/1 675/2/1 676/7/1
f 677/5/1 678/6/1 679/2/1 680/7/1
f 681/5/1 682/6/1 683/2/1 684/7/1
f 685/5/1 686/6/1 687/2/1 688/7/1
f 689/5/1 690/6/1 691/2/1 692/7/1
f 693/5/1 694/6/1 695/2/1 696/7/1
f 697/5/1 698/6/1 699/2/1 700/7/1
f 701/5/1 702/6/1 703/2/1 704/7/1
f 705/5/1 706/6/1 707/2/1 708/7/1
f 709/5/1 710/6/1 711/2/1 712/7/1
f 713/5/1 714/6/1 715/2/1 716/7/1
f 717/5/1 718/6/1 719/2/1 720/7/1
f 721/5/1 722/6/1 723/2/1 724/7/1
f 725/1/1 726/2/1 727/3/1 728/4/1
f 729/5/1 730/6/1 731/2/1 732/7/1
f 733/5/1 734/6/1 735/2/1 736/7/1
f 737/5/1 738/6/1 739/2/1 740/7/1
f 741/5/1 742/6/1 743/2/1 744/7/1
f 745/5/1 746/6/1 747/2/1 748/7/1
f 749/1/1 750/2/1 751/3/1 752/4/1
f 753/5/1 754/6/1 755/2/1 756/7/1
f 757/5/1 758/6/1 759/2/1 760/7/1
f 761/1/1 762/2/1 763/3/1 764/4/1
f 765/1/1 766/2/1 767/3/1 768/4/1
f 769/5/1 770/6/1 771/2/1 772/7/1
f 773/5/1 774/6/1 775/2/1 776/7/1
f 777/5/1 778/6/1 779/2/1 780/7/1
f 781/5/1 782/6/1 783/2/1 784/7/1
f 785/5/1 786/6/1 787/2/1 788/7/1
f 789/5/1 790/6/1 791/2/1 792/7/1
f 793/5/1 794/6/1 795/2/1 796/7/1
f 797/1/1 798/2/1 799/3/1 800/4/1
f 801/5/1 802/6/1 803/2/1 804/7/1
f 805/5/1 806/6/1 807/2/1 808/7/1
f 809/5/1 810/6/1 811/2/1 812/7/1
f 813/5/1 814/6/1 815/2/1 816/7/1
f 817/5/1 818/6/1 819/2/1 820/7/1
f 821/5/1 822/6/1 823/2/1 824/7/1
f 825/5/1 826/6/1 827/2/1 828/7/1
f 829/5/1 830/6/1 831/2/1 832/7/1
f 833/5/1 834/6/1 835/2/1 836/7/1
f 837/5/1 838/6/1 839/2/1 840/7/1
f 841/1/1 842/2/1 843/3/1 844/4/1
f 845/5/1 846/6/1 847/2/1 848/7/1
f 849/5/1 850/6/1 851/2/1 852/7/1
f 853/5/1 854/6/1 855/2/1 856/7/1
f 857/5/1 858/6/1 859/2/1 860/7/1
f 861/5/1 862/6/1 863/2/1 864/7/1
f 865/8/1 866/9/1 867/10/1 868/11/1
f 869/8/1 870/9/1 871/10/1 872/11/1
f 873/8/1 874/9/1 875/10/1 876/11/1
f 877/8/1 878/9/1 879/10/1 880/11/1
f 881/8/1 882/9/1 883/10/1 884/11/1
f 885/8/1 886/9/1 887/10/1 888/11/1
f 889/8/1 890/9/1 891/10/1 892/11/1
f 893/8/1 894/9/1 895/10/1 896/11/1
f 897/8/1 898/9/1 899/10/1 900/11/1
f 901/8/1 902/9/1 903/10/1 904/11/1
f 905/8/1 906/9/1 907/10/1 908/11/1
f 909/12/1 910/13/1 911/14/1 912/15/1
f 913/12/1 914/13/1 915/14/1 916/15/1
f 917/12/1 918/13/1 919/14/1 920/15/1
f 921/12/1 922/13/1 923/14/1 924/15/1
f 925/12/1 926/13/1 927/14/1 928/15/1
f 929/12/1 930/13/1 931/14/1 932/15/1
f 933/12/1 934/13/1 935/14/1 936/15/1
f 937/12/1 938/13/1 939/14/1 940/15/1
f 941/12/1 942/13/1 943/14/1 944/15/1
f 945/12/1 946/13/1 947/14/1 948/15/1
f 949/12/1 950/13/1 951/14/1 952/15/1
f 953/12/1 954/13/1 955/14/1 956/15/1
f 957/8/1 958/9/1 959/10/1 960/11/1
f 961/12/1 962/13/1 963/14/1 964/15/1
f 965/12/1 966/13/1 967/14/1 968/15/1
f 969/8/1 970/9/1 971/10/1 972/11/1
f 973/8/1 974/9/1 975/10/1 976/11/1
f 977/8/1 978/9/1 979/10/1 980/11/1
f 981/8/1 982/9/1 983/10/1 984/11/1
f 985/8/1 986/9/1 987/10/1 988/11/1
f 989/8/1 990/9/1 991/10/1 992/11/1
f 993/8/1 994/9/1 995/10/1 996/11/1
f 997/12/1 998/13/1 999/14/1 1000/15/1
f 1001/12/1 1002/13/1 1003/14/1 1004/15/1
f 1005/12/1 1006/13/1 1007/14/1 1008/15/1
f 1009/8/1 1010/9/1 1011/10/1 1012/11/1
f 1013/12/1 1014/13/1 1015/14/1 1016/15/1
f 1017/12/1 1018/13/1 1019/14/1 1020/15/1
f 1021/12/1 1022/13/1 1023/14/1 1024/15/1
f 1025/12/1 1026/13/1 1027/14/1 1028/15/1
f 1029/8/1 1030/9/1 1031/10/1 1032/11/1
f 1033/12/1 1034/13/1 1035/14/1 1036/15/1
f 1037/8/1 1038/9/1 1039/10/1 1040/11/1
f 1041/12/1 1042/13/1 1043/14/1 1044/15/1
f 1045/8/1 1046/9/1 1047/10/1 1048/11/1
f 1049/12/1 1050/13/1 1051/14/1 1052/15/1
f 1053/12/1 1054/13/1 1055/14/1 1056/15/1
f 1057/12/1 1058/13/1 1059/14/1 1060/15/1
f 1061/12/1 1062/13/1 1063/14/1 1064/15/1
f 1065/12/1 1066/13/1 1067/14/1 1068/15/1
f 1069/8/1 1070/9/1 1071/10/1 1072/11/1
f 1073/12/1 1074/13/1 1075/14/1 1076/15/1
f 1077/12/1 1078/13/1 1079/14/1 1080/15/1
f 1081/12/1 1082/13/1 1083/14/1 1084/15/1
f 1085/8/1 1086/9/1 1087/10/1 1088/11/1
f 1089/8/1 1090/9/1 1091/10/1 1092/11/1
f 1093/8/1 1094/9/1 1095/10/1 1096/11/1
f 1097/8/1 1098/9/1 1099/10/1 1100/11/1
f 1101/8/1 1102/9/1 1103/10/1 1104/11/1
f 1105/8/1 1106/9/1 1107/10/1 1108/11/1
f 1109/12/1 1110/13/1 1111/14/1 1112/15/1
f 1113/12/1 1114/13/1 1115/14/1 1116/15/1
f 1117/12/1 1118/13/1 1119/14/1 1120/15/1
f 1121/16/1 1122/17/1 1123/18/1 1124/19/1
f 1125/8/1 1126/9/1 1127/10/1 1128/11/1
f 1129/12/1 1130/13/1 1131/14/1 1132/15/1
f 1133/12/1 1134/13/1 1135/14/1 1136/15/1
f 1137/12/1 1138/13/1 1139/14/1 1140/15/1
f 1141/12/1 1142/13/1 1143/14/1 1144/15/1
f 1145/12/1 1146/13/1 1147/14/1 1148/15/1
f 1149/12/1 1150/13/1 1151/14/1 1152/15/1
f 1153/8/1 1154/9/1 1155/10/1 1156/11/1
f 1157/12/1 1158/13/1 1159/14/1 1160/15/1
f 1161/12/1 1162/13/1 1163/14/1 1164/15/1
f 1165/8/1 1166/9/1 1167/10/1 1168/11/1
f 1169/8/1 1170/9/1 1171/10/1 1172/11/1
f 1173/4/1 1174/20/1 1175/17/1 1176/16/1
f 1177/8/1 1178/9/1 1179/10/1 1180/11/1
f 1181/8/1 1182/9/1 1183/10/1 1184/11/1
f 1185/8/1 1186/9/1 1187/10/1 1188/11/1
f 1189/8/1 1190/9/1 1191/10/1 1192/11/1
f 1193/8/1 1194/9/1 1195/10/1 1196/11/1
f 1197/8/1 1198/9/1 1199/10/1 1200/11/1
f 1201/8/1 1202/9/1 1203/10/1 1204/11/1
f 1205/8/1 1206/9/1 1207/10/1 1208/11/1
f 1209/8/1 1210/9/1 1211/10/1 1212/11/1
f 1213/5/1 1214/6/1 1215/2/1 1216/7/1
f 1217/5/1 1218/6/1 1219/2/1 1220/7/1
f 1221/5/1 1222/6/1 1223/2/1 1224/7/1
f 1225/5/1 1226/6/1 1227/2/1 1228/7/1
f 1229/5/1 1230/6/1 1231/2/1 1232/7/1
f 1233/5/1 1234/6/1 1235/2/1 1236/7/1
f 1237/5/1 1238/6/1 1239/2/1 1240/7/1
f 1241/5/1 1242/6/1 1243/2/1 1244/7/1
f 1245/5/1 1246/6/1 1247/2/1 1248/7/1
f 1249/5/1 1250/6/1 1251/2/1 1252/7/1
f 1253/5/1 1254/6/1 1255/2/1 1256/7/1
f 1257/5/1 1258/6/1 1259/2/1 1260/7/1
f 1261/5/1 1262/6/1 1263/2/1 1264/7/1
f 1265/1/1 1266/2/1 1267/3/1 1268/4/1
f 1269/5/1 1270/6/1 1271/2/1 1272/7/1
f 1273/5/1 1274/6/1 1275/2/1 1276/7/1
f 1277/5/1 1278/6/1 1279/2/1 1280/7/1
f 1281/5/1 1282/6/1 1283/2/1 1284/7/1
f 1285/5/1 1286/6/1 1287/2/1 1288/7/1
f 1289/5/1 1290/6/1 1291/2/1 1292/7/1
f 1293/1/1 1294/2/1 1295/3/1 1296/4/1
f 1297/5/1 1298/6/1 1299/2/1 1300/7/1
f 1301/5/1 1302/6/1 1303/2/1 1304/7/1
f 1305/1/1 1306/2/1 1307/3/1 1308/4/1
f 1309/5/1 1310/6/1 1311/2/1 1312/7/1
f 1313/5/1 1314/6/1 1315/2/1 1316/7/1
f 1317/5/1 1318/6/1 1319/2/1 1320/7/1
f 1321/1/1 1322/2/1 1323/3/1 1324/4/1
f 1325/5/1 1326/6/1 1327/2/1 1328/7/1
f 1329/5/1 1330/6/1 1331/2/1 1332/7/1
f 1333/5/1 1334/6/1 1335/2/1 1336/7/1
f 1337/1/1 1338/2/1 1339/3/1 1340/4/1
f 1341/5/1 1342/6/1 1343/2/1 1344/7/1
f 1345/5/1 1346/6/1 1347/2/1 1348/7/1
f 1349/1/1 1350/2/1 1351/3/1 1352/4/1
f 1353/5/1 1354/6/1 1355/2/1 1356/7/1
f 1357/5/1 1358/6/1 1359/2/1 1360/7/1
f 1361/1/1 1362/2/1 1363/3/1 1364/4/1
f 1365/5/1 1366/6/1 1367/2/1 1368/7/1
f 1369/1/1 1370/2/1 1371/3/1 1372/4/1
f 1373/1/1 1374/2/1 1375/3/1 1376/4/1
f 1377/1/1 1378/2/1 1379/3/1 1380/4/1
f 1381/1/1 1382/2/1 1383/3/1 1384/4/1
f 1385/5/1 1386/6/1 1387/2/1 1388/7/1
f 1389/5/1 1390/6/1 1391/2/1 1392/7/1
f 1393/5/1 1394/6/1 1395/2/1 1396/7/1
f 1397/5/1 1398/6/1 1399/2/1 1400/7/1
f 1401/1/1 1402/2/1 1403/3/1 1404/4/1
f 1405/1/1 1406/2/1 1407/3/1 1408/4/1
f 1409/5/1 1410/6/1 1411/2/1 1412/7/1
f 1413/1/1 1414/2/1 1415/3/1 1416/4/1
f 1417/1/1 1418/2/1 1419/3/1 1420/4/1
f 1421/1/1 1422/2/1 1423/3/1 1424/4/1
f 1425/5/1 1426/6/1 1427/2/1 1428/7/1
f 1429/5/1 1430/6/1 1431/2/1 1432/7/1
f 1433/5/1 1434/6/1 1435/2/1 1436/7/1
f 1437/1/1 1438/2/1 1439/3/1 1440/4/1
f 1441/5/1 1442/6/1 1443/2/1 1444/7/1
f 1445/5/1 1446/6/1 1447/2/1 1448/7/1
f 1449/5/1 1450/6/1 1451/2/1 1452/7/1
f 1453/5/1 1454/6/1 1455/2/1 1456/7/1
f 1457/5/1 1458/6/1 1459/2/1 1460/7/1
f 1461/5/1 1462/6/1 1463/2/1 1464/7/1
f 1465/1/1 1466/2/1 1467/3/1 1468/4/1
f 1469/5/1 1470/6/1 1471/2/1 1472/7/1
f 1473/1/1 1474/2/1 1475/3/1 1476/4/1
f 1477/5/1 1478/6/1 1479/2/1 1480/7/1
f 1481/5/1 1482/6/1 1483/2/1 1484/7/1
f 1485/5/1 1486/6/1 1487/2/1 1488/7/1
f 1489/5/1 1490/6/1 1491/2/1 1492/7/1
f 1493/5/1 1494/6/1 1495/2/1 1496/7/1
f 1497/5/1 1498/6/1 1499/2/1 1500/7/1
f 1501/5/1 1502/6/1 1503/2/1 1504/7/1
f 1505/5/1 1506/6/1 1507/2/1 1508/7/1
f 1509/5/1 1510/6/1 1511/2/1 1512/7/1
f 1513/1/1 1514/2/1 1515/3/1 1516/4/1
f 1517/5/1 1518/6/1 1519/2/1 1520/7/1
f 1521/5/1 1522/6/1 1523/2/1 1524/7/1
f 1525/1/1 1526/2/1 1527/3/1 1528/4/1
f 1529/5/1 1530/6/1 1531/2/1 1532/7/1
f 1533/5/1 1534/6/1 1535/2/1 1536/7/1
f 1537/1/1 1538/2/1 1539/3/1 1540/4/1
f 1541/5/1 1542/6/1 1543/2/1 1544/7/1
f 1545/5/1 1546/6/1 1547/2/1 1548/7/1
f 1549/5/1 1550/6/1 1551/2/1 1552/7/1
f 1553/5/1 1554/6/1 1555/2/1 1556/7/1
f 1557/5/1 1558/6/1 1559/2/1 1560/7/1
f 1561/5/1 1562/6/1 1563/2/1 1564/7/1
f 1565/5/1 1566/6/1 1567/2/1 1568/7/1
f 1569/5/1 1570/6/1 1571/2/1 1572/7/1
f 1573/5/1 1574/6/1 1575/2/1 1576/7/1
f 1577/5/1 1578/6/1 1579/2/1 1580/7/1
f 1581/5/1 1582/6/1 1583/2/1 1584/7/1
f 1585/5/1 1586/6/1 1587/2/1 1588/7/1
f 1589/5/1 1590/6/1 1591/2/1 1592/7/1
f 1593/5/1 1594/6/1 1595/2/1 1596/7/1
f 1597/5/1 1598/6/1 1599/2/1 1600/7/1
f 1601/1/1 1602/2/1 1603/3/1 1604/4/1
f 1605/5/1 1606/6/1 1607/2/1 1608/7/1
f 1609/8/1 1610/9/1 1611/10/1 1612/11/1
f 1613/8/1 1614/9/1 1615/10/1 1616/11/1
f 1617/8/1 1618/9/1 1619/10/1 1620/11/1
f 1621/8/1 1622/9/1 1623/10/1 1624/11/1
f 1625/8/1 1626/9/1 1627/10/1 1628/11/1
f 1629/8/1 1630/9/1 1631/10/1 1632/11/1
f 1633/8/1 1634/9/1 1635/10/1 1636/11/1
f 1637/8/1 1638/9/1 1639/10/1 1640/11/1
f 1641/8/1 1642/9/1 1643/10/1 1644/11/1
f 1645/8/1 1646/9/1 1647/10/1 1648/11/1
f 1649/8/1 1650/9/1 1651/10/1 1652/11/1
f 1653/8/1 1654/9/1 1655/10/1 1656/11/1
f 1657/8/1 1658/9/1 1659/10/1 1660/11/1
f 1661/8/1 1662/9/1 1663/10/1 1664/11/1
f 1665/8/1 1666/9/1 1667/10/1 1668/11/1
f 1669/12/1 1670/13/1 1671/14/1 1672/15/1
f 1673/12/1 1674/13/1 1675/14/1 1676/15/1
f 1677/12/1 1678/13/1 1679/14/1 1680/15/1
f 1681/8/1 1682/9/1 1683/10/1 1684/11/1
f 1685/12/1 1686/13/1 1687/14/1 1688/15/1
f 1689/12/1 1690/13/1 1691/14/1 1692/15/1
f 1693/12/1 1694/13/1 1695/14/1 1696/15/1
f 1697/8/1 1698/9/1 1699/10/1 1700/11/1
f 1701/12/1 1702/13/1 1703/14/1 1704/15/1
f 1705/12/1 1706/13/1 1707/14/1 1708/15/1
f 1709/8/1 1710/9/1 1711/10/1 1712/11/1
f 1713/12/1 1714/13/1 1715/14/1 1716/15/1
f 1717/12/1 1718/13/1 1719/14/1 1720/15/1
f 1721/8/1 1722/9/1 1723/10/1 1724/11/1
f 1725/12/1 1726/13/1 1727/14/1 1728/15/1
f 1729/8/1 1730/9/1 1731/10/1 1732/11/1
f 1733/12/1 1734/13/1 1735/14/1 1736/15/1
f 1737/8/1 1738/9/1 1739/10/1 1740/11/1
f 1741/12/1 1742/13/1 1743/14/1 1744/15/1
f 1745/8/1 1746/9/1 1747/10/1 1748/11/1
f 1749/12/1 1750/13/1 1751/14/1 1752/15/1
f 1753/8/1 1754/9/1 1755/10/1 1756/11/1
f 1757/12/1 1758/13/1 1759/14/1 1760/15/1
f 1761/8/1 1762/9/1 1763/10/1 1764/11/1
f 1765/8/1 1766/9/1 1767/10/1 1768/11/1
f 1769/8/1 1770/9/1 1771/10/1 1772/11/1
f 1773/8/1 1774/9/1 1775/10/1 1776/11/1
f 1777/8/1 1778/9/1 1779/10/1 1780/11/1
f 1781/8/1 1782/9/1 1783/10/1 1784/11/1
f 1785/8/1 1786/9/1 1787/10/1 1788/11/1
f 1789/8/1 1790/9/1 1791/10/1 1792/11/1
f 1793/8/1 1794/9/1 1795/10/1 1796/11/1
f 1797/8/1 1798/9/1 1799/10/1 1800/11/1
f 1801/8/1 1802/9/1 1803/10/1 1804/11/1
f 1805/12/1 1806/13/1 1807/14/1 1808/15/1
f 1809/8/1 1810/9/1 1811/10/1 1812/11/1
f 1813/12/1 1814/13/1 1815/14/1 1816/15/1
f 1817/8/1 1818/9/1 1819/10/1 1820/11/1
f 1821/12/1 1822/13/1 1823/14/1 1824/15/1
f 1825/8/1 1826/9/1 1827/10/1 1828/11/1
f 1829/12/1 1830/13/1 1831/14/1 1832/15/1
f 1833/12/1 1834/13/1 1835/14/1 1836/15/1
f 1837/8/1 1838/9/1 1839/10/1 1840/11/1
f 1841/12/1 1842/13/1 1843/14/1 1844/15/1
f 1845/12/1 1846/13/1 1847/14/1 1848/15/1
f 1849/12/1 1850/13/1 1851/14/1 1852/15/1
f 1853/12/1 1854/13/1 1855/14/1 1856/15/1
f 1857/12/1 1858/13/1 1859/14/1 1860/15/1
f 1861/12/1 1862/13/1 1863/14/1 1864/15/1
f 1865/12/1 1866/13/1 1867/14/1 1868/15/1
f 1869/12/1 1870/13/1 1871/14/1 1872/15/1
f 1873/8/1 1874/9/1 1875/10/1 1876/11/1
f 1877/12/1 1878/13/1 1879/14/1 1880/15/1
f 1881/12/1 1882/13/1 1883/14/1 1884/15/1
f 1885/8/1 1886/9/1 1887/10/1 1888/11/1
f 1889/8/1 1890/9/1 1891/10/1 1892/11/1
f 1893/8/1 1894/9/1 1895/10/1 1896/11/1
f 1897/8/1 1898/9/1 1899/10/1 1900/11/1
f 1901/8/1 1902/9/1 1903/10/1 1904/11/1
f 1905/8/1 1906/9/1 1907/10/1 1908/11/1
f 1909/8/1 1910/9/1 1911/10/1 1912/11/1
f 1913/8/1 1914/9/1 1915/10/1 1916/11/1
f 1917/8/1 1918/9/1 1919/10/1 1920/11/1
f 1921/8/1 1922/9/1 1923/10/1 1924/11/1
f 1925/8/1 1926/9/1 1927/10/1 1928/11/1
f 1929/8/1 1930/9/1 1931/10/1 1932/11/1
f 1933/8/1 1934/9/1 1935/10/1 1936/11/1
f 1937/12/1 1938/13/1 1939/14/1 1940/15/1
f 1941/12/1 1942/13/1 1943/14/1 1944/15/1
f 1945/12/1 1946/13/1 1947/14/1 1948/15/1
f 1949/8/1 1950/9/1 1951/10/1 1952/11/1
f 1953/12/1 1954/13/1 1955/14/1 1956/15/1
f 1957/12/1 1958/13/1 1959/14/1 1960/15/1
f 1961/8/1 1962/9/1 1963/10/1 1964/11/1
f 1965/12/1 1966/13/1 1967/14/1 1968/15/1
f 1969/12/1 1970/13/1 1971/14/1 1972/15/1
f 1973/12/1 1974/13/1 1975/14/1 1976/15/1
f 1977/12/1 1978/13/1 1979/14/1 1980/15/1
f 1981/12/1 1982/13/1 1983/14/1 1984/15/1
f 1985/12/1 1986/13/1 1987/14/1 1988/15/1
f 1989/8/1 1990/9/1 1991/10/1 1992/11/1
f 1993/12/1 1994/13/1 1995/14/1 1996/15/1
f 1997/12/1 1998/13/1 1999/14/1 2000/15/1
f 2001/12/1 2002/13/1 2003/14/1 2004/15/1
f 2005/12/1 2006/13/1 2007/14/1 2008/15/1
f 2009/8/1 2010/9/1 2011/10/1 2012/11/1
f 2013/8/1 2014/9/1 2015/10/1 2016/11/1
f 2017/8/1 2018/9/1 2019/10/1 2020/11/1
f 2021/8/1 2022/9/1 2023/10/1 2024/11/1
f 2025/8/1 2026/9/1 2027/10/1 2028/11/1
f 2029/8/1 2030/9/1 2031/10/1 2032/11/1
f 2033/8/1 2034/9/1 2035/10/1 2036/11/1
f 2037/8/1 2038/9/1 2039/10/1 2040/11/1
f 2041/8/1 2042/9/1 2043/10/1 2044/11/1
f 2045/8/1 2046/9/1 2047/10/1 2048/11/1
f 2049/8/1 2050/9/1 2051/10/1 2052/11/1
f 2053/8/1 2054/9/1 2055/10/1 2056/11/1
f 2057/8/1 2058/9/1 2059/10/1 2060/11/1
f 2061/8/1 2062/9/1 2063/10/1 2064/11/1
f 2065/8/1 2066/9/1 2067/10/1 2068/11/1
f 2069/8/1 2070/9/1 2071/10/1 2072/11/1
f 2073/8/1 2074/9/1 2075/10/1 2076/11/1
f 2077/8/1 2078/9/1 2079/10/1 2080/11/1
f 2081/8/1 2082/9/1 2083/10/1 2084/11/1
f 2085/1/1 2086/2/1 2087/3/1 2088/4/1
f 2089/5/1 2090/6/1 2091/2/1 2092/7/1
f 2093/5/1 2094/6/1 2095/2/1 2096/7/1
f 2097/5/1 2098/6/1 2099/2/1 2100/7/1
f 2101/5/1 2102/6/1 2103/2/1 2104/7/1
f 2105/5/1 2106/6/1 2107/2/1 2108/7/1
f 2109/5/1 2110/6/1 2111/2/1 2112/7/1
f 2113/5/1 2114/6/1 2115/2/1 2116/7/1
f 2117/1/1 2118/2/1 2119/3/1 2120/4/1
f 2121/5/1 2122/6/1 2123/2/1 2124/7/1
f 2125/5/1 2126/6/1 2127/2/1 2128/7/1
f 2129/5/1 2130/6/1 2131/2/1 2132/7/1
f 2133/1/1 2134/2/1 2135/3/1 2136/4/1
f 2137/5/1 2138/6/1 2139/2/1 2140/7/1
f 2141/5/1 2142/6/1 2143/2/1 2144/7/1
f 2145/5/1 2146/6/1 2147/2/1 2148/7/1
f 2149/1/1 2150/2/1 2151/3/1 2152/4/1
f 2153/5/1 2154/6/1 2155/2/1 2156/7/1
f 2157/5/1 2158/6/1 2159/2/1 2160/7/1
f 2161/5/1 2162/6/1 2163/2/1 2164/7/1
f 2165/1/1 2166/2/1 2167/3/1 2168/4/1
f 2169/5/1 2170/6/1 2171/2/1 2172/7/1
f 2173/5/1 2174/6/1 2175/2/1 2176/7/1
f 2177/5/1 2178/6/1 2179/2/1 2180/7/1
f 2181/1/1 2182/2/1 2183/3/1 2184/4/1
f 2185/5/1 2186/6/1 2187/2/1 2188/7/1
f 2189/5/1 2190/6/1 2191/2/1 2192/7/1
f 2193/5/1 2194/6/1 2195/2/1 2196/7/1
f 2197/5/1 2198/6/1 2199/2/1 2200/7/1
f 2201/1/1 2202/2/1 2203/3/1 2204/4/1
f 2205/5/1 2206/6/1 2207/2/1 2208/7/1
f 2209/1/1 2210/2/1 2211/3/1 2212/4/1
f 2213/5/1 2214/6/1 2215/2/1 2216/7/1
f 2217/5/1 2218/6/1 2219/2/1 2220/7/1
f 2221/5/1 2222/6/1 2223/2/1 2224/7/1
f 2225/1/1 2226/2/1 2227/3/1 2228/4/1
f 2229/5/1 2230/6/1 2231/2/1 2232/7/1
f 2233/5/1 2234/6/1 2235/2/1 2236/7/1
f 2237/1/1 2238/2/1 2239/3/1 2240/4/1
f 2241/5/1 2242/6/1 2243/2/1 2244/7/1
f 2245/5/1 2246/6/1 2247/2/1 2248/7/1
f 2249/5/1 2250/6/1 2251/2/1 2252/7/1
f 2253/1/1 2254/2/1 2255/3/1 2256/4/1
f 2257/5/1 2258/6/1 2259/2/1 2260/7/1
f 2261/5/1 2262/6/1 2263/2/1 2264/7/1
f 2265/5/1 2266/6/1 2267/2/1 2268/7/1
f 2269/1/1 2270/2/1 2271/3/1 2272/4/1
f 2273/5/1 2274/6/1 2275/2/1 2276/7/1
f 2277/5/1 2278/6/1 2279/2/1 2280/7/1
f 2281/5/1 2282/6/1 2283/2/1 2284/7/1
f 2285/5/1 2286/6/1 2287/2/1 2288/7/1
f 2289/1/1 2290/2/1 2291/3/1 2292/4/1
f 2293/5/1 2294/6/1 2295/2/1 2296/7/1
f 2297/1/1 2298/2/1 2299/3/1 2300/4/1
f 2301/5/1 2302/6/1 2303/2/1 2304/7/1
f 2305/5/1 2306/6/1 2307/2/1 2308/7/1
f 2309/5/1 2310/6/1 2311/2/1 2312/7/1
f 2313/5/1 2314/6/1 2315/2/1 2316/7/1
f 2317/1/1 2318/2/1 2319/3/1 2320/4/1
f 2321/1/1 2322/2/1 2323/3/1 2324/4/1
f 2325/5/1 2326/6/1 2327/2/1 2328/7/1
f 2329/1/1 2330/2/1 2331/3/1 2332/4/1
f 2333/5/1 2334/6/1 2335/2/1 2336/7/1
f 2337/5/1 2338/6/1 2339/2/1 2340/7/1
f 2341/1/1 2342/2/1 2343/3/1 2344/4/1
f 2345/5/1 2346/6/1 2347/2/1 2348/7/1
f 2349/5/1 2350/6/1 2351/2/1 2352/7/1
f 2353/1/1 2354/2/1 2355/3/1 2356/4/1
f 2357/5/1 2358/6/1 2359/2/1 2360/7/1
f 2361/5/1 2362/6/1 2363/2/1 2364/7/1
f 2365/5/1 2366/6/1 2367/2/1 2368/7/1
f 2369/5/1 2370/6/1 2371/2/1 2372/7/1
f 2373/5/1 2374/6/1 2375/2/1 2376/7/1
f 2377/5/1 2378/6/1 2379/2/1 2380/7/1
f 2381/5/1 2382/6/1 2383/2/1 2384/7/1
f 2385/1/1 2386/2/1 2387/3/1 2388/4/1
f 2389/5/1 2390/6/1 2391/2/1 2392/7/1
f 2393/5/1 2394/6/1 2395/2/1 2396/7/1
f 2397/5/1 2398/6/1 2399/2/1 2400/7/1
f 2401/5/1 2402/6/1 2403/2/1 2404/7/1
f 2405/5/1 2406/6/1 2407/2/1 2408/7/1
f 2409/5/1 2410/6/1 2411/2/1 2412/7/1
f 2413/5/1 2414/6/1 2415/2/1 2416/7/1
f 2417/5/1 2418/6/1 2419/2/1 2420/7/1
f 2421/5/1 2422/6/1 2423/2/1 2424/7/1
f 2425/1/1 2426/2/1 2427/3/1 2428/4/1
f 2429/1/1 2430/2/1 2431/3/1 2432/4/1
f 2433/5/1 2434/6/1 2435/2/1 2436/7/1
f 2437/5/1 2438/6/1 2439/2/1 2440/7/1
f 2441/5/1 2442/6/1 2443/2/1 2444/7/1
f 2445/1/1 2446/2/1 2447/3/1 2448/4/1
f 2449/5/1 2450/6/1 2451/2/1 2452/7/1
f 2453/5/1 2454/6/1 2455/2/1 2456/7/1
f 2457/5/1 2458/6/1 2459/2/1 2460/7/1
f 2461/5/1 2462/6/1 2463/2/1 2464/7/1
f 2465/5/1 2466/6/1 2467/2/1 2468/7/1
f 2469/1/1 2470/2/1 2471/3/1 2472/4/1
f 2473/5/1 2474/6/1 2475/2/1 2476/7/1
f 2477/5/1 2478/6/1 2479/2/1 2480/7/1
f 2481/8/1 2482/9/1 2483/10/1 2484/11/1
f 2485/8/1 2486/9/1 2487/10/1 2488/11/1
f 2489/8/1 2490/9/1 2491/10/1 2492/11/1
f 2493/8/1 2494/9/1 2495/10/1 2496/11/1
f 2497/8/1 2498/9/1 2499/10/1 2500/11/1
f 2501/8/1 2502/9/1 2503/10/1 2504/11/1
f 2505/8/1 2506/9/1 2507/10/1 2508/11/1
f 2509/8/1 2510/9/1 2511/10/1 2512/11/1
f 2513/8/1 2514/9/1 2515/10/1 2516/11/1
f 2517/8/1 2518/9/1 2519/10/1 2520/11/1
f 2521/8/1 2522/9/1 2523/10/1 2524/11/1
f 2525/8/1 2526/9/1 2527/10/1 2528/11/1
f 2529/8/1 2530/9/1 2531/10/1 2532/11/1
f 2533/12/1 2534/13/1 2535/14/1 2536/15/1
f 2537/12/1 2538/13/1 2539/14/1 2540/15/1
f 2541/12/1 2542/13/1 2543/14/1 2544/15/1
f 2545/12/1 2546/13/1 2547/14/1 2548/15/1
f 2549/8/1 2550/9/1 2551/10/1 2552/11/1
f 2553/12/1 2554/13/1 2555/14/1 2556/15/1
f 2557/12/1 2558/13/1 2559/14/1 2560/15/1
f 2561/8/1 2562/9/1 2563/10/1 2564/11/1
f 2565/12/1 2566/13/1 2567/14/1 2568/15/1
f 2569/12/1 2570/13/1 2571/14/1 2572/15/1
f 2573/12/1 2574/13/1 2575/14/1 2576/15/1
f 2577/8/1 2578/9/1 2579/10/1 2580/11/1
f 2581/12/1 2582/13/1 2583/14/1 2584/15/1
f 2585/8/1 2586/9/1 2587/10/1 2588/11/1
f 2589/12/1 2590/13/1 2591/14/1 2592/15/1
f 2593/12/1 2594/13/1 2595/14/1 2596/15/1
f 2597/8/1 2598/9/1 2599/10/1 2600/11/1
f 2601/12/1 2602/13/1 2603/14/1 2604/15/1
f 2605/12/1 2606/13/1 2607/14/1 2608/15/1
f 2609/8/1 2610/9/1 2611/10/1 2612/11/1
f 2613/12/1 2614/13/1 2615/14/1 2616/15/1
f 2617/8/1 2618/9/1 2619/10/1 2620/11/1
f 2621/8/1 2622/9/1 2623/10/1 2624/11/1
f 2625/8/1 2626/9/1 2627/10/1 2628/11/1
f 2629/8/1 2630/9/1 2631/10/1 2632/11/1
f 2633/8/1 2634/9/1 2635/10/1 2636/11/1
f 2637/8/1 2638/9/1 2639/10/1 2640/11/1
f 2641/8/1 2642/9/1 2643/10/1 2644/11/1
f 2645/8/1 2646/9/1 2647/10/1 2648/11/1
f 2649/8/1 2650/9/1 2651/10/1 2652/11/1
f 2653/8/1 2654/9/1 2655/10/1 2656/11/1
f 2657/8/1 2658/9/1 2659/10/1 2660/11/1
f 2661/8/1 2662/9/1 2663/10/1 2664/11/1
f 2665/8/1 2666/9/1 2667/10/1 2668/11/1
f 2669/8/1 2670/9/1 2671/10/1 2672/11/1
f 2673/8/1 2674/9/1 2675/10/1 2676/11/1
f 2677/12/1 2678/13/1 2679/14/1 2680/15/1
f 2681/12/1 2682/13/1 2683/14/1 2684/15/1
f 2685/8/1 2686/9/1 2687/10/1 2688/11/1
f 2689/12/1 2690/13/1 2691/14/1 2692/15/1
f 2693/12/1 2694/13/1 2695/14/1 2696/15/1
f 2697/8/1 2698/9/1 2699/10/1 2700/11/1
f 2701/12/1 2702/13/1 2703/14/1 2704/15/1
f 2705/8/1 2706/9/1 2707/10/1 2708/11/1
f 2709/12/1 2710/13/1 2711/14/1 2712/15/1
f 2713/8/1 2714/9/1 2715/10/1 2716/11/1
f 2717/12/1 2718/13/1 2719/14/1 2720/15/1
f 2721/12/1 2722/13/1 2723/14/1 2724/15/1
f 2725/8/1 2726/9/1 2727/10/1 2728/11/1
f 2729/12/1 2730/13/1 2731/14/1 2732/15/1
f 2733/8/1 2734/9/1 2735/10/1 2736/11/1
f 2737/12/1 2738/13/1 2739/14/1 2740/15/1
f 2741/8/1 2742/9/1 2743/10/1 2744/11/1
f 2745/12/1 2746/13/1 2747/14/1 2748/15/1
f 2749/12/1 2750/13/1 2751/14/1 2752/15/1
f 2753/8/1 2754/9/1 2755/10/1 2756/11/1
f 2757/12/1 2758/13/1 2759/14/1 2760/15/1
f 2761/8/1 2762/9/1 2763/10/1 2764/11/1
f 2765/12/1 2766/13/1 2767/14/1 2768/15/1
f 2769/12/1 2770/13/1 2771/14/1 2772/15/1
f 2773/8/1 2774/9/1 2775/10/1 2776/11/1
f 2777/8/1 2778/9/1 2779/10/1 2780/11/1
f 2781/8/1 2782/9/1 2783/10/1 2784/11/1
f 2785/8/1 2786/9/1 2787/10/1 2788/11/1
f 2789/8/1 2790/9/1 2791/10/1 2792/11/1
f 2793/8/1 2794/9/1 2795/10/1 2796/11/1
f 2797/8/1 2798/9/1 2799/10/1 2800/11/1
f 2801/8/1 2802/9/1 2803/10/1 2804/11/1
f 2805/8/1 2806/9/1 2807/10/1 2808/11/1
f 2809/8/1 2810/9/1 2811/10/1 2812/11/1
f 2813/8/1 2814/9/1 2815/10/1 2816/11/1
f 2817/8/1 2818/9/1 2819/10/1 2820/11/1
f 2821/12/1 2822/13/1 2823/14/1 2824/15/1
f 2825/12/1 2826/13/1 2827/14/1 2828/15/1
f 2829/16/1 2830/17/1 2831/18/1 2832/19/1
f 2833/12/1 2834/13/1 2835/14/1 2836/15/1
f 2837/8/1 2838/9/1 2839/10/1 2840/11/1
f 2841/12/1 2842/13/1 2843/14/1 2844/15/1
f 2845/12/1 2846/13/1 2847/14/1 2848/15/1
f 2849/12/1 2850/13/1 2851/14/1 2852/15/1
f 2853/8/1 2854/9/1 2855/10/1 2856/11/1
f 2857/16/1 2858/17/1 2859/18/1 2860/19/1
f 2861/12/1 2862/13/1 2863/14/1 2864/15/1
f 2865/12/1 2866/13/1 2867/14/1 2868/15/1
f 2869/8/1 2870/9/1 2871/10/1 2872/11/1
f 2873/8/1 2874/9/1 2875/10/1 2876/11/1
f 2877/12/1 2878/13/1 2879/14/1 2880/15/1
f 2881/8/1 2882/9/1 2883/10/1 2884/11/1
f 2885/12/1 2886/13/1 2887/14/1 2888/15/1
f 2889/8/1 2890/9/1 2891/10/1 2892/11/1
f 2893/16/1 2894/17/1 2895/18/1 2896/19/1
f 2897/12/1 2898/13/1 2899/14/1 2900/15/1
f 2901/12/1 2902/13/1 2903/14/1 2904/15/1
f 2905/8/1 2906/9/1 2907/10/1 2908/11/1
f 2909/1/1 2910/2/1 2911/3/1 2912/4/1
f 2913/5/1 2914/6/1 2915/2/1 2916/7/1
f 2917/5/1 2918/6/1 2919/2/1 2920/7/1
f 2921/5/1 2922/6/1 2923/2/1 2924/7/1
f 2925/5/1 2926/6/1 2927/2/1 2928/7/1
f 2929/5/1 2930/6/1 2931/2/1 2932/7/1
f 2933/5/1 2934/6/1 2935/2/1 2936/7/1
f 2937/5/1 2938/6/1 2939/2/1 2940/7/1
f 2941/1/1 2942/2/1 2943/3/1 2944/4/1
f 2945/5/1 2946/6/1 2947/2/1 2948/7/1
f 2949/5/1 2950/6/1 2951/2/1 2952/7/1
f 2953/8/1 2954/9/1 2955/10/1 2956/11/1
f 2957/8/1 2958/9/1 2959/10/1 2960/11/1
f 2961/4/1 2962/20/1 2963/17/1 2964/16/1
f 2965/8/1 2966/9/1 2967/10/1 2968/11/1
f 2969/8/1 2970/9/1 2971/10/1 2972/11/1
f 2973/8/1 2974/9/1 2975/10/1 2976/11/1
f 2977/8/1 2978/9/1 2979/10/1 2980/11/1
f 2981/8/1 2982/9/1 2983/10/1 2984/11/1
f 2985/8/1 2986/9/1 2987/10/1 2988/11/1
f 2989/4/1 2990/20/1 2991/17/1 2992/16/1
f 2993/8/1 2994/9/1 2995/10/1 2996/11/1
f 2997/8/1 2998/9/1 2999/10/1 3000/11/1
f 3001/8/1 3002/9/1 3003/10/1 3004/11/1
f 3005/8/1 3006/9/1 3007/10/1 3008/11/1
f 3009/8/1 3010/9/1 3011/10/1 3012/11/1
f 3013/8/1 3014/9/1 3015/10/1 3016/11/1
f 3017/8/1 3018/9/1 3019/10/1 3020/11/1
f 3021/4/1 3022/20/1 3023/17/1 3024/16/1
f 3025/8/1 3026/9/1 3027/10/1 3028/11/1
f 3029/8/1 3030/9/1 3031/10/1 3032/11/1
f 3033/5/1 3034/6/1 3035/2/1 3036/7/1
f 3037/5/1 3038/6/1 3039/2/1 3040/7/1
f 3041/1/1 3042/2/1 3043/3/1 3044/4/1
f 3045/5/1 3046/6/1 3047/2/1 3048/7/1
f 3049/5/1 3050/6/1 3051/2/1 3052/7/1
f 3053/1/1 3054/2/1 3055/3/1 3056/4/1
f 3057/5/1 3058/6/1 3059/2/1 3060/7/1
f 3061/5/1 3062/6/1 3063/2/1 3064/7/1
f 3065/5/1 3066/6/1 3067/2/1 3068/7/1
f 3069/1/1 3070/2/1 3071/3/1 3072/4/1
f 3073/5/1 3074/6/1 3075/2/1 3076/7/1
f 3077/5/1 3078/6/1 3079/2/1 3080/7/1
f 3081/1/1 3082/2/1 3083/3/1 3084/4/1
f 3085/5/1 3086/6/1 3087/2/1 3088/7/1
f 3089/5/1 3090/6/1 3091/2/1 3092/7/1
f 3093/5/1 3094/6/1 3095/2/1 3096/7/1
f 3097/5/1 3098/6/1 3099/2/1 3100/7/1
f 3101/5/1 3102/6/1 3103/2/1 3104/7/1
f 3105/5/1 3106/6/1 3107/2/1 3108/7/1
f 3109/5/1 3110/6/1 3111/2/1 3112/7/1
f 3113/1/1 3114/2/1 3115/3/1 3116/4/1
f 3117/5/1 3118/6/1 3119/2/1 3120/7/1
f 3121/8/1 3122/9/1 3123/10/1 3124/11/1
f 3125/8/1 3126/9/1 3127/10/1 3128/11/1
f 3129/8/1 3130/9/1 3131/10/1 3132/11/1
f 3133/8/1 3134/9/1 3135/10/1 3136/11/1
f 3137/8/1 3138/9/1 3139/10/1 3140/11/1
f 3141/8/1 3142/9/1 3143/10/1 3144/11/1
f 3145/12/1 3146/13/1 3147/14/1 3148/15/1
f 3149/12/1 3150/13/1 3151/14/1 3152/15/1
f 3153/12/1 3154/13/1 3155/14/1 3156/15/1
f 3157/12/1 3158/13/1 3159/14/1 3160/15/1
f 3161/8/1 3162/9/1 3163/10/1 3164/11/1
f 3165/12/1 3166/13/1 3167/14/1 3168/15/1
f 3169/8/1 3170/9/1 3171/10/1 3172/11/1
f 3173/8/1 3174/9/1 3175/10/1 3176/11/1
f 3177/8/1 3178/9/1 3179/10/1 3180/11/1
f 3181/8/1 3182/9/1 3183/10/1 3184/11/1
f 3185/8/1 3186/9/1 3187/10/1 3188/11/1
f 3189/8/1 3190/9/1 3191/10/1 3192/11/1
f 3193/8/1 3194/9/1 3195/10/1 3196/11/1
f 3197/12/1 3198/13/1 3199/14/1 3200/15/1
f 3201/12/1 3202/13/1 3203/14/1 3204/15/1
f 3205/8/1 3206/9/1 3207/10/1 3208/11/1
f 3209/12/1 3210/13/1 3211/14/1 3212/15/1
f 3213/12/1 3214/13/1 3215/14/1 3216/15/1
f 3217/8/1 3218/9/1 3219/10/1 3220/11/1
f 3221/12/1 3222/13/1 3223/14/1 3224/15/1
f 3225/8/1 3226/9/1 3227/10/1 3228/11/1
f 3229/8/1 3230/9/1 3231/10/1 3232/11/1
f 3233/8/1 3234/9/1 3235/10/1 3236/11/1
f 3237/8/1 3238/9/1 3239/10/1 3240/11/1
f 3241/8/1 3242/9/1 3243/10/1 3244/11/1
f 3245/8/1 3246/9/1 3247/10/1 3248/11/1
f 3249/8/1 3250/9/1 3251/10/1 3252/11/1
f 3253/12/1 3254/13/1 3255/14/1 3256/15/1
f 3257/12/1 3258/13/1 3259/14/1 3260/15/1
f 3261/16/1 3262/17/1 3263/18/1 3264/19/1
f 3265/12/1 3266/13/1 3267/14/1 3268/15/1
f 3269/8/1 3270/9/1 3271/10/1 3272/11/1
f 3273/12/1 3274/13/1 3275/14/1 3276/15/1
f 3277/8/1 3278/9/1 3279/10/1 3280/11/1
f 3281/8/1 3282/9/1 3283/10/1 3284/11/1
f 3285/4/1 3286/20/1 3287/17/1 3288/16/1
f 3289/8/1 3290/9/1 3291/10/1 3292/11/1
f 3293/8/1 3294/9/1 3295/10/1 3296/11/1
f 3297/8/1 3298/9/1 3299/10/1 3300/11/1
f 3301/8/1 3302/9/1 3303/10/1 3304/11/1

