﻿# Tiled2Unity generated file. Do not modify by hand.
# Wavefront file for 'CrashCity_mesh_0024.obj'

# Vertices (Count = 2116)
v -544 -128 0
v -576 -128 0
v -576 -96 0
v -544 -96 0
v -576 -128 0
v -608 -128 0
v -608 -96 0
v -576 -96 0
v -608 -128 0
v -640 -128 0
v -640 -96 0
v -608 -96 0
v -640 -128 0
v -672 -128 0
v -672 -96 0
v -640 -96 0
v -544 -160 0
v -576 -160 0
v -576 -128 0
v -544 -128 0
v -576 -160 0
v -608 -160 0
v -608 -128 0
v -576 -128 0
v -608 -160 0
v -640 -160 0
v -640 -128 0
v -608 -128 0
v -640 -160 0
v -672 -160 0
v -672 -128 0
v -640 -128 0
v -544 -192 0
v -576 -192 0
v -576 -160 0
v -544 -160 0
v -576 -192 0
v -608 -192 0
v -608 -160 0
v -576 -160 0
v -608 -192 0
v -640 -192 0
v -640 -160 0
v -608 -160 0
v -640 -192 0
v -672 -192 0
v -672 -160 0
v -640 -160 0
v -544 -224 0
v -576 -224 0
v -576 -192 0
v -544 -192 0
v -576 -224 0
v -608 -224 0
v -608 -192 0
v -576 -192 0
v -608 -224 0
v -640 -224 0
v -640 -192 0
v -608 -192 0
v -640 -224 0
v -672 -224 0
v -672 -192 0
v -640 -192 0
v -544 -256 0
v -576 -256 0
v -576 -224 0
v -544 -224 0
v -576 -256 0
v -608 -256 0
v -608 -224 0
v -576 -224 0
v -608 -256 0
v -640 -256 0
v -640 -224 0
v -608 -224 0
v -640 -256 0
v -672 -256 0
v -672 -224 0
v -640 -224 0
v -544 -320 0
v -576 -320 0
v -576 -288 0
v -544 -288 0
v -576 -320 0
v -608 -320 0
v -608 -288 0
v -576 -288 0
v -608 -320 0
v -640 -320 0
v -640 -288 0
v -608 -288 0
v -640 -320 0
v -672 -320 0
v -672 -288 0
v -640 -288 0
v -320 -352 0
v -352 -352 0
v -352 -320 0
v -320 -320 0
v -352 -352 0
v -384 -352 0
v -384 -320 0
v -352 -320 0
v -384 -352 0
v -416 -352 0
v -416 -320 0
v -384 -320 0
v -544 -352 0
v -576 -352 0
v -576 -320 0
v -544 -320 0
v -576 -352 0
v -608 -352 0
v -608 -320 0
v -576 -320 0
v -608 -352 0
v -640 -352 0
v -640 -320 0
v -608 -320 0
v -640 -352 0
v -672 -352 0
v -672 -320 0
v -640 -320 0
v -320 -384 0
v -352 -384 0
v -352 -352 0
v -320 -352 0
v -352 -384 0
v -384 -384 0
v -384 -352 0
v -352 -352 0
v -384 -384 0
v -416 -384 0
v -416 -352 0
v -384 -352 0
v -448 -384 0
v -480 -384 0
v -480 -352 0
v -448 -352 0
v -544 -384 0
v -576 -384 0
v -576 -352 0
v -544 -352 0
v -576 -384 0
v -608 -384 0
v -608 -352 0
v -576 -352 0
v -608 -384 0
v -640 -384 0
v -640 -352 0
v -608 -352 0
v -640 -384 0
v -672 -384 0
v -672 -352 0
v -640 -352 0
v -320 -416 0
v -352 -416 0
v -352 -384 0
v -320 -384 0
v -352 -416 0
v -384 -416 0
v -384 -384 0
v -352 -384 0
v -384 -416 0
v -416 -416 0
v -416 -384 0
v -384 -384 0
v -416 -416 0
v -448 -416 0
v -448 -384 0
v -416 -384 0
v -448 -416 0
v -480 -416 0
v -480 -384 0
v -448 -384 0
v -544 -416 0
v -576 -416 0
v -576 -384 0
v -544 -384 0
v -576 -416 0
v -608 -416 0
v -608 -384 0
v -576 -384 0
v -608 -416 0
v -640 -416 0
v -640 -384 0
v -608 -384 0
v -640 -416 0
v -672 -416 0
v -672 -384 0
v -640 -384 0
v -320 -448 0
v -352 -448 0
v -352 -416 0
v -320 -416 0
v -352 -448 0
v -384 -448 0
v -384 -416 0
v -352 -416 0
v -384 -448 0
v -416 -448 0
v -416 -416 0
v -384 -416 0
v -544 -448 0
v -576 -448 0
v -576 -416 0
v -544 -416 0
v -576 -448 0
v -608 -448 0
v -608 -416 0
v -576 -416 0
v -608 -448 0
v -640 -448 0
v -640 -416 0
v -608 -416 0
v -640 -448 0
v -672 -448 0
v -672 -416 0
v -640 -416 0
v -1248 -448 0
v -1280 -448 0
v -1280 -416 0
v -1248 -416 0
v -320 -480 0
v -352 -480 0
v -352 -448 0
v -320 -448 0
v -352 -480 0
v -384 -480 0
v -384 -448 0
v -352 -448 0
v -384 -480 0
v -416 -480 0
v -416 -448 0
v -384 -448 0
v -1408 -480 0
v -1440 -480 0
v -1440 -448 0
v -1408 -448 0
v -544 -512 0
v -576 -512 0
v -576 -480 0
v -544 -480 0
v -576 -512 0
v -608 -512 0
v -608 -480 0
v -576 -480 0
v -608 -512 0
v -640 -512 0
v -640 -480 0
v -608 -480 0
v -640 -512 0
v -672 -512 0
v -672 -480 0
v -640 -480 0
v -544 -544 0
v -576 -544 0
v -576 -512 0
v -544 -512 0
v -576 -544 0
v -608 -544 0
v -608 -512 0
v -576 -512 0
v -608 -544 0
v -640 -544 0
v -640 -512 0
v -608 -512 0
v -640 -544 0
v -672 -544 0
v -672 -512 0
v -640 -512 0
v -1248 -544 0
v -1280 -544 0
v -1280 -512 0
v -1248 -512 0
v -1408 -544 0
v -1440 -544 0
v -1440 -512 0
v -1408 -512 0
v -544 -576 0
v -576 -576 0
v -576 -544 0
v -544 -544 0
v -576 -576 0
v -608 -576 0
v -608 -544 0
v -576 -544 0
v -608 -576 0
v -640 -576 0
v -640 -544 0
v -608 -544 0
v -640 -576 0
v -672 -576 0
v -672 -544 0
v -640 -544 0
v -1152 -576 0
v -1184 -576 0
v -1184 -544 0
v -1152 -544 0
v -1248 -576 0
v -1280 -576 0
v -1280 -544 0
v -1248 -544 0
v -1312 -576 0
v -1344 -576 0
v -1344 -544 0
v -1312 -544 0
v -544 -608 0
v -576 -608 0
v -576 -576 0
v -544 -576 0
v -576 -608 0
v -608 -608 0
v -608 -576 0
v -576 -576 0
v -608 -608 0
v -640 -608 0
v -640 -576 0
v -608 -576 0
v -640 -608 0
v -672 -608 0
v -672 -576 0
v -640 -576 0
v -544 -640 0
v -576 -640 0
v -576 -608 0
v -544 -608 0
v -576 -640 0
v -608 -640 0
v -608 -608 0
v -576 -608 0
v -608 -640 0
v -640 -640 0
v -640 -608 0
v -608 -608 0
v -640 -640 0
v -672 -640 0
v -672 -608 0
v -640 -608 0
v -960 -640 0
v -992 -640 0
v -992 -608 0
v -960 -608 0
v -352 -800 0
v -384 -800 0
v -384 -768 0
v -352 -768 0
v -448 -800 0
v -480 -800 0
v -480 -768 0
v -448 -768 0
v -352 -832 0
v -384 -832 0
v -384 -800 0
v -352 -800 0
v -384 -832 0
v -416 -832 0
v -416 -800 0
v -384 -800 0
v -416 -832 0
v -448 -832 0
v -448 -800 0
v -416 -800 0
v -448 -832 0
v -480 -832 0
v -480 -800 0
v -448 -800 0
v -352 -864 0
v -384 -864 0
v -384 -832 0
v -352 -832 0
v -384 -864 0
v -416 -864 0
v -416 -832 0
v -384 -832 0
v -416 -864 0
v -448 -864 0
v -448 -832 0
v -416 -832 0
v -352 -896 0
v -384 -896 0
v -384 -864 0
v -352 -864 0
v -384 -896 0
v -416 -896 0
v -416 -864 0
v -384 -864 0
v -416 -896 0
v -448 -896 0
v -448 -864 0
v -416 -864 0
v -352 -928 0
v -384 -928 0
v -384 -896 0
v -352 -896 0
v -384 -928 0
v -416 -928 0
v -416 -896 0
v -384 -896 0
v -416 -928 0
v -448 -928 0
v -448 -896 0
v -416 -896 0
v -2656 -1184 0
v -2688 -1184 0
v -2688 -1152 0
v -2656 -1152 0
v -2656 -1216 0
v -2688 -1216 0
v -2688 -1184 0
v -2656 -1184 0
v -2656 -1248 0
v -2688 -1248 0
v -2688 -1216 0
v -2656 -1216 0
v -2656 -1408 0
v -2688 -1408 0
v -2688 -1376 0
v -2656 -1376 0
v -2656 -1440 0
v -2688 -1440 0
v -2688 -1408 0
v -2656 -1408 0
v -2656 -1472 0
v -2688 -1472 0
v -2688 -1440 0
v -2656 -1440 0
v -1152 -1568 0
v -1184 -1568 0
v -1184 -1536 0
v -1152 -1536 0
v -1248 -1568 0
v -1280 -1568 0
v -1280 -1536 0
v -1248 -1536 0
v -1312 -1568 0
v -1344 -1568 0
v -1344 -1536 0
v -1312 -1536 0
v -1344 -1568 0
v -1376 -1568 0
v -1376 -1536 0
v -1344 -1536 0
v -1376 -1568 0
v -1408 -1568 0
v -1408 -1536 0
v -1376 -1536 0
v -1600 -1568 0
v -1632 -1568 0
v -1632 -1536 0
v -1600 -1536 0
v -1696 -1568 0
v -1728 -1568 0
v -1728 -1536 0
v -1696 -1536 0
v -1824 -1568 0
v -1856 -1568 0
v -1856 -1536 0
v -1824 -1536 0
v -1120 -1600 0
v -1152 -1600 0
v -1152 -1568 0
v -1120 -1568 0
v -1152 -1600 0
v -1184 -1600 0
v -1184 -1568 0
v -1152 -1568 0
v -1184 -1600 0
v -1216 -1600 0
v -1216 -1568 0
v -1184 -1568 0
v -1216 -1600 0
v -1248 -1600 0
v -1248 -1568 0
v -1216 -1568 0
v -1312 -1600 0
v -1344 -1600 0
v -1344 -1568 0
v -1312 -1568 0
v -1344 -1600 0
v -1376 -1600 0
v -1376 -1568 0
v -1344 -1568 0
v -1376 -1600 0
v -1408 -1600 0
v -1408 -1568 0
v -1376 -1568 0
v -1440 -1600 0
v -1472 -1600 0
v -1472 -1568 0
v -1440 -1568 0
v -1600 -1600 0
v -1632 -1600 0
v -1632 -1568 0
v -1600 -1568 0
v -1632 -1600 0
v -1664 -1600 0
v -1664 -1568 0
v -1632 -1568 0
v -1664 -1600 0
v -1696 -1600 0
v -1696 -1568 0
v -1664 -1568 0
v -1696 -1600 0
v -1728 -1600 0
v -1728 -1568 0
v -1696 -1568 0
v -1824 -1600 0
v -1856 -1600 0
v -1856 -1568 0
v -1824 -1568 0
v -1856 -1600 0
v -1888 -1600 0
v -1888 -1568 0
v -1856 -1568 0
v -1120 -1632 0
v -1152 -1632 0
v -1152 -1600 0
v -1120 -1600 0
v -1152 -1632 0
v -1184 -1632 0
v -1184 -1600 0
v -1152 -1600 0
v -1184 -1632 0
v -1216 -1632 0
v -1216 -1600 0
v -1184 -1600 0
v -1216 -1632 0
v -1248 -1632 0
v -1248 -1600 0
v -1216 -1600 0
v -1248 -1632 0
v -1280 -1632 0
v -1280 -1600 0
v -1248 -1600 0
v -1312 -1632 0
v -1344 -1632 0
v -1344 -1600 0
v -1312 -1600 0
v -1344 -1632 0
v -1376 -1632 0
v -1376 -1600 0
v -1344 -1600 0
v -1376 -1632 0
v -1408 -1632 0
v -1408 -1600 0
v -1376 -1600 0
v -1408 -1632 0
v -1440 -1632 0
v -1440 -1600 0
v -1408 -1600 0
v -1440 -1632 0
v -1472 -1632 0
v -1472 -1600 0
v -1440 -1600 0
v -1600 -1632 0
v -1632 -1632 0
v -1632 -1600 0
v -1600 -1600 0
v -1632 -1632 0
v -1664 -1632 0
v -1664 -1600 0
v -1632 -1600 0
v -1664 -1632 0
v -1696 -1632 0
v -1696 -1600 0
v -1664 -1600 0
v -1696 -1632 0
v -1728 -1632 0
v -1728 -1600 0
v -1696 -1600 0
v -1760 -1632 0
v -1792 -1632 0
v -1792 -1600 0
v -1760 -1600 0
v -1792 -1632 0
v -1824 -1632 0
v -1824 -1600 0
v -1792 -1600 0
v -1824 -1632 0
v -1856 -1632 0
v -1856 -1600 0
v -1824 -1600 0
v -1856 -1632 0
v -1888 -1632 0
v -1888 -1600 0
v -1856 -1600 0
v -1888 -1632 0
v -1920 -1632 0
v -1920 -1600 0
v -1888 -1600 0
v -2048 -1632 0
v -2080 -1632 0
v -2080 -1600 0
v -2048 -1600 0
v -2208 -1632 0
v -2240 -1632 0
v -2240 -1600 0
v -2208 -1600 0
v -2432 -1632 0
v -2464 -1632 0
v -2464 -1600 0
v -2432 -1600 0
v -2656 -1632 0
v -2688 -1632 0
v -2688 -1600 0
v -2656 -1600 0
v -1152 -1664 0
v -1184 -1664 0
v -1184 -1632 0
v -1152 -1632 0
v -1184 -1664 0
v -1216 -1664 0
v -1216 -1632 0
v -1184 -1632 0
v -1216 -1664 0
v -1248 -1664 0
v -1248 -1632 0
v -1216 -1632 0
v -1248 -1664 0
v -1280 -1664 0
v -1280 -1632 0
v -1248 -1632 0
v -1312 -1664 0
v -1344 -1664 0
v -1344 -1632 0
v -1312 -1632 0
v -1344 -1664 0
v -1376 -1664 0
v -1376 -1632 0
v -1344 -1632 0
v -1376 -1664 0
v -1408 -1664 0
v -1408 -1632 0
v -1376 -1632 0
v -1408 -1664 0
v -1440 -1664 0
v -1440 -1632 0
v -1408 -1632 0
v -1600 -1664 0
v -1632 -1664 0
v -1632 -1632 0
v -1600 -1632 0
v -1632 -1664 0
v -1664 -1664 0
v -1664 -1632 0
v -1632 -1632 0
v -1664 -1664 0
v -1696 -1664 0
v -1696 -1632 0
v -1664 -1632 0
v -1696 -1664 0
v -1728 -1664 0
v -1728 -1632 0
v -1696 -1632 0
v -1760 -1664 0
v -1792 -1664 0
v -1792 -1632 0
v -1760 -1632 0
v -1792 -1664 0
v -1824 -1664 0
v -1824 -1632 0
v -1792 -1632 0
v -1824 -1664 0
v -1856 -1664 0
v -1856 -1632 0
v -1824 -1632 0
v -1856 -1664 0
v -1888 -1664 0
v -1888 -1632 0
v -1856 -1632 0
v -1888 -1664 0
v -1920 -1664 0
v -1920 -1632 0
v -1888 -1632 0
v -2048 -1664 0
v -2080 -1664 0
v -2080 -1632 0
v -2048 -1632 0
v -2208 -1664 0
v -2240 -1664 0
v -2240 -1632 0
v -2208 -1632 0
v -2432 -1664 0
v -2464 -1664 0
v -2464 -1632 0
v -2432 -1632 0
v -2656 -1664 0
v -2688 -1664 0
v -2688 -1632 0
v -2656 -1632 0
v -1152 -1696 0
v -1184 -1696 0
v -1184 -1664 0
v -1152 -1664 0
v -1184 -1696 0
v -1216 -1696 0
v -1216 -1664 0
v -1184 -1664 0
v -1216 -1696 0
v -1248 -1696 0
v -1248 -1664 0
v -1216 -1664 0
v -1248 -1696 0
v -1280 -1696 0
v -1280 -1664 0
v -1248 -1664 0
v -1312 -1696 0
v -1344 -1696 0
v -1344 -1664 0
v -1312 -1664 0
v -1344 -1696 0
v -1376 -1696 0
v -1376 -1664 0
v -1344 -1664 0
v -1376 -1696 0
v -1408 -1696 0
v -1408 -1664 0
v -1376 -1664 0
v -1408 -1696 0
v -1440 -1696 0
v -1440 -1664 0
v -1408 -1664 0
v -1600 -1696 0
v -1632 -1696 0
v -1632 -1664 0
v -1600 -1664 0
v -1632 -1696 0
v -1664 -1696 0
v -1664 -1664 0
v -1632 -1664 0
v -1664 -1696 0
v -1696 -1696 0
v -1696 -1664 0
v -1664 -1664 0
v -1696 -1696 0
v -1728 -1696 0
v -1728 -1664 0
v -1696 -1664 0
v -1760 -1696 0
v -1792 -1696 0
v -1792 -1664 0
v -1760 -1664 0
v -1792 -1696 0
v -1824 -1696 0
v -1824 -1664 0
v -1792 -1664 0
v -1824 -1696 0
v -1856 -1696 0
v -1856 -1664 0
v -1824 -1664 0
v -1856 -1696 0
v -1888 -1696 0
v -1888 -1664 0
v -1856 -1664 0
v -1888 -1696 0
v -1920 -1696 0
v -1920 -1664 0
v -1888 -1664 0
v -2048 -1696 0
v -2080 -1696 0
v -2080 -1664 0
v -2048 -1664 0
v -2208 -1696 0
v -2240 -1696 0
v -2240 -1664 0
v -2208 -1664 0
v -2432 -1696 0
v -2464 -1696 0
v -2464 -1664 0
v -2432 -1664 0
v -2656 -1696 0
v -2688 -1696 0
v -2688 -1664 0
v -2656 -1664 0
v -2176 -1856 0
v -2208 -1856 0
v -2208 -1824 0
v -2176 -1824 0
v -2624 -1856 0
v -2656 -1856 0
v -2656 -1824 0
v -2624 -1824 0
v -2176 -1888 0
v -2208 -1888 0
v -2208 -1856 0
v -2176 -1856 0
v -2624 -1888 0
v -2656 -1888 0
v -2656 -1856 0
v -2624 -1856 0
v -864 -1920 0
v -896 -1920 0
v -896 -1888 0
v -864 -1888 0
v -1056 -1920 0
v -1088 -1920 0
v -1088 -1888 0
v -1056 -1888 0
v -1248 -1920 0
v -1280 -1920 0
v -1280 -1888 0
v -1248 -1888 0
v -1536 -1920 0
v -1568 -1920 0
v -1568 -1888 0
v -1536 -1888 0
v -2816 -1920 0
v -2848 -1920 0
v -2848 -1888 0
v -2816 -1888 0
v -864 -1952 0
v -896 -1952 0
v -896 -1920 0
v -864 -1920 0
v -1056 -1952 0
v -1088 -1952 0
v -1088 -1920 0
v -1056 -1920 0
v -1248 -1952 0
v -1280 -1952 0
v -1280 -1920 0
v -1248 -1920 0
v -1536 -1952 0
v -1568 -1952 0
v -1568 -1920 0
v -1536 -1920 0
v -1952 -1952 0
v -1984 -1952 0
v -1984 -1920 0
v -1952 -1920 0
v -2400 -1952 0
v -2432 -1952 0
v -2432 -1920 0
v -2400 -1920 0
v -2816 -1952 0
v -2848 -1952 0
v -2848 -1920 0
v -2816 -1920 0
v -1536 -1984 0
v -1568 -1984 0
v -1568 -1952 0
v -1536 -1952 0
v -1952 -1984 0
v -1984 -1984 0
v -1984 -1952 0
v -1952 -1952 0
v -2400 -1984 0
v -2432 -1984 0
v -2432 -1952 0
v -2400 -1952 0
v -2816 -1984 0
v -2848 -1984 0
v -2848 -1952 0
v -2816 -1952 0
v -1952 -2016 0
v -1984 -2016 0
v -1984 -1984 0
v -1952 -1984 0
v -2400 -2016 0
v -2432 -2016 0
v -2432 -1984 0
v -2400 -1984 0
v -864 -2112 0
v -896 -2112 0
v -896 -2080 0
v -864 -2080 0
v -1056 -2112 0
v -1088 -2112 0
v -1088 -2080 0
v -1056 -2080 0
v -1248 -2112 0
v -1280 -2112 0
v -1280 -2080 0
v -1248 -2080 0
v -1536 -2112 0
v -1568 -2112 0
v -1568 -2080 0
v -1536 -2080 0
v -2816 -2112 0
v -2848 -2112 0
v -2848 -2080 0
v -2816 -2080 0
v -864 -2144 0
v -896 -2144 0
v -896 -2112 0
v -864 -2112 0
v -1056 -2144 0
v -1088 -2144 0
v -1088 -2112 0
v -1056 -2112 0
v -1248 -2144 0
v -1280 -2144 0
v -1280 -2112 0
v -1248 -2112 0
v -1536 -2144 0
v -1568 -2144 0
v -1568 -2112 0
v -1536 -2112 0
v -1952 -2144 0
v -1984 -2144 0
v -1984 -2112 0
v -1952 -2112 0
v -2400 -2144 0
v -2432 -2144 0
v -2432 -2112 0
v -2400 -2112 0
v -2816 -2144 0
v -2848 -2144 0
v -2848 -2112 0
v -2816 -2112 0
v -1536 -2176 0
v -1568 -2176 0
v -1568 -2144 0
v -1536 -2144 0
v -1952 -2176 0
v -1984 -2176 0
v -1984 -2144 0
v -1952 -2144 0
v -2400 -2176 0
v -2432 -2176 0
v -2432 -2144 0
v -2400 -2144 0
v -2816 -2176 0
v -2848 -2176 0
v -2848 -2144 0
v -2816 -2144 0
v -1600 -2208 0
v -1632 -2208 0
v -1632 -2176 0
v -1600 -2176 0
v -1696 -2208 0
v -1728 -2208 0
v -1728 -2176 0
v -1696 -2176 0
v -1824 -2208 0
v -1856 -2208 0
v -1856 -2176 0
v -1824 -2176 0
v -1952 -2208 0
v -1984 -2208 0
v -1984 -2176 0
v -1952 -2176 0
v -2048 -2208 0
v -2080 -2208 0
v -2080 -2176 0
v -2048 -2176 0
v -2080 -2208 0
v -2112 -2208 0
v -2112 -2176 0
v -2080 -2176 0
v -2208 -2208 0
v -2240 -2208 0
v -2240 -2176 0
v -2208 -2176 0
v -2272 -2208 0
v -2304 -2208 0
v -2304 -2176 0
v -2272 -2176 0
v -2400 -2208 0
v -2432 -2208 0
v -2432 -2176 0
v -2400 -2176 0
v -2496 -2208 0
v -2528 -2208 0
v -2528 -2176 0
v -2496 -2176 0
v -2592 -2208 0
v -2624 -2208 0
v -2624 -2176 0
v -2592 -2176 0
v -2656 -2208 0
v -2688 -2208 0
v -2688 -2176 0
v -2656 -2176 0
v -2688 -2208 0
v -2720 -2208 0
v -2720 -2176 0
v -2688 -2176 0
v -2720 -2208 0
v -2752 -2208 0
v -2752 -2176 0
v -2720 -2176 0
v -1600 -2240 0
v -1632 -2240 0
v -1632 -2208 0
v -1600 -2208 0
v -1632 -2240 0
v -1664 -2240 0
v -1664 -2208 0
v -1632 -2208 0
v -1664 -2240 0
v -1696 -2240 0
v -1696 -2208 0
v -1664 -2208 0
v -1696 -2240 0
v -1728 -2240 0
v -1728 -2208 0
v -1696 -2208 0
v -1824 -2240 0
v -1856 -2240 0
v -1856 -2208 0
v -1824 -2208 0
v -1856 -2240 0
v -1888 -2240 0
v -1888 -2208 0
v -1856 -2208 0
v -2048 -2240 0
v -2080 -2240 0
v -2080 -2208 0
v -2048 -2208 0
v -2080 -2240 0
v -2112 -2240 0
v -2112 -2208 0
v -2080 -2208 0
v -2112 -2240 0
v -2144 -2240 0
v -2144 -2208 0
v -2112 -2208 0
v -2144 -2240 0
v -2176 -2240 0
v -2176 -2208 0
v -2144 -2208 0
v -2208 -2240 0
v -2240 -2240 0
v -2240 -2208 0
v -2208 -2208 0
v -2240 -2240 0
v -2272 -2240 0
v -2272 -2208 0
v -2240 -2208 0
v -2272 -2240 0
v -2304 -2240 0
v -2304 -2208 0
v -2272 -2208 0
v -2304 -2240 0
v -2336 -2240 0
v -2336 -2208 0
v -2304 -2208 0
v -2496 -2240 0
v -2528 -2240 0
v -2528 -2208 0
v -2496 -2208 0
v -2528 -2240 0
v -2560 -2240 0
v -2560 -2208 0
v -2528 -2208 0
v -2560 -2240 0
v -2592 -2240 0
v -2592 -2208 0
v -2560 -2208 0
v -2592 -2240 0
v -2624 -2240 0
v -2624 -2208 0
v -2592 -2208 0
v -2656 -2240 0
v -2688 -2240 0
v -2688 -2208 0
v -2656 -2208 0
v -2688 -2240 0
v -2720 -2240 0
v -2720 -2208 0
v -2688 -2208 0
v -2720 -2240 0
v -2752 -2240 0
v -2752 -2208 0
v -2720 -2208 0
v -1600 -2272 0
v -1632 -2272 0
v -1632 -2240 0
v -1600 -2240 0
v -1632 -2272 0
v -1664 -2272 0
v -1664 -2240 0
v -1632 -2240 0
v -1664 -2272 0
v -1696 -2272 0
v -1696 -2240 0
v -1664 -2240 0
v -1696 -2272 0
v -1728 -2272 0
v -1728 -2240 0
v -1696 -2240 0
v -1760 -2272 0
v -1792 -2272 0
v -1792 -2240 0
v -1760 -2240 0
v -1792 -2272 0
v -1824 -2272 0
v -1824 -2240 0
v -1792 -2240 0
v -1824 -2272 0
v -1856 -2272 0
v -1856 -2240 0
v -1824 -2240 0
v -1856 -2272 0
v -1888 -2272 0
v -1888 -2240 0
v -1856 -2240 0
v -1888 -2272 0
v -1920 -2272 0
v -1920 -2240 0
v -1888 -2240 0
v -2016 -2272 0
v -2048 -2272 0
v -2048 -2240 0
v -2016 -2240 0
v -2048 -2272 0
v -2080 -2272 0
v -2080 -2240 0
v -2048 -2240 0
v -2080 -2272 0
v -2112 -2272 0
v -2112 -2240 0
v -2080 -2240 0
v -2112 -2272 0
v -2144 -2272 0
v -2144 -2240 0
v -2112 -2240 0
v -2144 -2272 0
v -2176 -2272 0
v -2176 -2240 0
v -2144 -2240 0
v -2208 -2272 0
v -2240 -2272 0
v -2240 -2240 0
v -2208 -2240 0
v -2240 -2272 0
v -2272 -2272 0
v -2272 -2240 0
v -2240 -2240 0
v -2272 -2272 0
v -2304 -2272 0
v -2304 -2240 0
v -2272 -2240 0
v -2304 -2272 0
v -2336 -2272 0
v -2336 -2240 0
v -2304 -2240 0
v -2336 -2272 0
v -2368 -2272 0
v -2368 -2240 0
v -2336 -2240 0
v -2464 -2272 0
v -2496 -2272 0
v -2496 -2240 0
v -2464 -2240 0
v -2496 -2272 0
v -2528 -2272 0
v -2528 -2240 0
v -2496 -2240 0
v -2528 -2272 0
v -2560 -2272 0
v -2560 -2240 0
v -2528 -2240 0
v -2560 -2272 0
v -2592 -2272 0
v -2592 -2240 0
v -2560 -2240 0
v -2592 -2272 0
v -2624 -2272 0
v -2624 -2240 0
v -2592 -2240 0
v -2656 -2272 0
v -2688 -2272 0
v -2688 -2240 0
v -2656 -2240 0
v -2688 -2272 0
v -2720 -2272 0
v -2720 -2240 0
v -2688 -2240 0
v -2720 -2272 0
v -2752 -2272 0
v -2752 -2240 0
v -2720 -2240 0
v -2752 -2272 0
v -2784 -2272 0
v -2784 -2240 0
v -2752 -2240 0
v -864 -2304 0
v -896 -2304 0
v -896 -2272 0
v -864 -2272 0
v -1056 -2304 0
v -1088 -2304 0
v -1088 -2272 0
v -1056 -2272 0
v -1248 -2304 0
v -1280 -2304 0
v -1280 -2272 0
v -1248 -2272 0
v -1536 -2304 0
v -1568 -2304 0
v -1568 -2272 0
v -1536 -2272 0
v -1600 -2304 0
v -1632 -2304 0
v -1632 -2272 0
v -1600 -2272 0
v -1632 -2304 0
v -1664 -2304 0
v -1664 -2272 0
v -1632 -2272 0
v -1664 -2304 0
v -1696 -2304 0
v -1696 -2272 0
v -1664 -2272 0
v -1696 -2304 0
v -1728 -2304 0
v -1728 -2272 0
v -1696 -2272 0
v -1760 -2304 0
v -1792 -2304 0
v -1792 -2272 0
v -1760 -2272 0
v -1792 -2304 0
v -1824 -2304 0
v -1824 -2272 0
v -1792 -2272 0
v -1824 -2304 0
v -1856 -2304 0
v -1856 -2272 0
v -1824 -2272 0
v -1856 -2304 0
v -1888 -2304 0
v -1888 -2272 0
v -1856 -2272 0
v -1888 -2304 0
v -1920 -2304 0
v -1920 -2272 0
v -1888 -2272 0
v -2016 -2304 0
v -2048 -2304 0
v -2048 -2272 0
v -2016 -2272 0
v -2048 -2304 0
v -2080 -2304 0
v -2080 -2272 0
v -2048 -2272 0
v -2080 -2304 0
v -2112 -2304 0
v -2112 -2272 0
v -2080 -2272 0
v -2112 -2304 0
v -2144 -2304 0
v -2144 -2272 0
v -2112 -2272 0
v -2144 -2304 0
v -2176 -2304 0
v -2176 -2272 0
v -2144 -2272 0
v -2208 -2304 0
v -2240 -2304 0
v -2240 -2272 0
v -2208 -2272 0
v -2240 -2304 0
v -2272 -2304 0
v -2272 -2272 0
v -2240 -2272 0
v -2272 -2304 0
v -2304 -2304 0
v -2304 -2272 0
v -2272 -2272 0
v -2304 -2304 0
v -2336 -2304 0
v -2336 -2272 0
v -2304 -2272 0
v -2336 -2304 0
v -2368 -2304 0
v -2368 -2272 0
v -2336 -2272 0
v -2464 -2304 0
v -2496 -2304 0
v -2496 -2272 0
v -2464 -2272 0
v -2496 -2304 0
v -2528 -2304 0
v -2528 -2272 0
v -2496 -2272 0
v -2528 -2304 0
v -2560 -2304 0
v -2560 -2272 0
v -2528 -2272 0
v -2560 -2304 0
v -2592 -2304 0
v -2592 -2272 0
v -2560 -2272 0
v -2592 -2304 0
v -2624 -2304 0
v -2624 -2272 0
v -2592 -2272 0
v -2656 -2304 0
v -2688 -2304 0
v -2688 -2272 0
v -2656 -2272 0
v -2688 -2304 0
v -2720 -2304 0
v -2720 -2272 0
v -2688 -2272 0
v -2720 -2304 0
v -2752 -2304 0
v -2752 -2272 0
v -2720 -2272 0
v -2752 -2304 0
v -2784 -2304 0
v -2784 -2272 0
v -2752 -2272 0
v -2816 -2304 0
v -2848 -2304 0
v -2848 -2272 0
v -2816 -2272 0
v -864 -2336 0
v -896 -2336 0
v -896 -2304 0
v -864 -2304 0
v -1056 -2336 0
v -1088 -2336 0
v -1088 -2304 0
v -1056 -2304 0
v -1248 -2336 0
v -1280 -2336 0
v -1280 -2304 0
v -1248 -2304 0
v -1536 -2336 0
v -1568 -2336 0
v -1568 -2304 0
v -1536 -2304 0
v -1600 -2336 0
v -1632 -2336 0
v -1632 -2304 0
v -1600 -2304 0
v -1632 -2336 0
v -1664 -2336 0
v -1664 -2304 0
v -1632 -2304 0
v -1664 -2336 0
v -1696 -2336 0
v -1696 -2304 0
v -1664 -2304 0
v -1696 -2336 0
v -1728 -2336 0
v -1728 -2304 0
v -1696 -2304 0
v -1760 -2336 0
v -1792 -2336 0
v -1792 -2304 0
v -1760 -2304 0
v -1792 -2336 0
v -1824 -2336 0
v -1824 -2304 0
v -1792 -2304 0
v -1824 -2336 0
v -1856 -2336 0
v -1856 -2304 0
v -1824 -2304 0
v -1856 -2336 0
v -1888 -2336 0
v -1888 -2304 0
v -1856 -2304 0
v -1888 -2336 0
v -1920 -2336 0
v -1920 -2304 0
v -1888 -2304 0
v -2016 -2336 0
v -2048 -2336 0
v -2048 -2304 0
v -2016 -2304 0
v -2048 -2336 0
v -2080 -2336 0
v -2080 -2304 0
v -2048 -2304 0
v -2080 -2336 0
v -2112 -2336 0
v -2112 -2304 0
v -2080 -2304 0
v -2112 -2336 0
v -2144 -2336 0
v -2144 -2304 0
v -2112 -2304 0
v -2240 -2336 0
v -2272 -2336 0
v -2272 -2304 0
v -2240 -2304 0
v -2272 -2336 0
v -2304 -2336 0
v -2304 -2304 0
v -2272 -2304 0
v -2304 -2336 0
v -2336 -2336 0
v -2336 -2304 0
v -2304 -2304 0
v -2336 -2336 0
v -2368 -2336 0
v -2368 -2304 0
v -2336 -2304 0
v -2464 -2336 0
v -2496 -2336 0
v -2496 -2304 0
v -2464 -2304 0
v -2496 -2336 0
v -2528 -2336 0
v -2528 -2304 0
v -2496 -2304 0
v -2528 -2336 0
v -2560 -2336 0
v -2560 -2304 0
v -2528 -2304 0
v -2560 -2336 0
v -2592 -2336 0
v -2592 -2304 0
v -2560 -2304 0
v -2592 -2336 0
v -2624 -2336 0
v -2624 -2304 0
v -2592 -2304 0
v -2656 -2336 0
v -2688 -2336 0
v -2688 -2304 0
v -2656 -2304 0
v -2688 -2336 0
v -2720 -2336 0
v -2720 -2304 0
v -2688 -2304 0
v -2720 -2336 0
v -2752 -2336 0
v -2752 -2304 0
v -2720 -2304 0
v -2752 -2336 0
v -2784 -2336 0
v -2784 -2304 0
v -2752 -2304 0
v -2816 -2336 0
v -2848 -2336 0
v -2848 -2304 0
v -2816 -2304 0
v -1536 -2368 0
v -1568 -2368 0
v -1568 -2336 0
v -1536 -2336 0
v -2816 -2368 0
v -2848 -2368 0
v -2848 -2336 0
v -2816 -2336 0
v -1952 -2400 0
v -1984 -2400 0
v -1984 -2368 0
v -1952 -2368 0
v -2400 -2400 0
v -2432 -2400 0
v -2432 -2368 0
v -2400 -2368 0
v -1952 -2432 0
v -1984 -2432 0
v -1984 -2400 0
v -1952 -2400 0
v -2400 -2432 0
v -2432 -2432 0
v -2432 -2400 0
v -2400 -2400 0
v -1952 -2464 0
v -1984 -2464 0
v -1984 -2432 0
v -1952 -2432 0
v -2400 -2464 0
v -2432 -2464 0
v -2432 -2432 0
v -2400 -2432 0
v -1536 -2496 0
v -1568 -2496 0
v -1568 -2464 0
v -1536 -2464 0
v -2816 -2496 0
v -2848 -2496 0
v -2848 -2464 0
v -2816 -2464 0
v -1536 -2528 0
v -1568 -2528 0
v -1568 -2496 0
v -1536 -2496 0
v -2816 -2528 0
v -2848 -2528 0
v -2848 -2496 0
v -2816 -2496 0
v -1536 -2560 0
v -1568 -2560 0
v -1568 -2528 0
v -1536 -2528 0
v -2816 -2560 0
v -2848 -2560 0
v -2848 -2528 0
v -2816 -2528 0
v -1952 -2592 0
v -1984 -2592 0
v -1984 -2560 0
v -1952 -2560 0
v -2400 -2592 0
v -2432 -2592 0
v -2432 -2560 0
v -2400 -2560 0
v -1632 -2624 0
v -1664 -2624 0
v -1664 -2592 0
v -1632 -2592 0
v -1824 -2624 0
v -1856 -2624 0
v -1856 -2592 0
v -1824 -2592 0
v -1952 -2624 0
v -1984 -2624 0
v -1984 -2592 0
v -1952 -2592 0
v -2048 -2624 0
v -2080 -2624 0
v -2080 -2592 0
v -2048 -2592 0
v -2144 -2624 0
v -2176 -2624 0
v -2176 -2592 0
v -2144 -2592 0
v -2208 -2624 0
v -2240 -2624 0
v -2240 -2592 0
v -2208 -2592 0
v -2240 -2624 0
v -2272 -2624 0
v -2272 -2592 0
v -2240 -2592 0
v -2272 -2624 0
v -2304 -2624 0
v -2304 -2592 0
v -2272 -2592 0
v -2400 -2624 0
v -2432 -2624 0
v -2432 -2592 0
v -2400 -2592 0
v -2496 -2624 0
v -2528 -2624 0
v -2528 -2592 0
v -2496 -2592 0
v -2528 -2624 0
v -2560 -2624 0
v -2560 -2592 0
v -2528 -2592 0
v -2560 -2624 0
v -2592 -2624 0
v -2592 -2592 0
v -2560 -2592 0
v -2656 -2624 0
v -2688 -2624 0
v -2688 -2592 0
v -2656 -2592 0
v -2688 -2624 0
v -2720 -2624 0
v -2720 -2592 0
v -2688 -2592 0
v -2720 -2624 0
v -2752 -2624 0
v -2752 -2592 0
v -2720 -2592 0
v -1536 -2656 0
v -1568 -2656 0
v -1568 -2624 0
v -1536 -2624 0
v -1600 -2656 0
v -1632 -2656 0
v -1632 -2624 0
v -1600 -2624 0
v -1632 -2656 0
v -1664 -2656 0
v -1664 -2624 0
v -1632 -2624 0
v -1664 -2656 0
v -1696 -2656 0
v -1696 -2624 0
v -1664 -2624 0
v -1760 -2656 0
v -1792 -2656 0
v -1792 -2624 0
v -1760 -2624 0
v -1792 -2656 0
v -1824 -2656 0
v -1824 -2624 0
v -1792 -2624 0
v -1824 -2656 0
v -1856 -2656 0
v -1856 -2624 0
v -1824 -2624 0
v -1888 -2656 0
v -1920 -2656 0
v -1920 -2624 0
v -1888 -2624 0
v -1952 -2656 0
v -1984 -2656 0
v -1984 -2624 0
v -1952 -2624 0
v -2016 -2656 0
v -2048 -2656 0
v -2048 -2624 0
v -2016 -2624 0
v -2048 -2656 0
v -2080 -2656 0
v -2080 -2624 0
v -2048 -2624 0
v -2080 -2656 0
v -2112 -2656 0
v -2112 -2624 0
v -2080 -2624 0
v -2112 -2656 0
v -2144 -2656 0
v -2144 -2624 0
v -2112 -2624 0
v -2208 -2656 0
v -2240 -2656 0
v -2240 -2624 0
v -2208 -2624 0
v -2240 -2656 0
v -2272 -2656 0
v -2272 -2624 0
v -2240 -2624 0
v -2272 -2656 0
v -2304 -2656 0
v -2304 -2624 0
v -2272 -2624 0
v -2336 -2656 0
v -2368 -2656 0
v -2368 -2624 0
v -2336 -2624 0
v -2400 -2656 0
v -2432 -2656 0
v -2432 -2624 0
v -2400 -2624 0
v -2464 -2656 0
v -2496 -2656 0
v -2496 -2624 0
v -2464 -2624 0
v -2496 -2656 0
v -2528 -2656 0
v -2528 -2624 0
v -2496 -2624 0
v -2528 -2656 0
v -2560 -2656 0
v -2560 -2624 0
v -2528 -2624 0
v -2560 -2656 0
v -2592 -2656 0
v -2592 -2624 0
v -2560 -2624 0
v -2656 -2656 0
v -2688 -2656 0
v -2688 -2624 0
v -2656 -2624 0
v -2688 -2656 0
v -2720 -2656 0
v -2720 -2624 0
v -2688 -2624 0
v -2720 -2656 0
v -2752 -2656 0
v -2752 -2624 0
v -2720 -2624 0
v -2816 -2656 0
v -2848 -2656 0
v -2848 -2624 0
v -2816 -2624 0
v -1536 -2688 0
v -1568 -2688 0
v -1568 -2656 0
v -1536 -2656 0
v -1600 -2688 0
v -1632 -2688 0
v -1632 -2656 0
v -1600 -2656 0
v -1632 -2688 0
v -1664 -2688 0
v -1664 -2656 0
v -1632 -2656 0
v -1664 -2688 0
v -1696 -2688 0
v -1696 -2656 0
v -1664 -2656 0
v -1760 -2688 0
v -1792 -2688 0
v -1792 -2656 0
v -1760 -2656 0
v -1792 -2688 0
v -1824 -2688 0
v -1824 -2656 0
v -1792 -2656 0
v -1824 -2688 0
v -1856 -2688 0
v -1856 -2656 0
v -1824 -2656 0
v -1856 -2688 0
v -1888 -2688 0
v -1888 -2656 0
v -1856 -2656 0
v -1888 -2688 0
v -1920 -2688 0
v -1920 -2656 0
v -1888 -2656 0
v -2016 -2688 0
v -2048 -2688 0
v -2048 -2656 0
v -2016 -2656 0
v -2048 -2688 0
v -2080 -2688 0
v -2080 -2656 0
v -2048 -2656 0
v -2080 -2688 0
v -2112 -2688 0
v -2112 -2656 0
v -2080 -2656 0
v -2112 -2688 0
v -2144 -2688 0
v -2144 -2656 0
v -2112 -2656 0
v -2144 -2688 0
v -2176 -2688 0
v -2176 -2656 0
v -2144 -2656 0
v -2208 -2688 0
v -2240 -2688 0
v -2240 -2656 0
v -2208 -2656 0
v -2240 -2688 0
v -2272 -2688 0
v -2272 -2656 0
v -2240 -2656 0
v -2272 -2688 0
v -2304 -2688 0
v -2304 -2656 0
v -2272 -2656 0
v -2304 -2688 0
v -2336 -2688 0
v -2336 -2656 0
v -2304 -2656 0
v -2336 -2688 0
v -2368 -2688 0
v -2368 -2656 0
v -2336 -2656 0
v -2464 -2688 0
v -2496 -2688 0
v -2496 -2656 0
v -2464 -2656 0
v -2496 -2688 0
v -2528 -2688 0
v -2528 -2656 0
v -2496 -2656 0
v -2528 -2688 0
v -2560 -2688 0
v -2560 -2656 0
v -2528 -2656 0
v -2560 -2688 0
v -2592 -2688 0
v -2592 -2656 0
v -2560 -2656 0
v -2592 -2688 0
v -2624 -2688 0
v -2624 -2656 0
v -2592 -2656 0
v -2656 -2688 0
v -2688 -2688 0
v -2688 -2656 0
v -2656 -2656 0
v -2688 -2688 0
v -2720 -2688 0
v -2720 -2656 0
v -2688 -2656 0
v -2720 -2688 0
v -2752 -2688 0
v -2752 -2656 0
v -2720 -2656 0
v -2752 -2688 0
v -2784 -2688 0
v -2784 -2656 0
v -2752 -2656 0
v -2816 -2688 0
v -2848 -2688 0
v -2848 -2656 0
v -2816 -2656 0
v -1600 -2720 0
v -1632 -2720 0
v -1632 -2688 0
v -1600 -2688 0
v -1632 -2720 0
v -1664 -2720 0
v -1664 -2688 0
v -1632 -2688 0
v -1664 -2720 0
v -1696 -2720 0
v -1696 -2688 0
v -1664 -2688 0
v -1696 -2720 0
v -1728 -2720 0
v -1728 -2688 0
v -1696 -2688 0
v -1760 -2720 0
v -1792 -2720 0
v -1792 -2688 0
v -1760 -2688 0
v -1792 -2720 0
v -1824 -2720 0
v -1824 -2688 0
v -1792 -2688 0
v -1824 -2720 0
v -1856 -2720 0
v -1856 -2688 0
v -1824 -2688 0
v -1856 -2720 0
v -1888 -2720 0
v -1888 -2688 0
v -1856 -2688 0
v -2048 -2720 0
v -2080 -2720 0
v -2080 -2688 0
v -2048 -2688 0
v -2080 -2720 0
v -2112 -2720 0
v -2112 -2688 0
v -2080 -2688 0
v -2112 -2720 0
v -2144 -2720 0
v -2144 -2688 0
v -2112 -2688 0
v -2144 -2720 0
v -2176 -2720 0
v -2176 -2688 0
v -2144 -2688 0
v -2208 -2720 0
v -2240 -2720 0
v -2240 -2688 0
v -2208 -2688 0
v -2240 -2720 0
v -2272 -2720 0
v -2272 -2688 0
v -2240 -2688 0
v -2272 -2720 0
v -2304 -2720 0
v -2304 -2688 0
v -2272 -2688 0
v -2304 -2720 0
v -2336 -2720 0
v -2336 -2688 0
v -2304 -2688 0
v -2496 -2720 0
v -2528 -2720 0
v -2528 -2688 0
v -2496 -2688 0
v -2528 -2720 0
v -2560 -2720 0
v -2560 -2688 0
v -2528 -2688 0
v -2560 -2720 0
v -2592 -2720 0
v -2592 -2688 0
v -2560 -2688 0
v -2592 -2720 0
v -2624 -2720 0
v -2624 -2688 0
v -2592 -2688 0
v -2656 -2720 0
v -2688 -2720 0
v -2688 -2688 0
v -2656 -2688 0
v -2688 -2720 0
v -2720 -2720 0
v -2720 -2688 0
v -2688 -2688 0
v -2720 -2720 0
v -2752 -2720 0
v -2752 -2688 0
v -2720 -2688 0
v -2752 -2720 0
v -2784 -2720 0
v -2784 -2688 0
v -2752 -2688 0
v -1600 -2752 0
v -1632 -2752 0
v -1632 -2720 0
v -1600 -2720 0
v -1632 -2752 0
v -1664 -2752 0
v -1664 -2720 0
v -1632 -2720 0
v -1664 -2752 0
v -1696 -2752 0
v -1696 -2720 0
v -1664 -2720 0
v -1696 -2752 0
v -1728 -2752 0
v -1728 -2720 0
v -1696 -2720 0
v -1760 -2752 0
v -1792 -2752 0
v -1792 -2720 0
v -1760 -2720 0
v -1792 -2752 0
v -1824 -2752 0
v -1824 -2720 0
v -1792 -2720 0
v -1824 -2752 0
v -1856 -2752 0
v -1856 -2720 0
v -1824 -2720 0
v -1856 -2752 0
v -1888 -2752 0
v -1888 -2720 0
v -1856 -2720 0
v -2048 -2752 0
v -2080 -2752 0
v -2080 -2720 0
v -2048 -2720 0
v -2080 -2752 0
v -2112 -2752 0
v -2112 -2720 0
v -2080 -2720 0
v -2112 -2752 0
v -2144 -2752 0
v -2144 -2720 0
v -2112 -2720 0
v -2144 -2752 0
v -2176 -2752 0
v -2176 -2720 0
v -2144 -2720 0
v -2208 -2752 0
v -2240 -2752 0
v -2240 -2720 0
v -2208 -2720 0
v -2240 -2752 0
v -2272 -2752 0
v -2272 -2720 0
v -2240 -2720 0
v -2272 -2752 0
v -2304 -2752 0
v -2304 -2720 0
v -2272 -2720 0
v -2304 -2752 0
v -2336 -2752 0
v -2336 -2720 0
v -2304 -2720 0
v -2496 -2752 0
v -2528 -2752 0
v -2528 -2720 0
v -2496 -2720 0
v -2528 -2752 0
v -2560 -2752 0
v -2560 -2720 0
v -2528 -2720 0
v -2560 -2752 0
v -2592 -2752 0
v -2592 -2720 0
v -2560 -2720 0
v -2592 -2752 0
v -2624 -2752 0
v -2624 -2720 0
v -2592 -2720 0
v -2656 -2752 0
v -2688 -2752 0
v -2688 -2720 0
v -2656 -2720 0
v -2688 -2752 0
v -2720 -2752 0
v -2720 -2720 0
v -2688 -2720 0
v -2720 -2752 0
v -2752 -2752 0
v -2752 -2720 0
v -2720 -2720 0
v -2752 -2752 0
v -2784 -2752 0
v -2784 -2720 0
v -2752 -2720 0
v -128 -2912 0
v -160 -2912 0
v -160 -2880 0
v -128 -2880 0
v -224 -2912 0
v -256 -2912 0
v -256 -2880 0
v -224 -2880 0
v -352 -2912 0
v -384 -2912 0
v -384 -2880 0
v -352 -2880 0
v -128 -2944 0
v -160 -2944 0
v -160 -2912 0
v -128 -2912 0
v -160 -2944 0
v -192 -2944 0
v -192 -2912 0
v -160 -2912 0
v -192 -2944 0
v -224 -2944 0
v -224 -2912 0
v -192 -2912 0
v -224 -2944 0
v -256 -2944 0
v -256 -2912 0
v -224 -2912 0
v -352 -2944 0
v -384 -2944 0
v -384 -2912 0
v -352 -2912 0
v -384 -2944 0
v -416 -2944 0
v -416 -2912 0
v -384 -2912 0
v -128 -2976 0
v -160 -2976 0
v -160 -2944 0
v -128 -2944 0
v -160 -2976 0
v -192 -2976 0
v -192 -2944 0
v -160 -2944 0
v -192 -2976 0
v -224 -2976 0
v -224 -2944 0
v -192 -2944 0
v -224 -2976 0
v -256 -2976 0
v -256 -2944 0
v -224 -2944 0
v -288 -2976 0
v -320 -2976 0
v -320 -2944 0
v -288 -2944 0
v -320 -2976 0
v -352 -2976 0
v -352 -2944 0
v -320 -2944 0
v -352 -2976 0
v -384 -2976 0
v -384 -2944 0
v -352 -2944 0
v -384 -2976 0
v -416 -2976 0
v -416 -2944 0
v -384 -2944 0
v -416 -2976 0
v -448 -2976 0
v -448 -2944 0
v -416 -2944 0
v -128 -3008 0
v -160 -3008 0
v -160 -2976 0
v -128 -2976 0
v -160 -3008 0
v -192 -3008 0
v -192 -2976 0
v -160 -2976 0
v -192 -3008 0
v -224 -3008 0
v -224 -2976 0
v -192 -2976 0
v -224 -3008 0
v -256 -3008 0
v -256 -2976 0
v -224 -2976 0
v -288 -3008 0
v -320 -3008 0
v -320 -2976 0
v -288 -2976 0
v -320 -3008 0
v -352 -3008 0
v -352 -2976 0
v -320 -2976 0
v -352 -3008 0
v -384 -3008 0
v -384 -2976 0
v -352 -2976 0
v -384 -3008 0
v -416 -3008 0
v -416 -2976 0
v -384 -2976 0
v -416 -3008 0
v -448 -3008 0
v -448 -2976 0
v -416 -2976 0
v -128 -3040 0
v -160 -3040 0
v -160 -3008 0
v -128 -3008 0
v -160 -3040 0
v -192 -3040 0
v -192 -3008 0
v -160 -3008 0
v -192 -3040 0
v -224 -3040 0
v -224 -3008 0
v -192 -3008 0
v -224 -3040 0
v -256 -3040 0
v -256 -3008 0
v -224 -3008 0
v -288 -3040 0
v -320 -3040 0
v -320 -3008 0
v -288 -3008 0
v -320 -3040 0
v -352 -3040 0
v -352 -3008 0
v -320 -3008 0
v -352 -3040 0
v -384 -3040 0
v -384 -3008 0
v -352 -3008 0
v -384 -3040 0
v -416 -3040 0
v -416 -3008 0
v -384 -3008 0
v -416 -3040 0
v -448 -3040 0
v -448 -3008 0
v -416 -3008 0

# Texture cooridinates (Count = 44)
vt 0.2666667 0.8333333
vt 0.3 0.8333333
vt 0.3 0.8666667
vt 0.2666667 0.8666667
vt 0.3333333 0.8333333
vt 0.3333333 0.8666667
vt 0.3666667 0.8333333
vt 0.3666667 0.8666667
vt 0.4 0.8333333
vt 0.4 0.8666667
vt 0.2666667 0.8
vt 0.3 0.8
vt 0.3333333 0.8
vt 0.3666667 0.8
vt 0.4 0.8
vt 0.2666667 0.7666667
vt 0.3 0.7666667
vt 0.3333333 0.7666667
vt 0.3666667 0.7666667
vt 0.4 0.7666667
vt 0.2666667 0.7333333
vt 0.3 0.7333333
vt 0.3333333 0.7333333
vt 0.3666667 0.7333333
vt 0.4 0.7333333
vt 0.2666667 0.7
vt 0.3 0.7
vt 0.3333333 0.7
vt 0.3666667 0.7
vt 0.4 0.7
vt 0.6666667 0.5
vt 0.6333333 0.5
vt 0.6333333 0.5333333
vt 0.6666667 0.5333333
vt 0.6666667 0.4666666
vt 0.6333333 0.4666666
vt 0.6666667 0.4333333
vt 0.6333333 0.4333333
vt 0.2333333 0.6
vt 0.2666667 0.6
vt 0.2666667 0.6333333
vt 0.2333333 0.6333333
vt 0.2333333 0.5666667
vt 0.2666667 0.5666667

# Normal
vn 0 0 -1

# Mesh description
g CrashCity_mesh_0024

# Faces
f 1/1/1 2/2/1 3/3/1 4/4/1
f 5/2/1 6/5/1 7/6/1 8/3/1
f 9/5/1 10/7/1 11/8/1 12/6/1
f 13/7/1 14/9/1 15/10/1 16/8/1
f 17/11/1 18/12/1 19/2/1 20/1/1
f 21/12/1 22/13/1 23/5/1 24/2/1
f 25/13/1 26/14/1 27/7/1 28/5/1
f 29/14/1 30/15/1 31/9/1 32/7/1
f 33/16/1 34/17/1 35/12/1 36/11/1
f 37/17/1 38/18/1 39/13/1 40/12/1
f 41/18/1 42/19/1 43/14/1 44/13/1
f 45/19/1 46/20/1 47/15/1 48/14/1
f 49/21/1 50/22/1 51/17/1 52/16/1
f 53/22/1 54/23/1 55/18/1 56/17/1
f 57/23/1 58/24/1 59/19/1 60/18/1
f 61/24/1 62/25/1 63/20/1 64/19/1
f 65/26/1 66/27/1 67/22/1 68/21/1
f 69/27/1 70/28/1 71/23/1 72/22/1
f 73/28/1 74/29/1 75/24/1 76/23/1
f 77/29/1 78/30/1 79/25/1 80/24/1
f 81/1/1 82/2/1 83/3/1 84/4/1
f 85/2/1 86/5/1 87/6/1 88/3/1
f 89/5/1 90/7/1 91/8/1 92/6/1
f 93/7/1 94/9/1 95/10/1 96/8/1
f 97/9/1 98/7/1 99/8/1 100/10/1
f 101/7/1 102/5/1 103/6/1 104/8/1
f 105/5/1 106/2/1 107/3/1 108/6/1
f 109/11/1 110/12/1 111/2/1 112/1/1
f 113/12/1 114/13/1 115/5/1 116/2/1
f 117/13/1 118/14/1 119/7/1 120/5/1
f 121/14/1 122/15/1 123/9/1 124/7/1
f 125/15/1 126/14/1 127/7/1 128/9/1
f 129/14/1 130/13/1 131/5/1 132/7/1
f 133/13/1 134/12/1 135/2/1 136/5/1
f 137/31/1 138/32/1 139/33/1 140/34/1
f 141/16/1 142/17/1 143/12/1 144/11/1
f 145/17/1 146/18/1 147/13/1 148/12/1
f 149/18/1 150/19/1 151/14/1 152/13/1
f 153/19/1 154/20/1 155/15/1 156/14/1
f 157/20/1 158/19/1 159/14/1 160/15/1
f 161/19/1 162/18/1 163/13/1 164/14/1
f 165/18/1 166/17/1 167/12/1 168/13/1
f 169/17/1 170/16/1 171/11/1 172/12/1
f 173/35/1 174/36/1 175/32/1 176/31/1
f 177/21/1 178/22/1 179/17/1 180/16/1
f 181/22/1 182/23/1 183/18/1 184/17/1
f 185/23/1 186/24/1 187/19/1 188/18/1
f 189/24/1 190/25/1 191/20/1 192/19/1
f 193/25/1 194/24/1 195/19/1 196/20/1
f 197/24/1 198/23/1 199/18/1 200/19/1
f 201/23/1 202/22/1 203/17/1 204/18/1
f 205/26/1 206/27/1 207/22/1 208/21/1
f 209/27/1 210/28/1 211/23/1 212/22/1
f 213/28/1 214/29/1 215/24/1 216/23/1
f 217/29/1 218/30/1 219/25/1 220/24/1
f 221/2/1 222/1/1 223/4/1 224/3/1
f 225/30/1 226/29/1 227/24/1 228/25/1
f 229/29/1 230/28/1 231/23/1 232/24/1
f 233/28/1 234/27/1 235/22/1 236/23/1
f 237/12/1 238/11/1 239/1/1 240/2/1
f 241/1/1 242/2/1 243/3/1 244/4/1
f 245/2/1 246/5/1 247/6/1 248/3/1
f 249/5/1 250/7/1 251/8/1 252/6/1
f 253/7/1 254/9/1 255/10/1 256/8/1
f 257/11/1 258/12/1 259/2/1 260/1/1
f 261/12/1 262/13/1 263/5/1 264/2/1
f 265/13/1 266/14/1 267/7/1 268/5/1
f 269/14/1 270/15/1 271/9/1 272/7/1
f 273/22/1 274/21/1 275/16/1 276/17/1
f 277/22/1 278/21/1 279/16/1 280/17/1
f 281/16/1 282/17/1 283/12/1 284/11/1
f 285/17/1 286/18/1 287/13/1 288/12/1
f 289/18/1 290/19/1 291/14/1 292/13/1
f 293/19/1 294/20/1 295/15/1 296/14/1
f 297/30/1 298/29/1 299/24/1 300/25/1
f 301/27/1 302/26/1 303/21/1 304/22/1
f 305/30/1 306/29/1 307/24/1 308/25/1
f 309/21/1 310/22/1 311/17/1 312/16/1
f 313/22/1 314/23/1 315/18/1 316/17/1
f 317/23/1 318/24/1 319/19/1 320/18/1
f 321/24/1 322/25/1 323/20/1 324/19/1
f 325/26/1 326/27/1 327/22/1 328/21/1
f 329/27/1 330/28/1 331/23/1 332/22/1
f 333/28/1 334/29/1 335/24/1 336/23/1
f 337/29/1 338/30/1 339/25/1 340/24/1
f 341/29/1 342/30/1 343/25/1 344/24/1
f 345/9/1 346/7/1 347/8/1 348/10/1
f 349/2/1 350/1/1 351/4/1 352/3/1
f 353/15/1 354/14/1 355/7/1 356/9/1
f 357/14/1 358/13/1 359/5/1 360/7/1
f 361/13/1 362/12/1 363/2/1 364/5/1
f 365/12/1 366/11/1 367/1/1 368/2/1
f 369/20/1 370/19/1 371/14/1 372/15/1
f 373/19/1 374/18/1 375/13/1 376/14/1
f 377/18/1 378/17/1 379/12/1 380/13/1
f 381/25/1 382/24/1 383/19/1 384/20/1
f 385/24/1 386/23/1 387/18/1 388/19/1
f 389/23/1 390/22/1 391/17/1 392/18/1
f 393/30/1 394/29/1 395/24/1 396/25/1
f 397/29/1 398/28/1 399/23/1 400/24/1
f 401/28/1 402/27/1 403/22/1 404/23/1
f 405/31/1 406/32/1 407/33/1 408/34/1
f 409/35/1 410/36/1 411/32/1 412/31/1
f 413/37/1 414/38/1 415/36/1 416/35/1
f 417/31/1 418/32/1 419/33/1 420/34/1
f 421/35/1 422/36/1 423/32/1 424/31/1
f 425/37/1 426/38/1 427/36/1 428/35/1
f 429/9/1 430/7/1 431/8/1 432/10/1
f 433/2/1 434/1/1 435/4/1 436/3/1
f 437/9/1 438/7/1 439/8/1 440/10/1
f 441/7/1 442/5/1 443/6/1 444/8/1
f 445/5/1 446/2/1 447/3/1 448/6/1
f 449/9/1 450/7/1 451/8/1 452/10/1
f 453/2/1 454/1/1 455/4/1 456/3/1
f 457/5/1 458/2/1 459/3/1 460/6/1
f 461/31/1 462/32/1 463/33/1 464/34/1
f 465/15/1 466/14/1 467/7/1 468/9/1
f 469/14/1 470/13/1 471/5/1 472/7/1
f 473/13/1 474/12/1 475/2/1 476/5/1
f 477/15/1 478/14/1 479/7/1 480/9/1
f 481/14/1 482/13/1 483/5/1 484/7/1
f 485/13/1 486/12/1 487/2/1 488/5/1
f 489/31/1 490/32/1 491/33/1 492/34/1
f 493/15/1 494/14/1 495/7/1 496/9/1
f 497/14/1 498/13/1 499/5/1 500/7/1
f 501/13/1 502/12/1 503/2/1 504/5/1
f 505/12/1 506/11/1 507/1/1 508/2/1
f 509/13/1 510/12/1 511/2/1 512/5/1
f 513/12/1 514/11/1 515/1/1 516/2/1
f 517/35/1 518/36/1 519/32/1 520/31/1
f 521/20/1 522/19/1 523/14/1 524/15/1
f 525/19/1 526/18/1 527/13/1 528/14/1
f 529/18/1 530/17/1 531/12/1 532/13/1
f 533/17/1 534/16/1 535/11/1 536/12/1
f 537/20/1 538/19/1 539/14/1 540/15/1
f 541/19/1 542/18/1 543/13/1 544/14/1
f 545/18/1 546/17/1 547/12/1 548/13/1
f 549/17/1 550/16/1 551/11/1 552/12/1
f 553/35/1 554/36/1 555/32/1 556/31/1
f 557/20/1 558/19/1 559/14/1 560/15/1
f 561/19/1 562/18/1 563/13/1 564/14/1
f 565/18/1 566/17/1 567/12/1 568/13/1
f 569/17/1 570/16/1 571/11/1 572/12/1
f 573/20/1 574/19/1 575/14/1 576/15/1
f 577/19/1 578/18/1 579/13/1 580/14/1
f 581/18/1 582/17/1 583/12/1 584/13/1
f 585/17/1 586/16/1 587/11/1 588/12/1
f 589/31/1 590/32/1 591/33/1 592/34/1
f 593/31/1 594/32/1 595/33/1 596/34/1
f 597/31/1 598/32/1 599/33/1 600/34/1
f 601/31/1 602/32/1 603/33/1 604/34/1
f 605/31/1 606/32/1 607/33/1 608/34/1
f 609/25/1 610/24/1 611/19/1 612/20/1
f 613/24/1 614/23/1 615/18/1 616/19/1
f 617/23/1 618/22/1 619/17/1 620/18/1
f 621/22/1 622/21/1 623/16/1 624/17/1
f 625/25/1 626/24/1 627/19/1 628/20/1
f 629/24/1 630/23/1 631/18/1 632/19/1
f 633/23/1 634/22/1 635/17/1 636/18/1
f 637/22/1 638/21/1 639/16/1 640/17/1
f 641/25/1 642/24/1 643/19/1 644/20/1
f 645/24/1 646/23/1 647/18/1 648/19/1
f 649/23/1 650/22/1 651/17/1 652/18/1
f 653/22/1 654/21/1 655/16/1 656/17/1
f 657/25/1 658/24/1 659/19/1 660/20/1
f 661/24/1 662/23/1 663/18/1 664/19/1
f 665/23/1 666/22/1 667/17/1 668/18/1
f 669/22/1 670/21/1 671/16/1 672/17/1
f 673/35/1 674/36/1 675/32/1 676/31/1
f 677/35/1 678/36/1 679/32/1 680/31/1
f 681/35/1 682/36/1 683/32/1 684/31/1
f 685/35/1 686/36/1 687/32/1 688/31/1
f 689/35/1 690/36/1 691/32/1 692/31/1
f 693/30/1 694/29/1 695/24/1 696/25/1
f 697/29/1 698/28/1 699/23/1 700/24/1
f 701/28/1 702/27/1 703/22/1 704/23/1
f 705/27/1 706/26/1 707/21/1 708/22/1
f 709/30/1 710/29/1 711/24/1 712/25/1
f 713/29/1 714/28/1 715/23/1 716/24/1
f 717/28/1 718/27/1 719/22/1 720/23/1
f 721/27/1 722/26/1 723/21/1 724/22/1
f 725/30/1 726/29/1 727/24/1 728/25/1
f 729/29/1 730/28/1 731/23/1 732/24/1
f 733/28/1 734/27/1 735/22/1 736/23/1
f 737/27/1 738/26/1 739/21/1 740/22/1
f 741/30/1 742/29/1 743/24/1 744/25/1
f 745/29/1 746/28/1 747/23/1 748/24/1
f 749/28/1 750/27/1 751/22/1 752/23/1
f 753/27/1 754/26/1 755/21/1 756/22/1
f 757/37/1 758/38/1 759/36/1 760/35/1
f 761/37/1 762/38/1 763/36/1 764/35/1
f 765/37/1 766/38/1 767/36/1 768/35/1
f 769/37/1 770/38/1 771/36/1 772/35/1
f 773/37/1 774/38/1 775/36/1 776/35/1
f 777/35/1 778/36/1 779/32/1 780/31/1
f 781/35/1 782/36/1 783/32/1 784/31/1
f 785/37/1 786/38/1 787/36/1 788/35/1
f 789/37/1 790/38/1 791/36/1 792/35/1
f 793/39/1 794/40/1 795/41/1 796/42/1
f 797/39/1 798/40/1 799/41/1 800/42/1
f 801/39/1 802/40/1 803/41/1 804/42/1
f 805/31/1 806/32/1 807/33/1 808/34/1
f 809/31/1 810/32/1 811/33/1 812/34/1
f 813/43/1 814/44/1 815/40/1 816/39/1
f 817/43/1 818/44/1 819/40/1 820/39/1
f 821/43/1 822/44/1 823/40/1 824/39/1
f 825/35/1 826/36/1 827/32/1 828/31/1
f 829/31/1 830/32/1 831/33/1 832/34/1
f 833/31/1 834/32/1 835/33/1 836/34/1
f 837/35/1 838/36/1 839/32/1 840/31/1
f 841/37/1 842/38/1 843/36/1 844/35/1
f 845/35/1 846/36/1 847/32/1 848/31/1
f 849/35/1 850/36/1 851/32/1 852/31/1
f 853/37/1 854/38/1 855/36/1 856/35/1
f 857/37/1 858/38/1 859/36/1 860/35/1
f 861/37/1 862/38/1 863/36/1 864/35/1
f 865/39/1 866/40/1 867/41/1 868/42/1
f 869/39/1 870/40/1 871/41/1 872/42/1
f 873/39/1 874/40/1 875/41/1 876/42/1
f 877/31/1 878/32/1 879/33/1 880/34/1
f 881/31/1 882/32/1 883/33/1 884/34/1
f 885/43/1 886/44/1 887/40/1 888/39/1
f 889/43/1 890/44/1 891/40/1 892/39/1
f 893/43/1 894/44/1 895/40/1 896/39/1
f 897/35/1 898/36/1 899/32/1 900/31/1
f 901/31/1 902/32/1 903/33/1 904/34/1
f 905/31/1 906/32/1 907/33/1 908/34/1
f 909/35/1 910/36/1 911/32/1 912/31/1
f 913/37/1 914/38/1 915/36/1 916/35/1
f 917/35/1 918/36/1 919/32/1 920/31/1
f 921/35/1 922/36/1 923/32/1 924/31/1
f 925/37/1 926/38/1 927/36/1 928/35/1
f 929/9/1 930/7/1 931/8/1 932/10/1
f 933/2/1 934/1/1 935/4/1 936/3/1
f 937/5/1 938/2/1 939/3/1 940/6/1
f 941/37/1 942/38/1 943/36/1 944/35/1
f 945/9/1 946/7/1 947/8/1 948/10/1
f 949/7/1 950/5/1 951/6/1 952/8/1
f 953/9/1 954/7/1 955/8/1 956/10/1
f 957/5/1 958/2/1 959/3/1 960/6/1
f 961/37/1 962/38/1 963/36/1 964/35/1
f 965/9/1 966/7/1 967/8/1 968/10/1
f 969/2/1 970/1/1 971/4/1 972/3/1
f 973/9/1 974/7/1 975/8/1 976/10/1
f 977/7/1 978/5/1 979/6/1 980/8/1
f 981/5/1 982/2/1 983/3/1 984/6/1
f 985/15/1 986/14/1 987/7/1 988/9/1
f 989/14/1 990/13/1 991/5/1 992/7/1
f 993/13/1 994/12/1 995/2/1 996/5/1
f 997/12/1 998/11/1 999/1/1 1000/2/1
f 1001/13/1 1002/12/1 1003/2/1 1004/5/1
f 1005/12/1 1006/11/1 1007/1/1 1008/2/1
f 1009/15/1 1010/14/1 1011/7/1 1012/9/1
f 1013/14/1 1014/13/1 1015/5/1 1016/7/1
f 1017/13/1 1018/12/1 1019/2/1 1020/5/1
f 1021/12/1 1022/11/1 1023/1/1 1024/2/1
f 1025/15/1 1026/14/1 1027/7/1 1028/9/1
f 1029/14/1 1030/13/1 1031/5/1 1032/7/1
f 1033/13/1 1034/12/1 1035/2/1 1036/5/1
f 1037/12/1 1038/11/1 1039/1/1 1040/2/1
f 1041/15/1 1042/14/1 1043/7/1 1044/9/1
f 1045/14/1 1046/13/1 1047/5/1 1048/7/1
f 1049/13/1 1050/12/1 1051/2/1 1052/5/1
f 1053/12/1 1054/11/1 1055/1/1 1056/2/1
f 1057/15/1 1058/14/1 1059/7/1 1060/9/1
f 1061/14/1 1062/13/1 1063/5/1 1064/7/1
f 1065/13/1 1066/12/1 1067/2/1 1068/5/1
f 1069/20/1 1070/19/1 1071/14/1 1072/15/1
f 1073/19/1 1074/18/1 1075/13/1 1076/14/1
f 1077/18/1 1078/17/1 1079/12/1 1080/13/1
f 1081/17/1 1082/16/1 1083/11/1 1084/12/1
f 1085/20/1 1086/19/1 1087/14/1 1088/15/1
f 1089/19/1 1090/18/1 1091/13/1 1092/14/1
f 1093/18/1 1094/17/1 1095/12/1 1096/13/1
f 1097/17/1 1098/16/1 1099/11/1 1100/12/1
f 1101/31/1 1102/32/1 1103/33/1 1104/34/1
f 1105/31/1 1106/32/1 1107/33/1 1108/34/1
f 1109/20/1 1110/19/1 1111/14/1 1112/15/1
f 1113/19/1 1114/18/1 1115/13/1 1116/14/1
f 1117/18/1 1118/17/1 1119/12/1 1120/13/1
f 1121/17/1 1122/16/1 1123/11/1 1124/12/1
f 1125/20/1 1126/19/1 1127/14/1 1128/15/1
f 1129/19/1 1130/18/1 1131/13/1 1132/14/1
f 1133/18/1 1134/17/1 1135/12/1 1136/13/1
f 1137/17/1 1138/16/1 1139/11/1 1140/12/1
f 1141/31/1 1142/32/1 1143/33/1 1144/34/1
f 1145/31/1 1146/32/1 1147/33/1 1148/34/1
f 1149/20/1 1150/19/1 1151/14/1 1152/15/1
f 1153/19/1 1154/18/1 1155/13/1 1156/14/1
f 1157/18/1 1158/17/1 1159/12/1 1160/13/1
f 1161/17/1 1162/16/1 1163/11/1 1164/12/1
f 1165/20/1 1166/19/1 1167/14/1 1168/15/1
f 1169/19/1 1170/18/1 1171/13/1 1172/14/1
f 1173/18/1 1174/17/1 1175/12/1 1176/13/1
f 1177/17/1 1178/16/1 1179/11/1 1180/12/1
f 1181/39/1 1182/40/1 1183/41/1 1184/42/1
f 1185/39/1 1186/40/1 1187/41/1 1188/42/1
f 1189/39/1 1190/40/1 1191/41/1 1192/42/1
f 1193/31/1 1194/32/1 1195/33/1 1196/34/1
f 1197/25/1 1198/24/1 1199/19/1 1200/20/1
f 1201/24/1 1202/23/1 1203/18/1 1204/19/1
f 1205/23/1 1206/22/1 1207/17/1 1208/18/1
f 1209/22/1 1210/21/1 1211/16/1 1212/17/1
f 1213/25/1 1214/24/1 1215/19/1 1216/20/1
f 1217/24/1 1218/23/1 1219/18/1 1220/19/1
f 1221/23/1 1222/22/1 1223/17/1 1224/18/1
f 1225/22/1 1226/21/1 1227/16/1 1228/17/1
f 1229/35/1 1230/36/1 1231/32/1 1232/31/1
f 1233/35/1 1234/36/1 1235/32/1 1236/31/1
f 1237/25/1 1238/24/1 1239/19/1 1240/20/1
f 1241/24/1 1242/23/1 1243/18/1 1244/19/1
f 1245/23/1 1246/22/1 1247/17/1 1248/18/1
f 1249/22/1 1250/21/1 1251/16/1 1252/17/1
f 1253/25/1 1254/24/1 1255/19/1 1256/20/1
f 1257/24/1 1258/23/1 1259/18/1 1260/19/1
f 1261/23/1 1262/22/1 1263/17/1 1264/18/1
f 1265/22/1 1266/21/1 1267/16/1 1268/17/1
f 1269/35/1 1270/36/1 1271/32/1 1272/31/1
f 1273/35/1 1274/36/1 1275/32/1 1276/31/1
f 1277/25/1 1278/24/1 1279/19/1 1280/20/1
f 1281/24/1 1282/23/1 1283/18/1 1284/19/1
f 1285/23/1 1286/22/1 1287/17/1 1288/18/1
f 1289/22/1 1290/21/1 1291/16/1 1292/17/1
f 1293/25/1 1294/24/1 1295/19/1 1296/20/1
f 1297/24/1 1298/23/1 1299/18/1 1300/19/1
f 1301/23/1 1302/22/1 1303/17/1 1304/18/1
f 1305/22/1 1306/21/1 1307/16/1 1308/17/1
f 1309/31/1 1310/32/1 1311/33/1 1312/34/1
f 1313/43/1 1314/44/1 1315/40/1 1316/39/1
f 1317/43/1 1318/44/1 1319/40/1 1320/39/1
f 1321/43/1 1322/44/1 1323/40/1 1324/39/1
f 1325/35/1 1326/36/1 1327/32/1 1328/31/1
f 1329/30/1 1330/29/1 1331/24/1 1332/25/1
f 1333/29/1 1334/28/1 1335/23/1 1336/24/1
f 1337/28/1 1338/27/1 1339/22/1 1340/23/1
f 1341/27/1 1342/26/1 1343/21/1 1344/22/1
f 1345/30/1 1346/29/1 1347/24/1 1348/25/1
f 1349/29/1 1350/28/1 1351/23/1 1352/24/1
f 1353/28/1 1354/27/1 1355/22/1 1356/23/1
f 1357/27/1 1358/26/1 1359/21/1 1360/22/1
f 1361/37/1 1362/38/1 1363/36/1 1364/35/1
f 1365/37/1 1366/38/1 1367/36/1 1368/35/1
f 1369/30/1 1370/29/1 1371/24/1 1372/25/1
f 1373/29/1 1374/28/1 1375/23/1 1376/24/1
f 1377/28/1 1378/27/1 1379/22/1 1380/23/1
f 1381/29/1 1382/28/1 1383/23/1 1384/24/1
f 1385/28/1 1386/27/1 1387/22/1 1388/23/1
f 1389/27/1 1390/26/1 1391/21/1 1392/22/1
f 1393/37/1 1394/38/1 1395/36/1 1396/35/1
f 1397/37/1 1398/38/1 1399/36/1 1400/35/1
f 1401/30/1 1402/29/1 1403/24/1 1404/25/1
f 1405/29/1 1406/28/1 1407/23/1 1408/24/1
f 1409/28/1 1410/27/1 1411/22/1 1412/23/1
f 1413/27/1 1414/26/1 1415/21/1 1416/22/1
f 1417/30/1 1418/29/1 1419/24/1 1420/25/1
f 1421/29/1 1422/28/1 1423/23/1 1424/24/1
f 1425/28/1 1426/27/1 1427/22/1 1428/23/1
f 1429/27/1 1430/26/1 1431/21/1 1432/22/1
f 1433/35/1 1434/36/1 1435/32/1 1436/31/1
f 1437/37/1 1438/38/1 1439/36/1 1440/35/1
f 1441/37/1 1442/38/1 1443/36/1 1444/35/1
f 1445/31/1 1446/32/1 1447/33/1 1448/34/1
f 1449/31/1 1450/32/1 1451/33/1 1452/34/1
f 1453/35/1 1454/36/1 1455/32/1 1456/31/1
f 1457/35/1 1458/36/1 1459/32/1 1460/31/1
f 1461/37/1 1462/38/1 1463/36/1 1464/35/1
f 1465/37/1 1466/38/1 1467/36/1 1468/35/1
f 1469/31/1 1470/32/1 1471/33/1 1472/34/1
f 1473/31/1 1474/32/1 1475/33/1 1476/34/1
f 1477/35/1 1478/36/1 1479/32/1 1480/31/1
f 1481/35/1 1482/36/1 1483/32/1 1484/31/1
f 1485/37/1 1486/38/1 1487/36/1 1488/35/1
f 1489/37/1 1490/38/1 1491/36/1 1492/35/1
f 1493/31/1 1494/32/1 1495/33/1 1496/34/1
f 1497/31/1 1498/32/1 1499/33/1 1500/34/1
f 1501/7/1 1502/5/1 1503/6/1 1504/8/1
f 1505/5/1 1506/2/1 1507/3/1 1508/6/1
f 1509/35/1 1510/36/1 1511/32/1 1512/31/1
f 1513/9/1 1514/7/1 1515/8/1 1516/10/1
f 1517/2/1 1518/1/1 1519/4/1 1520/3/1
f 1521/9/1 1522/7/1 1523/8/1 1524/10/1
f 1525/7/1 1526/5/1 1527/6/1 1528/8/1
f 1529/5/1 1530/2/1 1531/3/1 1532/6/1
f 1533/35/1 1534/36/1 1535/32/1 1536/31/1
f 1537/9/1 1538/7/1 1539/8/1 1540/10/1
f 1541/7/1 1542/5/1 1543/6/1 1544/8/1
f 1545/5/1 1546/2/1 1547/3/1 1548/6/1
f 1549/9/1 1550/7/1 1551/8/1 1552/10/1
f 1553/7/1 1554/5/1 1555/6/1 1556/8/1
f 1557/5/1 1558/2/1 1559/3/1 1560/6/1
f 1561/31/1 1562/32/1 1563/33/1 1564/34/1
f 1565/15/1 1566/14/1 1567/7/1 1568/9/1
f 1569/14/1 1570/13/1 1571/5/1 1572/7/1
f 1573/13/1 1574/12/1 1575/2/1 1576/5/1
f 1577/15/1 1578/14/1 1579/7/1 1580/9/1
f 1581/14/1 1582/13/1 1583/5/1 1584/7/1
f 1585/13/1 1586/12/1 1587/2/1 1588/5/1
f 1589/31/1 1590/32/1 1591/33/1 1592/34/1
f 1593/37/1 1594/38/1 1595/36/1 1596/35/1
f 1597/31/1 1598/32/1 1599/33/1 1600/34/1
f 1601/15/1 1602/14/1 1603/7/1 1604/9/1
f 1605/14/1 1606/13/1 1607/5/1 1608/7/1
f 1609/13/1 1610/12/1 1611/2/1 1612/5/1
f 1613/15/1 1614/14/1 1615/7/1 1616/9/1
f 1617/14/1 1618/13/1 1619/5/1 1620/7/1
f 1621/13/1 1622/12/1 1623/2/1 1624/5/1
f 1625/31/1 1626/32/1 1627/33/1 1628/34/1
f 1629/37/1 1630/38/1 1631/36/1 1632/35/1
f 1633/31/1 1634/32/1 1635/33/1 1636/34/1
f 1637/15/1 1638/14/1 1639/7/1 1640/9/1
f 1641/14/1 1642/13/1 1643/5/1 1644/7/1
f 1645/13/1 1646/12/1 1647/2/1 1648/5/1
f 1649/15/1 1650/14/1 1651/7/1 1652/9/1
f 1653/14/1 1654/13/1 1655/5/1 1656/7/1
f 1657/13/1 1658/12/1 1659/2/1 1660/5/1
f 1661/31/1 1662/32/1 1663/33/1 1664/34/1
f 1665/35/1 1666/36/1 1667/32/1 1668/31/1
f 1669/20/1 1670/19/1 1671/14/1 1672/15/1
f 1673/19/1 1674/18/1 1675/13/1 1676/14/1
f 1677/18/1 1678/17/1 1679/12/1 1680/13/1
f 1681/20/1 1682/19/1 1683/14/1 1684/15/1
f 1685/19/1 1686/18/1 1687/13/1 1688/14/1
f 1689/18/1 1690/17/1 1691/12/1 1692/13/1
f 1693/17/1 1694/16/1 1695/11/1 1696/12/1
f 1697/35/1 1698/36/1 1699/32/1 1700/31/1
f 1701/35/1 1702/36/1 1703/32/1 1704/31/1
f 1705/20/1 1706/19/1 1707/14/1 1708/15/1
f 1709/19/1 1710/18/1 1711/13/1 1712/14/1
f 1713/18/1 1714/17/1 1715/12/1 1716/13/1
f 1717/17/1 1718/16/1 1719/11/1 1720/12/1
f 1721/20/1 1722/19/1 1723/14/1 1724/15/1
f 1725/19/1 1726/18/1 1727/13/1 1728/14/1
f 1729/18/1 1730/17/1 1731/12/1 1732/13/1
f 1733/17/1 1734/16/1 1735/11/1 1736/12/1
f 1737/35/1 1738/36/1 1739/32/1 1740/31/1
f 1741/35/1 1742/36/1 1743/32/1 1744/31/1
f 1745/20/1 1746/19/1 1747/14/1 1748/15/1
f 1749/19/1 1750/18/1 1751/13/1 1752/14/1
f 1753/18/1 1754/17/1 1755/12/1 1756/13/1
f 1757/17/1 1758/16/1 1759/11/1 1760/12/1
f 1761/20/1 1762/19/1 1763/14/1 1764/15/1
f 1765/19/1 1766/18/1 1767/13/1 1768/14/1
f 1769/18/1 1770/17/1 1771/12/1 1772/13/1
f 1773/17/1 1774/16/1 1775/11/1 1776/12/1
f 1777/35/1 1778/36/1 1779/32/1 1780/31/1
f 1781/25/1 1782/24/1 1783/19/1 1784/20/1
f 1785/24/1 1786/23/1 1787/18/1 1788/19/1
f 1789/23/1 1790/22/1 1791/17/1 1792/18/1
f 1793/22/1 1794/21/1 1795/16/1 1796/17/1
f 1797/25/1 1798/24/1 1799/19/1 1800/20/1
f 1801/24/1 1802/23/1 1803/18/1 1804/19/1
f 1805/23/1 1806/22/1 1807/17/1 1808/18/1
f 1809/22/1 1810/21/1 1811/16/1 1812/17/1
f 1813/25/1 1814/24/1 1815/19/1 1816/20/1
f 1817/24/1 1818/23/1 1819/18/1 1820/19/1
f 1821/23/1 1822/22/1 1823/17/1 1824/18/1
f 1825/22/1 1826/21/1 1827/16/1 1828/17/1
f 1829/25/1 1830/24/1 1831/19/1 1832/20/1
f 1833/24/1 1834/23/1 1835/18/1 1836/19/1
f 1837/23/1 1838/22/1 1839/17/1 1840/18/1
f 1841/22/1 1842/21/1 1843/16/1 1844/17/1
f 1845/25/1 1846/24/1 1847/19/1 1848/20/1
f 1849/24/1 1850/23/1 1851/18/1 1852/19/1
f 1853/23/1 1854/22/1 1855/17/1 1856/18/1
f 1857/22/1 1858/21/1 1859/16/1 1860/17/1
f 1861/25/1 1862/24/1 1863/19/1 1864/20/1
f 1865/24/1 1866/23/1 1867/18/1 1868/19/1
f 1869/23/1 1870/22/1 1871/17/1 1872/18/1
f 1873/22/1 1874/21/1 1875/16/1 1876/17/1
f 1877/30/1 1878/29/1 1879/24/1 1880/25/1
f 1881/29/1 1882/28/1 1883/23/1 1884/24/1
f 1885/28/1 1886/27/1 1887/22/1 1888/23/1
f 1889/27/1 1890/26/1 1891/21/1 1892/22/1
f 1893/30/1 1894/29/1 1895/24/1 1896/25/1
f 1897/29/1 1898/28/1 1899/23/1 1900/24/1
f 1901/28/1 1902/27/1 1903/22/1 1904/23/1
f 1905/27/1 1906/26/1 1907/21/1 1908/22/1
f 1909/30/1 1910/29/1 1911/24/1 1912/25/1
f 1913/29/1 1914/28/1 1915/23/1 1916/24/1
f 1917/28/1 1918/27/1 1919/22/1 1920/23/1
f 1921/27/1 1922/26/1 1923/21/1 1924/22/1
f 1925/30/1 1926/29/1 1927/24/1 1928/25/1
f 1929/29/1 1930/28/1 1931/23/1 1932/24/1
f 1933/28/1 1934/27/1 1935/22/1 1936/23/1
f 1937/27/1 1938/26/1 1939/21/1 1940/22/1
f 1941/30/1 1942/29/1 1943/24/1 1944/25/1
f 1945/29/1 1946/28/1 1947/23/1 1948/24/1
f 1949/28/1 1950/27/1 1951/22/1 1952/23/1
f 1953/27/1 1954/26/1 1955/21/1 1956/22/1
f 1957/30/1 1958/29/1 1959/24/1 1960/25/1
f 1961/29/1 1962/28/1 1963/23/1 1964/24/1
f 1965/28/1 1966/27/1 1967/22/1 1968/23/1
f 1969/27/1 1970/26/1 1971/21/1 1972/22/1
f 1973/9/1 1974/7/1 1975/8/1 1976/10/1
f 1977/2/1 1978/1/1 1979/4/1 1980/3/1
f 1981/5/1 1982/2/1 1983/3/1 1984/6/1
f 1985/15/1 1986/14/1 1987/7/1 1988/9/1
f 1989/14/1 1990/13/1 1991/5/1 1992/7/1
f 1993/13/1 1994/12/1 1995/2/1 1996/5/1
f 1997/12/1 1998/11/1 1999/1/1 2000/2/1
f 2001/13/1 2002/12/1 2003/2/1 2004/5/1
f 2005/12/1 2006/11/1 2007/1/1 2008/2/1
f 2009/20/1 2010/19/1 2011/14/1 2012/15/1
f 2013/19/1 2014/18/1 2015/13/1 2016/14/1
f 2017/18/1 2018/17/1 2019/12/1 2020/13/1
f 2021/17/1 2022/16/1 2023/11/1 2024/12/1
f 2025/20/1 2026/19/1 2027/14/1 2028/15/1
f 2029/19/1 2030/18/1 2031/13/1 2032/14/1
f 2033/18/1 2034/17/1 2035/12/1 2036/13/1
f 2037/17/1 2038/16/1 2039/11/1 2040/12/1
f 2041/31/1 2042/32/1 2043/33/1 2044/34/1
f 2045/25/1 2046/24/1 2047/19/1 2048/20/1
f 2049/24/1 2050/23/1 2051/18/1 2052/19/1
f 2053/23/1 2054/22/1 2055/17/1 2056/18/1
f 2057/22/1 2058/21/1 2059/16/1 2060/17/1
f 2061/25/1 2062/24/1 2063/19/1 2064/20/1
f 2065/24/1 2066/23/1 2067/18/1 2068/19/1
f 2069/23/1 2070/22/1 2071/17/1 2072/18/1
f 2073/22/1 2074/21/1 2075/16/1 2076/17/1
f 2077/35/1 2078/36/1 2079/32/1 2080/31/1
f 2081/30/1 2082/29/1 2083/24/1 2084/25/1
f 2085/29/1 2086/28/1 2087/23/1 2088/24/1
f 2089/28/1 2090/27/1 2091/22/1 2092/23/1
f 2093/27/1 2094/26/1 2095/21/1 2096/22/1
f 2097/30/1 2098/29/1 2099/24/1 2100/25/1
f 2101/29/1 2102/28/1 2103/23/1 2104/24/1
f 2105/28/1 2106/27/1 2107/22/1 2108/23/1
f 2109/27/1 2110/26/1 2111/21/1 2112/22/1
f 2113/37/1 2114/38/1 2115/36/1 2116/35/1

