﻿# Tiled2Unity generated file. Do not modify by hand.
# Wavefront file for 'CrashCity_mesh_0005.obj'

# Vertices (Count = 2256)
v -768 -576 0
v -800 -576 0
v -800 -544 0
v -768 -544 0
v -800 -576 0
v -832 -576 0
v -832 -544 0
v -800 -544 0
v -832 -576 0
v -864 -576 0
v -864 -544 0
v -832 -544 0
v -864 -576 0
v -896 -576 0
v -896 -544 0
v -864 -544 0
v -896 -576 0
v -928 -576 0
v -928 -544 0
v -896 -544 0
v -768 -608 0
v -800 -608 0
v -800 -576 0
v -768 -576 0
v -800 -608 0
v -832 -608 0
v -832 -576 0
v -800 -576 0
v -832 -608 0
v -864 -608 0
v -864 -576 0
v -832 -576 0
v -864 -608 0
v -896 -608 0
v -896 -576 0
v -864 -576 0
v -896 -608 0
v -928 -608 0
v -928 -576 0
v -896 -576 0
v -928 -608 0
v -960 -608 0
v -960 -576 0
v -928 -576 0
v -960 -608 0
v -992 -608 0
v -992 -576 0
v -960 -576 0
v -992 -608 0
v -1024 -608 0
v -1024 -576 0
v -992 -576 0
v -1024 -608 0
v -1056 -608 0
v -1056 -576 0
v -1024 -576 0
v -1056 -608 0
v -1088 -608 0
v -1088 -576 0
v -1056 -576 0
v -1088 -608 0
v -1120 -608 0
v -1120 -576 0
v -1088 -576 0
v -1120 -608 0
v -1152 -608 0
v -1152 -576 0
v -1120 -576 0
v -1024 -640 0
v -1056 -640 0
v -1056 -608 0
v -1024 -608 0
v -1024 -672 0
v -1056 -672 0
v -1056 -640 0
v -1024 -640 0
v -672 -704 0
v -704 -704 0
v -704 -672 0
v -672 -672 0
v -704 -704 0
v -736 -704 0
v -736 -672 0
v -704 -672 0
v -736 -704 0
v -768 -704 0
v -768 -672 0
v -736 -672 0
v -768 -704 0
v -800 -704 0
v -800 -672 0
v -768 -672 0
v -800 -704 0
v -832 -704 0
v -832 -672 0
v -800 -672 0
v -832 -704 0
v -864 -704 0
v -864 -672 0
v -832 -672 0
v -864 -704 0
v -896 -704 0
v -896 -672 0
v -864 -672 0
v -896 -704 0
v -928 -704 0
v -928 -672 0
v -896 -672 0
v -928 -704 0
v -960 -704 0
v -960 -672 0
v -928 -672 0
v -960 -704 0
v -992 -704 0
v -992 -672 0
v -960 -672 0
v -992 -704 0
v -1024 -704 0
v -1024 -672 0
v -992 -672 0
v -1024 -704 0
v -1056 -704 0
v -1056 -672 0
v -1024 -672 0
v -1056 -704 0
v -1088 -704 0
v -1088 -672 0
v -1056 -672 0
v -1088 -704 0
v -1120 -704 0
v -1120 -672 0
v -1088 -672 0
v -1120 -704 0
v -1152 -704 0
v -1152 -672 0
v -1120 -672 0
v -1152 -704 0
v -1184 -704 0
v -1184 -672 0
v -1152 -672 0
v -672 -736 0
v -704 -736 0
v -704 -704 0
v -672 -704 0
v -704 -736 0
v -736 -736 0
v -736 -704 0
v -704 -704 0
v -736 -736 0
v -768 -736 0
v -768 -704 0
v -736 -704 0
v -768 -736 0
v -800 -736 0
v -800 -704 0
v -768 -704 0
v -800 -736 0
v -832 -736 0
v -832 -704 0
v -800 -704 0
v -832 -736 0
v -864 -736 0
v -864 -704 0
v -832 -704 0
v -864 -736 0
v -896 -736 0
v -896 -704 0
v -864 -704 0
v -896 -736 0
v -928 -736 0
v -928 -704 0
v -896 -704 0
v -928 -736 0
v -960 -736 0
v -960 -704 0
v -928 -704 0
v -960 -736 0
v -992 -736 0
v -992 -704 0
v -960 -704 0
v -992 -736 0
v -1024 -736 0
v -1024 -704 0
v -992 -704 0
v -1024 -736 0
v -1056 -736 0
v -1056 -704 0
v -1024 -704 0
v -1056 -736 0
v -1088 -736 0
v -1088 -704 0
v -1056 -704 0
v -1088 -736 0
v -1120 -736 0
v -1120 -704 0
v -1088 -704 0
v -1120 -736 0
v -1152 -736 0
v -1152 -704 0
v -1120 -704 0
v -1152 -736 0
v -1184 -736 0
v -1184 -704 0
v -1152 -704 0
v -672 -768 0
v -704 -768 0
v -704 -736 0
v -672 -736 0
v -704 -768 0
v -736 -768 0
v -736 -736 0
v -704 -736 0
v -736 -768 0
v -768 -768 0
v -768 -736 0
v -736 -736 0
v -768 -768 0
v -800 -768 0
v -800 -736 0
v -768 -736 0
v -800 -768 0
v -832 -768 0
v -832 -736 0
v -800 -736 0
v -832 -768 0
v -864 -768 0
v -864 -736 0
v -832 -736 0
v -864 -768 0
v -896 -768 0
v -896 -736 0
v -864 -736 0
v -896 -768 0
v -928 -768 0
v -928 -736 0
v -896 -736 0
v -928 -768 0
v -960 -768 0
v -960 -736 0
v -928 -736 0
v -960 -768 0
v -992 -768 0
v -992 -736 0
v -960 -736 0
v -992 -768 0
v -1024 -768 0
v -1024 -736 0
v -992 -736 0
v -1024 -768 0
v -1056 -768 0
v -1056 -736 0
v -1024 -736 0
v -1056 -768 0
v -1088 -768 0
v -1088 -736 0
v -1056 -736 0
v -1088 -768 0
v -1120 -768 0
v -1120 -736 0
v -1088 -736 0
v -1120 -768 0
v -1152 -768 0
v -1152 -736 0
v -1120 -736 0
v -1152 -768 0
v -1184 -768 0
v -1184 -736 0
v -1152 -736 0
v -576 -800 0
v -608 -800 0
v -608 -768 0
v -576 -768 0
v -608 -800 0
v -640 -800 0
v -640 -768 0
v -608 -768 0
v -640 -800 0
v -672 -800 0
v -672 -768 0
v -640 -768 0
v -576 -832 0
v -608 -832 0
v -608 -800 0
v -576 -800 0
v -608 -832 0
v -640 -832 0
v -640 -800 0
v -608 -800 0
v -640 -832 0
v -672 -832 0
v -672 -800 0
v -640 -800 0
v -576 -864 0
v -608 -864 0
v -608 -832 0
v -576 -832 0
v -608 -864 0
v -640 -864 0
v -640 -832 0
v -608 -832 0
v -640 -864 0
v -672 -864 0
v -672 -832 0
v -640 -832 0
v -576 -896 0
v -608 -896 0
v -608 -864 0
v -576 -864 0
v -608 -896 0
v -640 -896 0
v -640 -864 0
v -608 -864 0
v -640 -896 0
v -672 -896 0
v -672 -864 0
v -640 -864 0
v -576 -928 0
v -608 -928 0
v -608 -896 0
v -576 -896 0
v -608 -928 0
v -640 -928 0
v -640 -896 0
v -608 -896 0
v -640 -928 0
v -672 -928 0
v -672 -896 0
v -640 -896 0
v -576 -960 0
v -608 -960 0
v -608 -928 0
v -576 -928 0
v -608 -960 0
v -640 -960 0
v -640 -928 0
v -608 -928 0
v -640 -960 0
v -672 -960 0
v -672 -928 0
v -640 -928 0
v -576 -992 0
v -608 -992 0
v -608 -960 0
v -576 -960 0
v -608 -992 0
v -640 -992 0
v -640 -960 0
v -608 -960 0
v -640 -992 0
v -672 -992 0
v -672 -960 0
v -640 -960 0
v -576 -1024 0
v -608 -1024 0
v -608 -992 0
v -576 -992 0
v -608 -1024 0
v -640 -1024 0
v -640 -992 0
v -608 -992 0
v -640 -1024 0
v -672 -1024 0
v -672 -992 0
v -640 -992 0
v -576 -1056 0
v -608 -1056 0
v -608 -1024 0
v -576 -1024 0
v -608 -1056 0
v -640 -1056 0
v -640 -1024 0
v -608 -1024 0
v -640 -1056 0
v -672 -1056 0
v -672 -1024 0
v -640 -1024 0
v -576 -1088 0
v -608 -1088 0
v -608 -1056 0
v -576 -1056 0
v -608 -1088 0
v -640 -1088 0
v -640 -1056 0
v -608 -1056 0
v -640 -1088 0
v -672 -1088 0
v -672 -1056 0
v -640 -1056 0
v -2720 -1088 0
v -2752 -1088 0
v -2752 -1056 0
v -2720 -1056 0
v -576 -1120 0
v -608 -1120 0
v -608 -1088 0
v -576 -1088 0
v -608 -1120 0
v -640 -1120 0
v -640 -1088 0
v -608 -1088 0
v -640 -1120 0
v -672 -1120 0
v -672 -1088 0
v -640 -1088 0
v -2720 -1120 0
v -2752 -1120 0
v -2752 -1088 0
v -2720 -1088 0
v -576 -1152 0
v -608 -1152 0
v -608 -1120 0
v -576 -1120 0
v -608 -1152 0
v -640 -1152 0
v -640 -1120 0
v -608 -1120 0
v -640 -1152 0
v -672 -1152 0
v -672 -1120 0
v -640 -1120 0
v -2720 -1152 0
v -2752 -1152 0
v -2752 -1120 0
v -2720 -1120 0
v -2752 -1152 0
v -2784 -1152 0
v -2784 -1120 0
v -2752 -1120 0
v -576 -1184 0
v -608 -1184 0
v -608 -1152 0
v -576 -1152 0
v -608 -1184 0
v -640 -1184 0
v -640 -1152 0
v -608 -1152 0
v -640 -1184 0
v -672 -1184 0
v -672 -1152 0
v -640 -1152 0
v -2720 -1184 0
v -2752 -1184 0
v -2752 -1152 0
v -2720 -1152 0
v -2752 -1184 0
v -2784 -1184 0
v -2784 -1152 0
v -2752 -1152 0
v -2784 -1184 0
v -2816 -1184 0
v -2816 -1152 0
v -2784 -1152 0
v -576 -1216 0
v -608 -1216 0
v -608 -1184 0
v -576 -1184 0
v -608 -1216 0
v -640 -1216 0
v -640 -1184 0
v -608 -1184 0
v -640 -1216 0
v -672 -1216 0
v -672 -1184 0
v -640 -1184 0
v -2720 -1216 0
v -2752 -1216 0
v -2752 -1184 0
v -2720 -1184 0
v -2752 -1216 0
v -2784 -1216 0
v -2784 -1184 0
v -2752 -1184 0
v -2784 -1216 0
v -2816 -1216 0
v -2816 -1184 0
v -2784 -1184 0
v -2720 -1248 0
v -2752 -1248 0
v -2752 -1216 0
v -2720 -1216 0
v -2752 -1248 0
v -2784 -1248 0
v -2784 -1216 0
v -2752 -1216 0
v -2784 -1248 0
v -2816 -1248 0
v -2816 -1216 0
v -2784 -1216 0
v -2720 -1280 0
v -2752 -1280 0
v -2752 -1248 0
v -2720 -1248 0
v -2752 -1280 0
v -2784 -1280 0
v -2784 -1248 0
v -2752 -1248 0
v -2784 -1280 0
v -2816 -1280 0
v -2816 -1248 0
v -2784 -1248 0
v -2720 -1312 0
v -2752 -1312 0
v -2752 -1280 0
v -2720 -1280 0
v -2752 -1312 0
v -2784 -1312 0
v -2784 -1280 0
v -2752 -1280 0
v -2784 -1312 0
v -2816 -1312 0
v -2816 -1280 0
v -2784 -1280 0
v -2720 -1344 0
v -2752 -1344 0
v -2752 -1312 0
v -2720 -1312 0
v -2752 -1344 0
v -2784 -1344 0
v -2784 -1312 0
v -2752 -1312 0
v -2784 -1344 0
v -2816 -1344 0
v -2816 -1312 0
v -2784 -1312 0
v -2720 -1376 0
v -2752 -1376 0
v -2752 -1344 0
v -2720 -1344 0
v -2752 -1376 0
v -2784 -1376 0
v -2784 -1344 0
v -2752 -1344 0
v -2784 -1376 0
v -2816 -1376 0
v -2816 -1344 0
v -2784 -1344 0
v -2720 -1408 0
v -2752 -1408 0
v -2752 -1376 0
v -2720 -1376 0
v -2752 -1408 0
v -2784 -1408 0
v -2784 -1376 0
v -2752 -1376 0
v -2784 -1408 0
v -2816 -1408 0
v -2816 -1376 0
v -2784 -1376 0
v -2720 -1440 0
v -2752 -1440 0
v -2752 -1408 0
v -2720 -1408 0
v -2752 -1440 0
v -2784 -1440 0
v -2784 -1408 0
v -2752 -1408 0
v -2784 -1440 0
v -2816 -1440 0
v -2816 -1408 0
v -2784 -1408 0
v -2720 -1472 0
v -2752 -1472 0
v -2752 -1440 0
v -2720 -1440 0
v -2752 -1472 0
v -2784 -1472 0
v -2784 -1440 0
v -2752 -1440 0
v -2784 -1472 0
v -2816 -1472 0
v -2816 -1440 0
v -2784 -1440 0
v -2720 -1504 0
v -2752 -1504 0
v -2752 -1472 0
v -2720 -1472 0
v -2752 -1504 0
v -2784 -1504 0
v -2784 -1472 0
v -2752 -1472 0
v -2784 -1504 0
v -2816 -1504 0
v -2816 -1472 0
v -2784 -1472 0
v -2720 -1536 0
v -2752 -1536 0
v -2752 -1504 0
v -2720 -1504 0
v -2752 -1536 0
v -2784 -1536 0
v -2784 -1504 0
v -2752 -1504 0
v -2784 -1536 0
v -2816 -1536 0
v -2816 -1504 0
v -2784 -1504 0
v -2720 -1568 0
v -2752 -1568 0
v -2752 -1536 0
v -2720 -1536 0
v -2752 -1568 0
v -2784 -1568 0
v -2784 -1536 0
v -2752 -1536 0
v -2784 -1568 0
v -2816 -1568 0
v -2816 -1536 0
v -2784 -1536 0
v -2720 -1600 0
v -2752 -1600 0
v -2752 -1568 0
v -2720 -1568 0
v -2752 -1600 0
v -2784 -1600 0
v -2784 -1568 0
v -2752 -1568 0
v -2784 -1600 0
v -2816 -1600 0
v -2816 -1568 0
v -2784 -1568 0
v -2720 -1632 0
v -2752 -1632 0
v -2752 -1600 0
v -2720 -1600 0
v -2752 -1632 0
v -2784 -1632 0
v -2784 -1600 0
v -2752 -1600 0
v -2784 -1632 0
v -2816 -1632 0
v -2816 -1600 0
v -2784 -1600 0
v -2720 -1664 0
v -2752 -1664 0
v -2752 -1632 0
v -2720 -1632 0
v -2752 -1664 0
v -2784 -1664 0
v -2784 -1632 0
v -2752 -1632 0
v -2784 -1664 0
v -2816 -1664 0
v -2816 -1632 0
v -2784 -1632 0
v -2720 -1696 0
v -2752 -1696 0
v -2752 -1664 0
v -2720 -1664 0
v -2752 -1696 0
v -2784 -1696 0
v -2784 -1664 0
v -2752 -1664 0
v -2784 -1696 0
v -2816 -1696 0
v -2816 -1664 0
v -2784 -1664 0
v -2720 -1728 0
v -2752 -1728 0
v -2752 -1696 0
v -2720 -1696 0
v -2752 -1728 0
v -2784 -1728 0
v -2784 -1696 0
v -2752 -1696 0
v -2784 -1728 0
v -2816 -1728 0
v -2816 -1696 0
v -2784 -1696 0
v -640 -1760 0
v -672 -1760 0
v -672 -1728 0
v -640 -1728 0
v -1504 -1760 0
v -1536 -1760 0
v -1536 -1728 0
v -1504 -1728 0
v -1536 -1760 0
v -1568 -1760 0
v -1568 -1728 0
v -1536 -1728 0
v -1568 -1760 0
v -1600 -1760 0
v -1600 -1728 0
v -1568 -1728 0
v -1600 -1760 0
v -1632 -1760 0
v -1632 -1728 0
v -1600 -1728 0
v -1632 -1760 0
v -1664 -1760 0
v -1664 -1728 0
v -1632 -1728 0
v -1664 -1760 0
v -1696 -1760 0
v -1696 -1728 0
v -1664 -1728 0
v -1696 -1760 0
v -1728 -1760 0
v -1728 -1728 0
v -1696 -1728 0
v -1728 -1760 0
v -1760 -1760 0
v -1760 -1728 0
v -1728 -1728 0
v -1760 -1760 0
v -1792 -1760 0
v -1792 -1728 0
v -1760 -1728 0
v -1792 -1760 0
v -1824 -1760 0
v -1824 -1728 0
v -1792 -1728 0
v -1824 -1760 0
v -1856 -1760 0
v -1856 -1728 0
v -1824 -1728 0
v -1856 -1760 0
v -1888 -1760 0
v -1888 -1728 0
v -1856 -1728 0
v -1888 -1760 0
v -1920 -1760 0
v -1920 -1728 0
v -1888 -1728 0
v -1920 -1760 0
v -1952 -1760 0
v -1952 -1728 0
v -1920 -1728 0
v -1952 -1760 0
v -1984 -1760 0
v -1984 -1728 0
v -1952 -1728 0
v -1984 -1760 0
v -2016 -1760 0
v -2016 -1728 0
v -1984 -1728 0
v -2016 -1760 0
v -2048 -1760 0
v -2048 -1728 0
v -2016 -1728 0
v -2048 -1760 0
v -2080 -1760 0
v -2080 -1728 0
v -2048 -1728 0
v -2080 -1760 0
v -2112 -1760 0
v -2112 -1728 0
v -2080 -1728 0
v -2112 -1760 0
v -2144 -1760 0
v -2144 -1728 0
v -2112 -1728 0
v -2144 -1760 0
v -2176 -1760 0
v -2176 -1728 0
v -2144 -1728 0
v -2176 -1760 0
v -2208 -1760 0
v -2208 -1728 0
v -2176 -1728 0
v -2208 -1760 0
v -2240 -1760 0
v -2240 -1728 0
v -2208 -1728 0
v -2240 -1760 0
v -2272 -1760 0
v -2272 -1728 0
v -2240 -1728 0
v -2272 -1760 0
v -2304 -1760 0
v -2304 -1728 0
v -2272 -1728 0
v -2304 -1760 0
v -2336 -1760 0
v -2336 -1728 0
v -2304 -1728 0
v -2336 -1760 0
v -2368 -1760 0
v -2368 -1728 0
v -2336 -1728 0
v -2368 -1760 0
v -2400 -1760 0
v -2400 -1728 0
v -2368 -1728 0
v -2400 -1760 0
v -2432 -1760 0
v -2432 -1728 0
v -2400 -1728 0
v -2432 -1760 0
v -2464 -1760 0
v -2464 -1728 0
v -2432 -1728 0
v -2464 -1760 0
v -2496 -1760 0
v -2496 -1728 0
v -2464 -1728 0
v -2496 -1760 0
v -2528 -1760 0
v -2528 -1728 0
v -2496 -1728 0
v -2528 -1760 0
v -2560 -1760 0
v -2560 -1728 0
v -2528 -1728 0
v -2560 -1760 0
v -2592 -1760 0
v -2592 -1728 0
v -2560 -1728 0
v -2592 -1760 0
v -2624 -1760 0
v -2624 -1728 0
v -2592 -1728 0
v -2624 -1760 0
v -2656 -1760 0
v -2656 -1728 0
v -2624 -1728 0
v -2656 -1760 0
v -2688 -1760 0
v -2688 -1728 0
v -2656 -1728 0
v -2688 -1760 0
v -2720 -1760 0
v -2720 -1728 0
v -2688 -1728 0
v -2720 -1760 0
v -2752 -1760 0
v -2752 -1728 0
v -2720 -1728 0
v -2752 -1760 0
v -2784 -1760 0
v -2784 -1728 0
v -2752 -1728 0
v -2784 -1760 0
v -2816 -1760 0
v -2816 -1728 0
v -2784 -1728 0
v -2816 -1760 0
v -2848 -1760 0
v -2848 -1728 0
v -2816 -1728 0
v -2848 -1760 0
v -2880 -1760 0
v -2880 -1728 0
v -2848 -1728 0
v -2880 -1760 0
v -2912 -1760 0
v -2912 -1728 0
v -2880 -1728 0
v -2912 -1760 0
v -2944 -1760 0
v -2944 -1728 0
v -2912 -1728 0
v -2944 -1760 0
v -2976 -1760 0
v -2976 -1728 0
v -2944 -1728 0
v -2976 -1760 0
v -3008 -1760 0
v -3008 -1728 0
v -2976 -1728 0
v -3008 -1760 0
v -3040 -1760 0
v -3040 -1728 0
v -3008 -1728 0
v -576 -1792 0
v -608 -1792 0
v -608 -1760 0
v -576 -1760 0
v -608 -1792 0
v -640 -1792 0
v -640 -1760 0
v -608 -1760 0
v -640 -1792 0
v -672 -1792 0
v -672 -1760 0
v -640 -1760 0
v -1504 -1792 0
v -1536 -1792 0
v -1536 -1760 0
v -1504 -1760 0
v -1536 -1792 0
v -1568 -1792 0
v -1568 -1760 0
v -1536 -1760 0
v -1568 -1792 0
v -1600 -1792 0
v -1600 -1760 0
v -1568 -1760 0
v -1600 -1792 0
v -1632 -1792 0
v -1632 -1760 0
v -1600 -1760 0
v -1632 -1792 0
v -1664 -1792 0
v -1664 -1760 0
v -1632 -1760 0
v -1664 -1792 0
v -1696 -1792 0
v -1696 -1760 0
v -1664 -1760 0
v -1696 -1792 0
v -1728 -1792 0
v -1728 -1760 0
v -1696 -1760 0
v -1728 -1792 0
v -1760 -1792 0
v -1760 -1760 0
v -1728 -1760 0
v -1760 -1792 0
v -1792 -1792 0
v -1792 -1760 0
v -1760 -1760 0
v -1792 -1792 0
v -1824 -1792 0
v -1824 -1760 0
v -1792 -1760 0
v -1824 -1792 0
v -1856 -1792 0
v -1856 -1760 0
v -1824 -1760 0
v -1856 -1792 0
v -1888 -1792 0
v -1888 -1760 0
v -1856 -1760 0
v -1888 -1792 0
v -1920 -1792 0
v -1920 -1760 0
v -1888 -1760 0
v -1920 -1792 0
v -1952 -1792 0
v -1952 -1760 0
v -1920 -1760 0
v -1952 -1792 0
v -1984 -1792 0
v -1984 -1760 0
v -1952 -1760 0
v -1984 -1792 0
v -2016 -1792 0
v -2016 -1760 0
v -1984 -1760 0
v -2016 -1792 0
v -2048 -1792 0
v -2048 -1760 0
v -2016 -1760 0
v -2048 -1792 0
v -2080 -1792 0
v -2080 -1760 0
v -2048 -1760 0
v -2080 -1792 0
v -2112 -1792 0
v -2112 -1760 0
v -2080 -1760 0
v -2112 -1792 0
v -2144 -1792 0
v -2144 -1760 0
v -2112 -1760 0
v -2144 -1792 0
v -2176 -1792 0
v -2176 -1760 0
v -2144 -1760 0
v -2176 -1792 0
v -2208 -1792 0
v -2208 -1760 0
v -2176 -1760 0
v -2208 -1792 0
v -2240 -1792 0
v -2240 -1760 0
v -2208 -1760 0
v -2240 -1792 0
v -2272 -1792 0
v -2272 -1760 0
v -2240 -1760 0
v -2272 -1792 0
v -2304 -1792 0
v -2304 -1760 0
v -2272 -1760 0
v -2304 -1792 0
v -2336 -1792 0
v -2336 -1760 0
v -2304 -1760 0
v -2336 -1792 0
v -2368 -1792 0
v -2368 -1760 0
v -2336 -1760 0
v -2368 -1792 0
v -2400 -1792 0
v -2400 -1760 0
v -2368 -1760 0
v -2400 -1792 0
v -2432 -1792 0
v -2432 -1760 0
v -2400 -1760 0
v -2432 -1792 0
v -2464 -1792 0
v -2464 -1760 0
v -2432 -1760 0
v -2464 -1792 0
v -2496 -1792 0
v -2496 -1760 0
v -2464 -1760 0
v -2496 -1792 0
v -2528 -1792 0
v -2528 -1760 0
v -2496 -1760 0
v -2528 -1792 0
v -2560 -1792 0
v -2560 -1760 0
v -2528 -1760 0
v -2560 -1792 0
v -2592 -1792 0
v -2592 -1760 0
v -2560 -1760 0
v -2592 -1792 0
v -2624 -1792 0
v -2624 -1760 0
v -2592 -1760 0
v -2624 -1792 0
v -2656 -1792 0
v -2656 -1760 0
v -2624 -1760 0
v -2656 -1792 0
v -2688 -1792 0
v -2688 -1760 0
v -2656 -1760 0
v -2688 -1792 0
v -2720 -1792 0
v -2720 -1760 0
v -2688 -1760 0
v -2720 -1792 0
v -2752 -1792 0
v -2752 -1760 0
v -2720 -1760 0
v -2752 -1792 0
v -2784 -1792 0
v -2784 -1760 0
v -2752 -1760 0
v -2784 -1792 0
v -2816 -1792 0
v -2816 -1760 0
v -2784 -1760 0
v -2816 -1792 0
v -2848 -1792 0
v -2848 -1760 0
v -2816 -1760 0
v -2848 -1792 0
v -2880 -1792 0
v -2880 -1760 0
v -2848 -1760 0
v -2880 -1792 0
v -2912 -1792 0
v -2912 -1760 0
v -2880 -1760 0
v -2912 -1792 0
v -2944 -1792 0
v -2944 -1760 0
v -2912 -1760 0
v -2944 -1792 0
v -2976 -1792 0
v -2976 -1760 0
v -2944 -1760 0
v -2976 -1792 0
v -3008 -1792 0
v -3008 -1760 0
v -2976 -1760 0
v -3008 -1792 0
v -3040 -1792 0
v -3040 -1760 0
v -3008 -1760 0
v -576 -1824 0
v -608 -1824 0
v -608 -1792 0
v -576 -1792 0
v -608 -1824 0
v -640 -1824 0
v -640 -1792 0
v -608 -1792 0
v -640 -1824 0
v -672 -1824 0
v -672 -1792 0
v -640 -1792 0
v -1504 -1824 0
v -1536 -1824 0
v -1536 -1792 0
v -1504 -1792 0
v -1536 -1824 0
v -1568 -1824 0
v -1568 -1792 0
v -1536 -1792 0
v -1568 -1824 0
v -1600 -1824 0
v -1600 -1792 0
v -1568 -1792 0
v -1600 -1824 0
v -1632 -1824 0
v -1632 -1792 0
v -1600 -1792 0
v -1632 -1824 0
v -1664 -1824 0
v -1664 -1792 0
v -1632 -1792 0
v -1664 -1824 0
v -1696 -1824 0
v -1696 -1792 0
v -1664 -1792 0
v -1696 -1824 0
v -1728 -1824 0
v -1728 -1792 0
v -1696 -1792 0
v -1728 -1824 0
v -1760 -1824 0
v -1760 -1792 0
v -1728 -1792 0
v -1760 -1824 0
v -1792 -1824 0
v -1792 -1792 0
v -1760 -1792 0
v -1792 -1824 0
v -1824 -1824 0
v -1824 -1792 0
v -1792 -1792 0
v -1824 -1824 0
v -1856 -1824 0
v -1856 -1792 0
v -1824 -1792 0
v -1856 -1824 0
v -1888 -1824 0
v -1888 -1792 0
v -1856 -1792 0
v -1888 -1824 0
v -1920 -1824 0
v -1920 -1792 0
v -1888 -1792 0
v -1920 -1824 0
v -1952 -1824 0
v -1952 -1792 0
v -1920 -1792 0
v -1952 -1824 0
v -1984 -1824 0
v -1984 -1792 0
v -1952 -1792 0
v -1984 -1824 0
v -2016 -1824 0
v -2016 -1792 0
v -1984 -1792 0
v -2016 -1824 0
v -2048 -1824 0
v -2048 -1792 0
v -2016 -1792 0
v -2048 -1824 0
v -2080 -1824 0
v -2080 -1792 0
v -2048 -1792 0
v -2080 -1824 0
v -2112 -1824 0
v -2112 -1792 0
v -2080 -1792 0
v -2112 -1824 0
v -2144 -1824 0
v -2144 -1792 0
v -2112 -1792 0
v -2144 -1824 0
v -2176 -1824 0
v -2176 -1792 0
v -2144 -1792 0
v -2176 -1824 0
v -2208 -1824 0
v -2208 -1792 0
v -2176 -1792 0
v -2208 -1824 0
v -2240 -1824 0
v -2240 -1792 0
v -2208 -1792 0
v -2240 -1824 0
v -2272 -1824 0
v -2272 -1792 0
v -2240 -1792 0
v -2272 -1824 0
v -2304 -1824 0
v -2304 -1792 0
v -2272 -1792 0
v -2304 -1824 0
v -2336 -1824 0
v -2336 -1792 0
v -2304 -1792 0
v -2336 -1824 0
v -2368 -1824 0
v -2368 -1792 0
v -2336 -1792 0
v -2368 -1824 0
v -2400 -1824 0
v -2400 -1792 0
v -2368 -1792 0
v -2400 -1824 0
v -2432 -1824 0
v -2432 -1792 0
v -2400 -1792 0
v -2432 -1824 0
v -2464 -1824 0
v -2464 -1792 0
v -2432 -1792 0
v -2464 -1824 0
v -2496 -1824 0
v -2496 -1792 0
v -2464 -1792 0
v -2496 -1824 0
v -2528 -1824 0
v -2528 -1792 0
v -2496 -1792 0
v -2528 -1824 0
v -2560 -1824 0
v -2560 -1792 0
v -2528 -1792 0
v -2560 -1824 0
v -2592 -1824 0
v -2592 -1792 0
v -2560 -1792 0
v -2592 -1824 0
v -2624 -1824 0
v -2624 -1792 0
v -2592 -1792 0
v -2624 -1824 0
v -2656 -1824 0
v -2656 -1792 0
v -2624 -1792 0
v -2656 -1824 0
v -2688 -1824 0
v -2688 -1792 0
v -2656 -1792 0
v -2688 -1824 0
v -2720 -1824 0
v -2720 -1792 0
v -2688 -1792 0
v -2720 -1824 0
v -2752 -1824 0
v -2752 -1792 0
v -2720 -1792 0
v -2752 -1824 0
v -2784 -1824 0
v -2784 -1792 0
v -2752 -1792 0
v -2784 -1824 0
v -2816 -1824 0
v -2816 -1792 0
v -2784 -1792 0
v -2816 -1824 0
v -2848 -1824 0
v -2848 -1792 0
v -2816 -1792 0
v -2848 -1824 0
v -2880 -1824 0
v -2880 -1792 0
v -2848 -1792 0
v -2880 -1824 0
v -2912 -1824 0
v -2912 -1792 0
v -2880 -1792 0
v -2912 -1824 0
v -2944 -1824 0
v -2944 -1792 0
v -2912 -1792 0
v -2944 -1824 0
v -2976 -1824 0
v -2976 -1792 0
v -2944 -1792 0
v -2976 -1824 0
v -3008 -1824 0
v -3008 -1792 0
v -2976 -1792 0
v -3008 -1824 0
v -3040 -1824 0
v -3040 -1792 0
v -3008 -1792 0
v -576 -1856 0
v -608 -1856 0
v -608 -1824 0
v -576 -1824 0
v -608 -1856 0
v -640 -1856 0
v -640 -1824 0
v -608 -1824 0
v -640 -1856 0
v -672 -1856 0
v -672 -1824 0
v -640 -1824 0
v -1408 -1856 0
v -1440 -1856 0
v -1440 -1824 0
v -1408 -1824 0
v -1440 -1856 0
v -1472 -1856 0
v -1472 -1824 0
v -1440 -1824 0
v -1472 -1856 0
v -1504 -1856 0
v -1504 -1824 0
v -1472 -1824 0
v -576 -1888 0
v -608 -1888 0
v -608 -1856 0
v -576 -1856 0
v -608 -1888 0
v -640 -1888 0
v -640 -1856 0
v -608 -1856 0
v -640 -1888 0
v -672 -1888 0
v -672 -1856 0
v -640 -1856 0
v -1408 -1888 0
v -1440 -1888 0
v -1440 -1856 0
v -1408 -1856 0
v -1440 -1888 0
v -1472 -1888 0
v -1472 -1856 0
v -1440 -1856 0
v -1472 -1888 0
v -1504 -1888 0
v -1504 -1856 0
v -1472 -1856 0
v -576 -1920 0
v -608 -1920 0
v -608 -1888 0
v -576 -1888 0
v -608 -1920 0
v -640 -1920 0
v -640 -1888 0
v -608 -1888 0
v -640 -1920 0
v -672 -1920 0
v -672 -1888 0
v -640 -1888 0
v -1408 -1920 0
v -1440 -1920 0
v -1440 -1888 0
v -1408 -1888 0
v -1440 -1920 0
v -1472 -1920 0
v -1472 -1888 0
v -1440 -1888 0
v -1472 -1920 0
v -1504 -1920 0
v -1504 -1888 0
v -1472 -1888 0
v -576 -1952 0
v -608 -1952 0
v -608 -1920 0
v -576 -1920 0
v -608 -1952 0
v -640 -1952 0
v -640 -1920 0
v -608 -1920 0
v -640 -1952 0
v -672 -1952 0
v -672 -1920 0
v -640 -1920 0
v -1408 -1952 0
v -1440 -1952 0
v -1440 -1920 0
v -1408 -1920 0
v -1440 -1952 0
v -1472 -1952 0
v -1472 -1920 0
v -1440 -1920 0
v -1472 -1952 0
v -1504 -1952 0
v -1504 -1920 0
v -1472 -1920 0
v -576 -1984 0
v -608 -1984 0
v -608 -1952 0
v -576 -1952 0
v -608 -1984 0
v -640 -1984 0
v -640 -1952 0
v -608 -1952 0
v -640 -1984 0
v -672 -1984 0
v -672 -1952 0
v -640 -1952 0
v -1408 -1984 0
v -1440 -1984 0
v -1440 -1952 0
v -1408 -1952 0
v -1440 -1984 0
v -1472 -1984 0
v -1472 -1952 0
v -1440 -1952 0
v -1472 -1984 0
v -1504 -1984 0
v -1504 -1952 0
v -1472 -1952 0
v -576 -2016 0
v -608 -2016 0
v -608 -1984 0
v -576 -1984 0
v -608 -2016 0
v -640 -2016 0
v -640 -1984 0
v -608 -1984 0
v -640 -2016 0
v -672 -2016 0
v -672 -1984 0
v -640 -1984 0
v -1408 -2016 0
v -1440 -2016 0
v -1440 -1984 0
v -1408 -1984 0
v -1440 -2016 0
v -1472 -2016 0
v -1472 -1984 0
v -1440 -1984 0
v -1472 -2016 0
v -1504 -2016 0
v -1504 -1984 0
v -1472 -1984 0
v -576 -2048 0
v -608 -2048 0
v -608 -2016 0
v -576 -2016 0
v -608 -2048 0
v -640 -2048 0
v -640 -2016 0
v -608 -2016 0
v -640 -2048 0
v -672 -2048 0
v -672 -2016 0
v -640 -2016 0
v -1408 -2048 0
v -1440 -2048 0
v -1440 -2016 0
v -1408 -2016 0
v -1440 -2048 0
v -1472 -2048 0
v -1472 -2016 0
v -1440 -2016 0
v -1472 -2048 0
v -1504 -2048 0
v -1504 -2016 0
v -1472 -2016 0
v -576 -2080 0
v -608 -2080 0
v -608 -2048 0
v -576 -2048 0
v -608 -2080 0
v -640 -2080 0
v -640 -2048 0
v -608 -2048 0
v -640 -2080 0
v -672 -2080 0
v -672 -2048 0
v -640 -2048 0
v -1408 -2080 0
v -1440 -2080 0
v -1440 -2048 0
v -1408 -2048 0
v -1440 -2080 0
v -1472 -2080 0
v -1472 -2048 0
v -1440 -2048 0
v -1472 -2080 0
v -1504 -2080 0
v -1504 -2048 0
v -1472 -2048 0
v -576 -2112 0
v -608 -2112 0
v -608 -2080 0
v -576 -2080 0
v -608 -2112 0
v -640 -2112 0
v -640 -2080 0
v -608 -2080 0
v -640 -2112 0
v -672 -2112 0
v -672 -2080 0
v -640 -2080 0
v -1408 -2112 0
v -1440 -2112 0
v -1440 -2080 0
v -1408 -2080 0
v -1440 -2112 0
v -1472 -2112 0
v -1472 -2080 0
v -1440 -2080 0
v -1472 -2112 0
v -1504 -2112 0
v -1504 -2080 0
v -1472 -2080 0
v -576 -2144 0
v -608 -2144 0
v -608 -2112 0
v -576 -2112 0
v -608 -2144 0
v -640 -2144 0
v -640 -2112 0
v -608 -2112 0
v -640 -2144 0
v -672 -2144 0
v -672 -2112 0
v -640 -2112 0
v -1408 -2144 0
v -1440 -2144 0
v -1440 -2112 0
v -1408 -2112 0
v -1440 -2144 0
v -1472 -2144 0
v -1472 -2112 0
v -1440 -2112 0
v -1472 -2144 0
v -1504 -2144 0
v -1504 -2112 0
v -1472 -2112 0
v -576 -2176 0
v -608 -2176 0
v -608 -2144 0
v -576 -2144 0
v -608 -2176 0
v -640 -2176 0
v -640 -2144 0
v -608 -2144 0
v -640 -2176 0
v -672 -2176 0
v -672 -2144 0
v -640 -2144 0
v -1408 -2176 0
v -1440 -2176 0
v -1440 -2144 0
v -1408 -2144 0
v -1440 -2176 0
v -1472 -2176 0
v -1472 -2144 0
v -1440 -2144 0
v -1472 -2176 0
v -1504 -2176 0
v -1504 -2144 0
v -1472 -2144 0
v -576 -2208 0
v -608 -2208 0
v -608 -2176 0
v -576 -2176 0
v -608 -2208 0
v -640 -2208 0
v -640 -2176 0
v -608 -2176 0
v -640 -2208 0
v -672 -2208 0
v -672 -2176 0
v -640 -2176 0
v -1408 -2208 0
v -1440 -2208 0
v -1440 -2176 0
v -1408 -2176 0
v -1440 -2208 0
v -1472 -2208 0
v -1472 -2176 0
v -1440 -2176 0
v -1472 -2208 0
v -1504 -2208 0
v -1504 -2176 0
v -1472 -2176 0
v -576 -2240 0
v -608 -2240 0
v -608 -2208 0
v -576 -2208 0
v -608 -2240 0
v -640 -2240 0
v -640 -2208 0
v -608 -2208 0
v -640 -2240 0
v -672 -2240 0
v -672 -2208 0
v -640 -2208 0
v -1408 -2240 0
v -1440 -2240 0
v -1440 -2208 0
v -1408 -2208 0
v -1440 -2240 0
v -1472 -2240 0
v -1472 -2208 0
v -1440 -2208 0
v -1472 -2240 0
v -1504 -2240 0
v -1504 -2208 0
v -1472 -2208 0
v -576 -2272 0
v -608 -2272 0
v -608 -2240 0
v -576 -2240 0
v -608 -2272 0
v -640 -2272 0
v -640 -2240 0
v -608 -2240 0
v -640 -2272 0
v -672 -2272 0
v -672 -2240 0
v -640 -2240 0
v -1408 -2272 0
v -1440 -2272 0
v -1440 -2240 0
v -1408 -2240 0
v -1440 -2272 0
v -1472 -2272 0
v -1472 -2240 0
v -1440 -2240 0
v -1472 -2272 0
v -1504 -2272 0
v -1504 -2240 0
v -1472 -2240 0
v -576 -2304 0
v -608 -2304 0
v -608 -2272 0
v -576 -2272 0
v -608 -2304 0
v -640 -2304 0
v -640 -2272 0
v -608 -2272 0
v -640 -2304 0
v -672 -2304 0
v -672 -2272 0
v -640 -2272 0
v -1408 -2304 0
v -1440 -2304 0
v -1440 -2272 0
v -1408 -2272 0
v -1440 -2304 0
v -1472 -2304 0
v -1472 -2272 0
v -1440 -2272 0
v -1472 -2304 0
v -1504 -2304 0
v -1504 -2272 0
v -1472 -2272 0
v -576 -2336 0
v -608 -2336 0
v -608 -2304 0
v -576 -2304 0
v -608 -2336 0
v -640 -2336 0
v -640 -2304 0
v -608 -2304 0
v -640 -2336 0
v -672 -2336 0
v -672 -2304 0
v -640 -2304 0
v -1408 -2336 0
v -1440 -2336 0
v -1440 -2304 0
v -1408 -2304 0
v -1440 -2336 0
v -1472 -2336 0
v -1472 -2304 0
v -1440 -2304 0
v -1472 -2336 0
v -1504 -2336 0
v -1504 -2304 0
v -1472 -2304 0
v -576 -2368 0
v -608 -2368 0
v -608 -2336 0
v -576 -2336 0
v -608 -2368 0
v -640 -2368 0
v -640 -2336 0
v -608 -2336 0
v -640 -2368 0
v -672 -2368 0
v -672 -2336 0
v -640 -2336 0
v -1408 -2368 0
v -1440 -2368 0
v -1440 -2336 0
v -1408 -2336 0
v -1440 -2368 0
v -1472 -2368 0
v -1472 -2336 0
v -1440 -2336 0
v -1472 -2368 0
v -1504 -2368 0
v -1504 -2336 0
v -1472 -2336 0
v -576 -2400 0
v -608 -2400 0
v -608 -2368 0
v -576 -2368 0
v -608 -2400 0
v -640 -2400 0
v -640 -2368 0
v -608 -2368 0
v -640 -2400 0
v -672 -2400 0
v -672 -2368 0
v -640 -2368 0
v -1408 -2400 0
v -1440 -2400 0
v -1440 -2368 0
v -1408 -2368 0
v -1440 -2400 0
v -1472 -2400 0
v -1472 -2368 0
v -1440 -2368 0
v -1472 -2400 0
v -1504 -2400 0
v -1504 -2368 0
v -1472 -2368 0
v -576 -2432 0
v -608 -2432 0
v -608 -2400 0
v -576 -2400 0
v -608 -2432 0
v -640 -2432 0
v -640 -2400 0
v -608 -2400 0
v -640 -2432 0
v -672 -2432 0
v -672 -2400 0
v -640 -2400 0
v -1408 -2432 0
v -1440 -2432 0
v -1440 -2400 0
v -1408 -2400 0
v -1440 -2432 0
v -1472 -2432 0
v -1472 -2400 0
v -1440 -2400 0
v -1472 -2432 0
v -1504 -2432 0
v -1504 -2400 0
v -1472 -2400 0
v 0 -2464 0
v -32 -2464 0
v -32 -2432 0
v 0 -2432 0
v -32 -2464 0
v -64 -2464 0
v -64 -2432 0
v -32 -2432 0
v -64 -2464 0
v -96 -2464 0
v -96 -2432 0
v -64 -2432 0
v -96 -2464 0
v -128 -2464 0
v -128 -2432 0
v -96 -2432 0
v -128 -2464 0
v -160 -2464 0
v -160 -2432 0
v -128 -2432 0
v -160 -2464 0
v -192 -2464 0
v -192 -2432 0
v -160 -2432 0
v -192 -2464 0
v -224 -2464 0
v -224 -2432 0
v -192 -2432 0
v -224 -2464 0
v -256 -2464 0
v -256 -2432 0
v -224 -2432 0
v -256 -2464 0
v -288 -2464 0
v -288 -2432 0
v -256 -2432 0
v -288 -2464 0
v -320 -2464 0
v -320 -2432 0
v -288 -2432 0
v -320 -2464 0
v -352 -2464 0
v -352 -2432 0
v -320 -2432 0
v -352 -2464 0
v -384 -2464 0
v -384 -2432 0
v -352 -2432 0
v -384 -2464 0
v -416 -2464 0
v -416 -2432 0
v -384 -2432 0
v -416 -2464 0
v -448 -2464 0
v -448 -2432 0
v -416 -2432 0
v -448 -2464 0
v -480 -2464 0
v -480 -2432 0
v -448 -2432 0
v -480 -2464 0
v -512 -2464 0
v -512 -2432 0
v -480 -2432 0
v -512 -2464 0
v -544 -2464 0
v -544 -2432 0
v -512 -2432 0
v -544 -2464 0
v -576 -2464 0
v -576 -2432 0
v -544 -2432 0
v -576 -2464 0
v -608 -2464 0
v -608 -2432 0
v -576 -2432 0
v -608 -2464 0
v -640 -2464 0
v -640 -2432 0
v -608 -2432 0
v -640 -2464 0
v -672 -2464 0
v -672 -2432 0
v -640 -2432 0
v -672 -2464 0
v -704 -2464 0
v -704 -2432 0
v -672 -2432 0
v -704 -2464 0
v -736 -2464 0
v -736 -2432 0
v -704 -2432 0
v -736 -2464 0
v -768 -2464 0
v -768 -2432 0
v -736 -2432 0
v -768 -2464 0
v -800 -2464 0
v -800 -2432 0
v -768 -2432 0
v -800 -2464 0
v -832 -2464 0
v -832 -2432 0
v -800 -2432 0
v -832 -2464 0
v -864 -2464 0
v -864 -2432 0
v -832 -2432 0
v -864 -2464 0
v -896 -2464 0
v -896 -2432 0
v -864 -2432 0
v -896 -2464 0
v -928 -2464 0
v -928 -2432 0
v -896 -2432 0
v -928 -2464 0
v -960 -2464 0
v -960 -2432 0
v -928 -2432 0
v -960 -2464 0
v -992 -2464 0
v -992 -2432 0
v -960 -2432 0
v -992 -2464 0
v -1024 -2464 0
v -1024 -2432 0
v -992 -2432 0
v -1024 -2464 0
v -1056 -2464 0
v -1056 -2432 0
v -1024 -2432 0
v -1056 -2464 0
v -1088 -2464 0
v -1088 -2432 0
v -1056 -2432 0
v -1088 -2464 0
v -1120 -2464 0
v -1120 -2432 0
v -1088 -2432 0
v -1120 -2464 0
v -1152 -2464 0
v -1152 -2432 0
v -1120 -2432 0
v -1152 -2464 0
v -1184 -2464 0
v -1184 -2432 0
v -1152 -2432 0
v -1184 -2464 0
v -1216 -2464 0
v -1216 -2432 0
v -1184 -2432 0
v -1216 -2464 0
v -1248 -2464 0
v -1248 -2432 0
v -1216 -2432 0
v -1248 -2464 0
v -1280 -2464 0
v -1280 -2432 0
v -1248 -2432 0
v -1280 -2464 0
v -1312 -2464 0
v -1312 -2432 0
v -1280 -2432 0
v -1312 -2464 0
v -1344 -2464 0
v -1344 -2432 0
v -1312 -2432 0
v -1344 -2464 0
v -1376 -2464 0
v -1376 -2432 0
v -1344 -2432 0
v -1376 -2464 0
v -1408 -2464 0
v -1408 -2432 0
v -1376 -2432 0
v 0 -2496 0
v -32 -2496 0
v -32 -2464 0
v 0 -2464 0
v -32 -2496 0
v -64 -2496 0
v -64 -2464 0
v -32 -2464 0
v -64 -2496 0
v -96 -2496 0
v -96 -2464 0
v -64 -2464 0
v -96 -2496 0
v -128 -2496 0
v -128 -2464 0
v -96 -2464 0
v -128 -2496 0
v -160 -2496 0
v -160 -2464 0
v -128 -2464 0
v -160 -2496 0
v -192 -2496 0
v -192 -2464 0
v -160 -2464 0
v -192 -2496 0
v -224 -2496 0
v -224 -2464 0
v -192 -2464 0
v -224 -2496 0
v -256 -2496 0
v -256 -2464 0
v -224 -2464 0
v -256 -2496 0
v -288 -2496 0
v -288 -2464 0
v -256 -2464 0
v -288 -2496 0
v -320 -2496 0
v -320 -2464 0
v -288 -2464 0
v -320 -2496 0
v -352 -2496 0
v -352 -2464 0
v -320 -2464 0
v -352 -2496 0
v -384 -2496 0
v -384 -2464 0
v -352 -2464 0
v -384 -2496 0
v -416 -2496 0
v -416 -2464 0
v -384 -2464 0
v -416 -2496 0
v -448 -2496 0
v -448 -2464 0
v -416 -2464 0
v -448 -2496 0
v -480 -2496 0
v -480 -2464 0
v -448 -2464 0
v -480 -2496 0
v -512 -2496 0
v -512 -2464 0
v -480 -2464 0
v -512 -2496 0
v -544 -2496 0
v -544 -2464 0
v -512 -2464 0
v -544 -2496 0
v -576 -2496 0
v -576 -2464 0
v -544 -2464 0
v -576 -2496 0
v -608 -2496 0
v -608 -2464 0
v -576 -2464 0
v -608 -2496 0
v -640 -2496 0
v -640 -2464 0
v -608 -2464 0
v -640 -2496 0
v -672 -2496 0
v -672 -2464 0
v -640 -2464 0
v -672 -2496 0
v -704 -2496 0
v -704 -2464 0
v -672 -2464 0
v -704 -2496 0
v -736 -2496 0
v -736 -2464 0
v -704 -2464 0
v -736 -2496 0
v -768 -2496 0
v -768 -2464 0
v -736 -2464 0
v -768 -2496 0
v -800 -2496 0
v -800 -2464 0
v -768 -2464 0
v -800 -2496 0
v -832 -2496 0
v -832 -2464 0
v -800 -2464 0
v -832 -2496 0
v -864 -2496 0
v -864 -2464 0
v -832 -2464 0
v -864 -2496 0
v -896 -2496 0
v -896 -2464 0
v -864 -2464 0
v -896 -2496 0
v -928 -2496 0
v -928 -2464 0
v -896 -2464 0
v -928 -2496 0
v -960 -2496 0
v -960 -2464 0
v -928 -2464 0
v -960 -2496 0
v -992 -2496 0
v -992 -2464 0
v -960 -2464 0
v -992 -2496 0
v -1024 -2496 0
v -1024 -2464 0
v -992 -2464 0
v -1024 -2496 0
v -1056 -2496 0
v -1056 -2464 0
v -1024 -2464 0
v -1056 -2496 0
v -1088 -2496 0
v -1088 -2464 0
v -1056 -2464 0
v -1088 -2496 0
v -1120 -2496 0
v -1120 -2464 0
v -1088 -2464 0
v -1120 -2496 0
v -1152 -2496 0
v -1152 -2464 0
v -1120 -2464 0
v -1152 -2496 0
v -1184 -2496 0
v -1184 -2464 0
v -1152 -2464 0
v -1184 -2496 0
v -1216 -2496 0
v -1216 -2464 0
v -1184 -2464 0
v -1216 -2496 0
v -1248 -2496 0
v -1248 -2464 0
v -1216 -2464 0
v -1248 -2496 0
v -1280 -2496 0
v -1280 -2464 0
v -1248 -2464 0
v -1280 -2496 0
v -1312 -2496 0
v -1312 -2464 0
v -1280 -2464 0
v -1312 -2496 0
v -1344 -2496 0
v -1344 -2464 0
v -1312 -2464 0
v -1344 -2496 0
v -1376 -2496 0
v -1376 -2464 0
v -1344 -2464 0
v -1376 -2496 0
v -1408 -2496 0
v -1408 -2464 0
v -1376 -2464 0
v 0 -2528 0
v -32 -2528 0
v -32 -2496 0
v 0 -2496 0
v -32 -2528 0
v -64 -2528 0
v -64 -2496 0
v -32 -2496 0
v -64 -2528 0
v -96 -2528 0
v -96 -2496 0
v -64 -2496 0
v -96 -2528 0
v -128 -2528 0
v -128 -2496 0
v -96 -2496 0
v -128 -2528 0
v -160 -2528 0
v -160 -2496 0
v -128 -2496 0
v -160 -2528 0
v -192 -2528 0
v -192 -2496 0
v -160 -2496 0
v -192 -2528 0
v -224 -2528 0
v -224 -2496 0
v -192 -2496 0
v -224 -2528 0
v -256 -2528 0
v -256 -2496 0
v -224 -2496 0
v -256 -2528 0
v -288 -2528 0
v -288 -2496 0
v -256 -2496 0
v -288 -2528 0
v -320 -2528 0
v -320 -2496 0
v -288 -2496 0
v -320 -2528 0
v -352 -2528 0
v -352 -2496 0
v -320 -2496 0
v -352 -2528 0
v -384 -2528 0
v -384 -2496 0
v -352 -2496 0
v -384 -2528 0
v -416 -2528 0
v -416 -2496 0
v -384 -2496 0
v -416 -2528 0
v -448 -2528 0
v -448 -2496 0
v -416 -2496 0
v -448 -2528 0
v -480 -2528 0
v -480 -2496 0
v -448 -2496 0
v -480 -2528 0
v -512 -2528 0
v -512 -2496 0
v -480 -2496 0
v -512 -2528 0
v -544 -2528 0
v -544 -2496 0
v -512 -2496 0
v -544 -2528 0
v -576 -2528 0
v -576 -2496 0
v -544 -2496 0
v -576 -2528 0
v -608 -2528 0
v -608 -2496 0
v -576 -2496 0
v -608 -2528 0
v -640 -2528 0
v -640 -2496 0
v -608 -2496 0
v -640 -2528 0
v -672 -2528 0
v -672 -2496 0
v -640 -2496 0
v -672 -2528 0
v -704 -2528 0
v -704 -2496 0
v -672 -2496 0
v -704 -2528 0
v -736 -2528 0
v -736 -2496 0
v -704 -2496 0
v -736 -2528 0
v -768 -2528 0
v -768 -2496 0
v -736 -2496 0
v -768 -2528 0
v -800 -2528 0
v -800 -2496 0
v -768 -2496 0
v -800 -2528 0
v -832 -2528 0
v -832 -2496 0
v -800 -2496 0
v -832 -2528 0
v -864 -2528 0
v -864 -2496 0
v -832 -2496 0
v -864 -2528 0
v -896 -2528 0
v -896 -2496 0
v -864 -2496 0
v -896 -2528 0
v -928 -2528 0
v -928 -2496 0
v -896 -2496 0
v -928 -2528 0
v -960 -2528 0
v -960 -2496 0
v -928 -2496 0
v -960 -2528 0
v -992 -2528 0
v -992 -2496 0
v -960 -2496 0
v -992 -2528 0
v -1024 -2528 0
v -1024 -2496 0
v -992 -2496 0
v -1024 -2528 0
v -1056 -2528 0
v -1056 -2496 0
v -1024 -2496 0
v -1056 -2528 0
v -1088 -2528 0
v -1088 -2496 0
v -1056 -2496 0
v -1088 -2528 0
v -1120 -2528 0
v -1120 -2496 0
v -1088 -2496 0
v -1120 -2528 0
v -1152 -2528 0
v -1152 -2496 0
v -1120 -2496 0
v -1152 -2528 0
v -1184 -2528 0
v -1184 -2496 0
v -1152 -2496 0
v -1184 -2528 0
v -1216 -2528 0
v -1216 -2496 0
v -1184 -2496 0
v -1216 -2528 0
v -1248 -2528 0
v -1248 -2496 0
v -1216 -2496 0
v -1248 -2528 0
v -1280 -2528 0
v -1280 -2496 0
v -1248 -2496 0
v -1280 -2528 0
v -1312 -2528 0
v -1312 -2496 0
v -1280 -2496 0
v -1312 -2528 0
v -1344 -2528 0
v -1344 -2496 0
v -1312 -2496 0
v -1344 -2528 0
v -1376 -2528 0
v -1376 -2496 0
v -1344 -2496 0
v -1376 -2528 0
v -1408 -2528 0
v -1408 -2496 0
v -1376 -2496 0

# Texture cooridinates (Count = 4)
vt 0.1006289 0.8162428
vt 0.05031446 0.8162428
vt 0.05031446 0.8424938
vt 0.1006289 0.8424938

# Normal
vn 0 0 -1

# Mesh description
g CrashCity_mesh_0005

# Faces
f 1/1/1 2/2/1 3/3/1 4/4/1
f 5/1/1 6/2/1 7/3/1 8/4/1
f 9/1/1 10/2/1 11/3/1 12/4/1
f 13/1/1 14/2/1 15/3/1 16/4/1
f 17/1/1 18/2/1 19/3/1 20/4/1
f 21/1/1 22/2/1 23/3/1 24/4/1
f 25/1/1 26/2/1 27/3/1 28/4/1
f 29/1/1 30/2/1 31/3/1 32/4/1
f 33/1/1 34/2/1 35/3/1 36/4/1
f 37/1/1 38/2/1 39/3/1 40/4/1
f 41/1/1 42/2/1 43/3/1 44/4/1
f 45/1/1 46/2/1 47/3/1 48/4/1
f 49/1/1 50/2/1 51/3/1 52/4/1
f 53/1/1 54/2/1 55/3/1 56/4/1
f 57/1/1 58/2/1 59/3/1 60/4/1
f 61/1/1 62/2/1 63/3/1 64/4/1
f 65/1/1 66/2/1 67/3/1 68/4/1
f 69/1/1 70/2/1 71/3/1 72/4/1
f 73/1/1 74/2/1 75/3/1 76/4/1
f 77/1/1 78/2/1 79/3/1 80/4/1
f 81/1/1 82/2/1 83/3/1 84/4/1
f 85/1/1 86/2/1 87/3/1 88/4/1
f 89/1/1 90/2/1 91/3/1 92/4/1
f 93/1/1 94/2/1 95/3/1 96/4/1
f 97/1/1 98/2/1 99/3/1 100/4/1
f 101/1/1 102/2/1 103/3/1 104/4/1
f 105/1/1 106/2/1 107/3/1 108/4/1
f 109/1/1 110/2/1 111/3/1 112/4/1
f 113/1/1 114/2/1 115/3/1 116/4/1
f 117/1/1 118/2/1 119/3/1 120/4/1
f 121/1/1 122/2/1 123/3/1 124/4/1
f 125/1/1 126/2/1 127/3/1 128/4/1
f 129/1/1 130/2/1 131/3/1 132/4/1
f 133/1/1 134/2/1 135/3/1 136/4/1
f 137/1/1 138/2/1 139/3/1 140/4/1
f 141/1/1 142/2/1 143/3/1 144/4/1
f 145/1/1 146/2/1 147/3/1 148/4/1
f 149/1/1 150/2/1 151/3/1 152/4/1
f 153/1/1 154/2/1 155/3/1 156/4/1
f 157/1/1 158/2/1 159/3/1 160/4/1
f 161/1/1 162/2/1 163/3/1 164/4/1
f 165/1/1 166/2/1 167/3/1 168/4/1
f 169/1/1 170/2/1 171/3/1 172/4/1
f 173/1/1 174/2/1 175/3/1 176/4/1
f 177/1/1 178/2/1 179/3/1 180/4/1
f 181/1/1 182/2/1 183/3/1 184/4/1
f 185/1/1 186/2/1 187/3/1 188/4/1
f 189/1/1 190/2/1 191/3/1 192/4/1
f 193/1/1 194/2/1 195/3/1 196/4/1
f 197/1/1 198/2/1 199/3/1 200/4/1
f 201/1/1 202/2/1 203/3/1 204/4/1
f 205/1/1 206/2/1 207/3/1 208/4/1
f 209/1/1 210/2/1 211/3/1 212/4/1
f 213/1/1 214/2/1 215/3/1 216/4/1
f 217/1/1 218/2/1 219/3/1 220/4/1
f 221/1/1 222/2/1 223/3/1 224/4/1
f 225/1/1 226/2/1 227/3/1 228/4/1
f 229/1/1 230/2/1 231/3/1 232/4/1
f 233/1/1 234/2/1 235/3/1 236/4/1
f 237/1/1 238/2/1 239/3/1 240/4/1
f 241/1/1 242/2/1 243/3/1 244/4/1
f 245/1/1 246/2/1 247/3/1 248/4/1
f 249/1/1 250/2/1 251/3/1 252/4/1
f 253/1/1 254/2/1 255/3/1 256/4/1
f 257/1/1 258/2/1 259/3/1 260/4/1
f 261/1/1 262/2/1 263/3/1 264/4/1
f 265/1/1 266/2/1 267/3/1 268/4/1
f 269/4/1 270/1/1 271/2/1 272/3/1
f 273/4/1 274/1/1 275/2/1 276/3/1
f 277/4/1 278/1/1 279/2/1 280/3/1
f 281/4/1 282/1/1 283/2/1 284/3/1
f 285/4/1 286/1/1 287/2/1 288/3/1
f 289/4/1 290/1/1 291/2/1 292/3/1
f 293/4/1 294/1/1 295/2/1 296/3/1
f 297/4/1 298/1/1 299/2/1 300/3/1
f 301/4/1 302/1/1 303/2/1 304/3/1
f 305/4/1 306/1/1 307/2/1 308/3/1
f 309/4/1 310/1/1 311/2/1 312/3/1
f 313/4/1 314/1/1 315/2/1 316/3/1
f 317/4/1 318/1/1 319/2/1 320/3/1
f 321/4/1 322/1/1 323/2/1 324/3/1
f 325/4/1 326/1/1 327/2/1 328/3/1
f 329/4/1 330/1/1 331/2/1 332/3/1
f 333/4/1 334/1/1 335/2/1 336/3/1
f 337/4/1 338/1/1 339/2/1 340/3/1
f 341/4/1 342/1/1 343/2/1 344/3/1
f 345/4/1 346/1/1 347/2/1 348/3/1
f 349/4/1 350/1/1 351/2/1 352/3/1
f 353/4/1 354/1/1 355/2/1 356/3/1
f 357/4/1 358/1/1 359/2/1 360/3/1
f 361/4/1 362/1/1 363/2/1 364/3/1
f 365/4/1 366/1/1 367/2/1 368/3/1
f 369/4/1 370/1/1 371/2/1 372/3/1
f 373/4/1 374/1/1 375/2/1 376/3/1
f 377/4/1 378/1/1 379/2/1 380/3/1
f 381/4/1 382/1/1 383/2/1 384/3/1
f 385/4/1 386/1/1 387/2/1 388/3/1
f 389/1/1 390/2/1 391/3/1 392/4/1
f 393/4/1 394/1/1 395/2/1 396/3/1
f 397/4/1 398/1/1 399/2/1 400/3/1
f 401/4/1 402/1/1 403/2/1 404/3/1
f 405/1/1 406/2/1 407/3/1 408/4/1
f 409/4/1 410/1/1 411/2/1 412/3/1
f 413/4/1 414/1/1 415/2/1 416/3/1
f 417/4/1 418/1/1 419/2/1 420/3/1
f 421/1/1 422/2/1 423/3/1 424/4/1
f 425/1/1 426/2/1 427/3/1 428/4/1
f 429/4/1 430/1/1 431/2/1 432/3/1
f 433/4/1 434/1/1 435/2/1 436/3/1
f 437/4/1 438/1/1 439/2/1 440/3/1
f 441/1/1 442/2/1 443/3/1 444/4/1
f 445/1/1 446/2/1 447/3/1 448/4/1
f 449/1/1 450/2/1 451/3/1 452/4/1
f 453/4/1 454/1/1 455/2/1 456/3/1
f 457/4/1 458/1/1 459/2/1 460/3/1
f 461/4/1 462/1/1 463/2/1 464/3/1
f 465/1/1 466/2/1 467/3/1 468/4/1
f 469/1/1 470/2/1 471/3/1 472/4/1
f 473/1/1 474/2/1 475/3/1 476/4/1
f 477/1/1 478/2/1 479/3/1 480/4/1
f 481/1/1 482/2/1 483/3/1 484/4/1
f 485/1/1 486/2/1 487/3/1 488/4/1
f 489/1/1 490/2/1 491/3/1 492/4/1
f 493/1/1 494/2/1 495/3/1 496/4/1
f 497/1/1 498/2/1 499/3/1 500/4/1
f 501/1/1 502/2/1 503/3/1 504/4/1
f 505/1/1 506/2/1 507/3/1 508/4/1
f 509/1/1 510/2/1 511/3/1 512/4/1
f 513/1/1 514/2/1 515/3/1 516/4/1
f 517/1/1 518/2/1 519/3/1 520/4/1
f 521/1/1 522/2/1 523/3/1 524/4/1
f 525/1/1 526/2/1 527/3/1 528/4/1
f 529/1/1 530/2/1 531/3/1 532/4/1
f 533/1/1 534/2/1 535/3/1 536/4/1
f 537/1/1 538/2/1 539/3/1 540/4/1
f 541/1/1 542/2/1 543/3/1 544/4/1
f 545/1/1 546/2/1 547/3/1 548/4/1
f 549/1/1 550/2/1 551/3/1 552/4/1
f 553/1/1 554/2/1 555/3/1 556/4/1
f 557/1/1 558/2/1 559/3/1 560/4/1
f 561/1/1 562/2/1 563/3/1 564/4/1
f 565/1/1 566/2/1 567/3/1 568/4/1
f 569/1/1 570/2/1 571/3/1 572/4/1
f 573/1/1 574/2/1 575/3/1 576/4/1
f 577/1/1 578/2/1 579/3/1 580/4/1
f 581/1/1 582/2/1 583/3/1 584/4/1
f 585/1/1 586/2/1 587/3/1 588/4/1
f 589/1/1 590/2/1 591/3/1 592/4/1
f 593/1/1 594/2/1 595/3/1 596/4/1
f 597/1/1 598/2/1 599/3/1 600/4/1
f 601/1/1 602/2/1 603/3/1 604/4/1
f 605/1/1 606/2/1 607/3/1 608/4/1
f 609/1/1 610/2/1 611/3/1 612/4/1
f 613/1/1 614/2/1 615/3/1 616/4/1
f 617/1/1 618/2/1 619/3/1 620/4/1
f 621/1/1 622/2/1 623/3/1 624/4/1
f 625/1/1 626/2/1 627/3/1 628/4/1
f 629/1/1 630/2/1 631/3/1 632/4/1
f 633/1/1 634/2/1 635/3/1 636/4/1
f 637/1/1 638/2/1 639/3/1 640/4/1
f 641/1/1 642/2/1 643/3/1 644/4/1
f 645/1/1 646/2/1 647/3/1 648/4/1
f 649/1/1 650/2/1 651/3/1 652/4/1
f 653/1/1 654/2/1 655/3/1 656/4/1
f 657/1/1 658/2/1 659/3/1 660/4/1
f 661/1/1 662/2/1 663/3/1 664/4/1
f 665/1/1 666/2/1 667/3/1 668/4/1
f 669/1/1 670/2/1 671/3/1 672/4/1
f 673/1/1 674/2/1 675/3/1 676/4/1
f 677/1/1 678/2/1 679/3/1 680/4/1
f 681/1/1 682/2/1 683/3/1 684/4/1
f 685/1/1 686/2/1 687/3/1 688/4/1
f 689/1/1 690/2/1 691/3/1 692/4/1
f 693/1/1 694/2/1 695/3/1 696/4/1
f 697/1/1 698/2/1 699/3/1 700/4/1
f 701/1/1 702/2/1 703/3/1 704/4/1
f 705/1/1 706/2/1 707/3/1 708/4/1
f 709/1/1 710/2/1 711/3/1 712/4/1
f 713/1/1 714/2/1 715/3/1 716/4/1
f 717/1/1 718/2/1 719/3/1 720/4/1
f 721/1/1 722/2/1 723/3/1 724/4/1
f 725/1/1 726/2/1 727/3/1 728/4/1
f 729/1/1 730/2/1 731/3/1 732/4/1
f 733/1/1 734/2/1 735/3/1 736/4/1
f 737/1/1 738/2/1 739/3/1 740/4/1
f 741/1/1 742/2/1 743/3/1 744/4/1
f 745/1/1 746/2/1 747/3/1 748/4/1
f 749/1/1 750/2/1 751/3/1 752/4/1
f 753/1/1 754/2/1 755/3/1 756/4/1
f 757/1/1 758/2/1 759/3/1 760/4/1
f 761/1/1 762/2/1 763/3/1 764/4/1
f 765/1/1 766/2/1 767/3/1 768/4/1
f 769/1/1 770/2/1 771/3/1 772/4/1
f 773/1/1 774/2/1 775/3/1 776/4/1
f 777/1/1 778/2/1 779/3/1 780/4/1
f 781/1/1 782/2/1 783/3/1 784/4/1
f 785/1/1 786/2/1 787/3/1 788/4/1
f 789/1/1 790/2/1 791/3/1 792/4/1
f 793/1/1 794/2/1 795/3/1 796/4/1
f 797/1/1 798/2/1 799/3/1 800/4/1
f 801/1/1 802/2/1 803/3/1 804/4/1
f 805/1/1 806/2/1 807/3/1 808/4/1
f 809/1/1 810/2/1 811/3/1 812/4/1
f 813/1/1 814/2/1 815/3/1 816/4/1
f 817/1/1 818/2/1 819/3/1 820/4/1
f 821/1/1 822/2/1 823/3/1 824/4/1
f 825/1/1 826/2/1 827/3/1 828/4/1
f 829/1/1 830/2/1 831/3/1 832/4/1
f 833/1/1 834/2/1 835/3/1 836/4/1
f 837/1/1 838/2/1 839/3/1 840/4/1
f 841/1/1 842/2/1 843/3/1 844/4/1
f 845/1/1 846/2/1 847/3/1 848/4/1
f 849/1/1 850/2/1 851/3/1 852/4/1
f 853/1/1 854/2/1 855/3/1 856/4/1
f 857/1/1 858/2/1 859/3/1 860/4/1
f 861/1/1 862/2/1 863/3/1 864/4/1
f 865/1/1 866/2/1 867/3/1 868/4/1
f 869/1/1 870/2/1 871/3/1 872/4/1
f 873/1/1 874/2/1 875/3/1 876/4/1
f 877/1/1 878/2/1 879/3/1 880/4/1
f 881/1/1 882/2/1 883/3/1 884/4/1
f 885/1/1 886/2/1 887/3/1 888/4/1
f 889/1/1 890/2/1 891/3/1 892/4/1
f 893/1/1 894/2/1 895/3/1 896/4/1
f 897/1/1 898/2/1 899/3/1 900/4/1
f 901/1/1 902/2/1 903/3/1 904/4/1
f 905/1/1 906/2/1 907/3/1 908/4/1
f 909/1/1 910/2/1 911/3/1 912/4/1
f 913/1/1 914/2/1 915/3/1 916/4/1
f 917/1/1 918/2/1 919/3/1 920/4/1
f 921/1/1 922/2/1 923/3/1 924/4/1
f 925/1/1 926/2/1 927/3/1 928/4/1
f 929/1/1 930/2/1 931/3/1 932/4/1
f 933/1/1 934/2/1 935/3/1 936/4/1
f 937/1/1 938/2/1 939/3/1 940/4/1
f 941/1/1 942/2/1 943/3/1 944/4/1
f 945/1/1 946/2/1 947/3/1 948/4/1
f 949/1/1 950/2/1 951/3/1 952/4/1
f 953/1/1 954/2/1 955/3/1 956/4/1
f 957/1/1 958/2/1 959/3/1 960/4/1
f 961/1/1 962/2/1 963/3/1 964/4/1
f 965/1/1 966/2/1 967/3/1 968/4/1
f 969/1/1 970/2/1 971/3/1 972/4/1
f 973/1/1 974/2/1 975/3/1 976/4/1
f 977/1/1 978/2/1 979/3/1 980/4/1
f 981/1/1 982/2/1 983/3/1 984/4/1
f 985/1/1 986/2/1 987/3/1 988/4/1
f 989/1/1 990/2/1 991/3/1 992/4/1
f 993/1/1 994/2/1 995/3/1 996/4/1
f 997/1/1 998/2/1 999/3/1 1000/4/1
f 1001/1/1 1002/2/1 1003/3/1 1004/4/1
f 1005/1/1 1006/2/1 1007/3/1 1008/4/1
f 1009/1/1 1010/2/1 1011/3/1 1012/4/1
f 1013/1/1 1014/2/1 1015/3/1 1016/4/1
f 1017/1/1 1018/2/1 1019/3/1 1020/4/1
f 1021/1/1 1022/2/1 1023/3/1 1024/4/1
f 1025/1/1 1026/2/1 1027/3/1 1028/4/1
f 1029/1/1 1030/2/1 1031/3/1 1032/4/1
f 1033/1/1 1034/2/1 1035/3/1 1036/4/1
f 1037/1/1 1038/2/1 1039/3/1 1040/4/1
f 1041/1/1 1042/2/1 1043/3/1 1044/4/1
f 1045/1/1 1046/2/1 1047/3/1 1048/4/1
f 1049/1/1 1050/2/1 1051/3/1 1052/4/1
f 1053/1/1 1054/2/1 1055/3/1 1056/4/1
f 1057/1/1 1058/2/1 1059/3/1 1060/4/1
f 1061/1/1 1062/2/1 1063/3/1 1064/4/1
f 1065/1/1 1066/2/1 1067/3/1 1068/4/1
f 1069/1/1 1070/2/1 1071/3/1 1072/4/1
f 1073/1/1 1074/2/1 1075/3/1 1076/4/1
f 1077/1/1 1078/2/1 1079/3/1 1080/4/1
f 1081/1/1 1082/2/1 1083/3/1 1084/4/1
f 1085/1/1 1086/2/1 1087/3/1 1088/4/1
f 1089/1/1 1090/2/1 1091/3/1 1092/4/1
f 1093/1/1 1094/2/1 1095/3/1 1096/4/1
f 1097/1/1 1098/2/1 1099/3/1 1100/4/1
f 1101/1/1 1102/2/1 1103/3/1 1104/4/1
f 1105/1/1 1106/2/1 1107/3/1 1108/4/1
f 1109/1/1 1110/2/1 1111/3/1 1112/4/1
f 1113/1/1 1114/2/1 1115/3/1 1116/4/1
f 1117/1/1 1118/2/1 1119/3/1 1120/4/1
f 1121/1/1 1122/2/1 1123/3/1 1124/4/1
f 1125/1/1 1126/2/1 1127/3/1 1128/4/1
f 1129/1/1 1130/2/1 1131/3/1 1132/4/1
f 1133/1/1 1134/2/1 1135/3/1 1136/4/1
f 1137/1/1 1138/2/1 1139/3/1 1140/4/1
f 1141/1/1 1142/2/1 1143/3/1 1144/4/1
f 1145/1/1 1146/2/1 1147/3/1 1148/4/1
f 1149/1/1 1150/2/1 1151/3/1 1152/4/1
f 1153/1/1 1154/2/1 1155/3/1 1156/4/1
f 1157/1/1 1158/2/1 1159/3/1 1160/4/1
f 1161/1/1 1162/2/1 1163/3/1 1164/4/1
f 1165/1/1 1166/2/1 1167/3/1 1168/4/1
f 1169/1/1 1170/2/1 1171/3/1 1172/4/1
f 1173/1/1 1174/2/1 1175/3/1 1176/4/1
f 1177/1/1 1178/2/1 1179/3/1 1180/4/1
f 1181/1/1 1182/2/1 1183/3/1 1184/4/1
f 1185/1/1 1186/2/1 1187/3/1 1188/4/1
f 1189/1/1 1190/2/1 1191/3/1 1192/4/1
f 1193/1/1 1194/2/1 1195/3/1 1196/4/1
f 1197/1/1 1198/2/1 1199/3/1 1200/4/1
f 1201/1/1 1202/2/1 1203/3/1 1204/4/1
f 1205/1/1 1206/2/1 1207/3/1 1208/4/1
f 1209/1/1 1210/2/1 1211/3/1 1212/4/1
f 1213/1/1 1214/2/1 1215/3/1 1216/4/1
f 1217/1/1 1218/2/1 1219/3/1 1220/4/1
f 1221/1/1 1222/2/1 1223/3/1 1224/4/1
f 1225/1/1 1226/2/1 1227/3/1 1228/4/1
f 1229/1/1 1230/2/1 1231/3/1 1232/4/1
f 1233/1/1 1234/2/1 1235/3/1 1236/4/1
f 1237/1/1 1238/2/1 1239/3/1 1240/4/1
f 1241/1/1 1242/2/1 1243/3/1 1244/4/1
f 1245/1/1 1246/2/1 1247/3/1 1248/4/1
f 1249/1/1 1250/2/1 1251/3/1 1252/4/1
f 1253/1/1 1254/2/1 1255/3/1 1256/4/1
f 1257/1/1 1258/2/1 1259/3/1 1260/4/1
f 1261/1/1 1262/2/1 1263/3/1 1264/4/1
f 1265/1/1 1266/2/1 1267/3/1 1268/4/1
f 1269/1/1 1270/2/1 1271/3/1 1272/4/1
f 1273/1/1 1274/2/1 1275/3/1 1276/4/1
f 1277/1/1 1278/2/1 1279/3/1 1280/4/1
f 1281/1/1 1282/2/1 1283/3/1 1284/4/1
f 1285/1/1 1286/2/1 1287/3/1 1288/4/1
f 1289/1/1 1290/2/1 1291/3/1 1292/4/1
f 1293/1/1 1294/2/1 1295/3/1 1296/4/1
f 1297/1/1 1298/2/1 1299/3/1 1300/4/1
f 1301/1/1 1302/2/1 1303/3/1 1304/4/1
f 1305/1/1 1306/2/1 1307/3/1 1308/4/1
f 1309/1/1 1310/2/1 1311/3/1 1312/4/1
f 1313/1/1 1314/2/1 1315/3/1 1316/4/1
f 1317/1/1 1318/2/1 1319/3/1 1320/4/1
f 1321/1/1 1322/2/1 1323/3/1 1324/4/1
f 1325/1/1 1326/2/1 1327/3/1 1328/4/1
f 1329/1/1 1330/2/1 1331/3/1 1332/4/1
f 1333/1/1 1334/2/1 1335/3/1 1336/4/1
f 1337/1/1 1338/2/1 1339/3/1 1340/4/1
f 1341/1/1 1342/2/1 1343/3/1 1344/4/1
f 1345/1/1 1346/2/1 1347/3/1 1348/4/1
f 1349/1/1 1350/2/1 1351/3/1 1352/4/1
f 1353/1/1 1354/2/1 1355/3/1 1356/4/1
f 1357/1/1 1358/2/1 1359/3/1 1360/4/1
f 1361/1/1 1362/2/1 1363/3/1 1364/4/1
f 1365/1/1 1366/2/1 1367/3/1 1368/4/1
f 1369/1/1 1370/2/1 1371/3/1 1372/4/1
f 1373/1/1 1374/2/1 1375/3/1 1376/4/1
f 1377/1/1 1378/2/1 1379/3/1 1380/4/1
f 1381/1/1 1382/2/1 1383/3/1 1384/4/1
f 1385/1/1 1386/2/1 1387/3/1 1388/4/1
f 1389/1/1 1390/2/1 1391/3/1 1392/4/1
f 1393/1/1 1394/2/1 1395/3/1 1396/4/1
f 1397/1/1 1398/2/1 1399/3/1 1400/4/1
f 1401/1/1 1402/2/1 1403/3/1 1404/4/1
f 1405/1/1 1406/2/1 1407/3/1 1408/4/1
f 1409/1/1 1410/2/1 1411/3/1 1412/4/1
f 1413/1/1 1414/2/1 1415/3/1 1416/4/1
f 1417/1/1 1418/2/1 1419/3/1 1420/4/1
f 1421/1/1 1422/2/1 1423/3/1 1424/4/1
f 1425/1/1 1426/2/1 1427/3/1 1428/4/1
f 1429/1/1 1430/2/1 1431/3/1 1432/4/1
f 1433/1/1 1434/2/1 1435/3/1 1436/4/1
f 1437/1/1 1438/2/1 1439/3/1 1440/4/1
f 1441/1/1 1442/2/1 1443/3/1 1444/4/1
f 1445/1/1 1446/2/1 1447/3/1 1448/4/1
f 1449/1/1 1450/2/1 1451/3/1 1452/4/1
f 1453/1/1 1454/2/1 1455/3/1 1456/4/1
f 1457/1/1 1458/2/1 1459/3/1 1460/4/1
f 1461/1/1 1462/2/1 1463/3/1 1464/4/1
f 1465/1/1 1466/2/1 1467/3/1 1468/4/1
f 1469/1/1 1470/2/1 1471/3/1 1472/4/1
f 1473/1/1 1474/2/1 1475/3/1 1476/4/1
f 1477/1/1 1478/2/1 1479/3/1 1480/4/1
f 1481/1/1 1482/2/1 1483/3/1 1484/4/1
f 1485/1/1 1486/2/1 1487/3/1 1488/4/1
f 1489/1/1 1490/2/1 1491/3/1 1492/4/1
f 1493/1/1 1494/2/1 1495/3/1 1496/4/1
f 1497/1/1 1498/2/1 1499/3/1 1500/4/1
f 1501/1/1 1502/2/1 1503/3/1 1504/4/1
f 1505/1/1 1506/2/1 1507/3/1 1508/4/1
f 1509/1/1 1510/2/1 1511/3/1 1512/4/1
f 1513/1/1 1514/2/1 1515/3/1 1516/4/1
f 1517/1/1 1518/2/1 1519/3/1 1520/4/1
f 1521/1/1 1522/2/1 1523/3/1 1524/4/1
f 1525/1/1 1526/2/1 1527/3/1 1528/4/1
f 1529/1/1 1530/2/1 1531/3/1 1532/4/1
f 1533/1/1 1534/2/1 1535/3/1 1536/4/1
f 1537/1/1 1538/2/1 1539/3/1 1540/4/1
f 1541/1/1 1542/2/1 1543/3/1 1544/4/1
f 1545/1/1 1546/2/1 1547/3/1 1548/4/1
f 1549/1/1 1550/2/1 1551/3/1 1552/4/1
f 1553/1/1 1554/2/1 1555/3/1 1556/4/1
f 1557/1/1 1558/2/1 1559/3/1 1560/4/1
f 1561/1/1 1562/2/1 1563/3/1 1564/4/1
f 1565/1/1 1566/2/1 1567/3/1 1568/4/1
f 1569/1/1 1570/2/1 1571/3/1 1572/4/1
f 1573/1/1 1574/2/1 1575/3/1 1576/4/1
f 1577/1/1 1578/2/1 1579/3/1 1580/4/1
f 1581/1/1 1582/2/1 1583/3/1 1584/4/1
f 1585/1/1 1586/2/1 1587/3/1 1588/4/1
f 1589/1/1 1590/2/1 1591/3/1 1592/4/1
f 1593/1/1 1594/2/1 1595/3/1 1596/4/1
f 1597/1/1 1598/2/1 1599/3/1 1600/4/1
f 1601/1/1 1602/2/1 1603/3/1 1604/4/1
f 1605/1/1 1606/2/1 1607/3/1 1608/4/1
f 1609/1/1 1610/2/1 1611/3/1 1612/4/1
f 1613/1/1 1614/2/1 1615/3/1 1616/4/1
f 1617/1/1 1618/2/1 1619/3/1 1620/4/1
f 1621/1/1 1622/2/1 1623/3/1 1624/4/1
f 1625/1/1 1626/2/1 1627/3/1 1628/4/1
f 1629/1/1 1630/2/1 1631/3/1 1632/4/1
f 1633/1/1 1634/2/1 1635/3/1 1636/4/1
f 1637/1/1 1638/2/1 1639/3/1 1640/4/1
f 1641/1/1 1642/2/1 1643/3/1 1644/4/1
f 1645/1/1 1646/2/1 1647/3/1 1648/4/1
f 1649/1/1 1650/2/1 1651/3/1 1652/4/1
f 1653/1/1 1654/2/1 1655/3/1 1656/4/1
f 1657/1/1 1658/2/1 1659/3/1 1660/4/1
f 1661/1/1 1662/2/1 1663/3/1 1664/4/1
f 1665/1/1 1666/2/1 1667/3/1 1668/4/1
f 1669/1/1 1670/2/1 1671/3/1 1672/4/1
f 1673/1/1 1674/2/1 1675/3/1 1676/4/1
f 1677/1/1 1678/2/1 1679/3/1 1680/4/1
f 1681/1/1 1682/2/1 1683/3/1 1684/4/1
f 1685/1/1 1686/2/1 1687/3/1 1688/4/1
f 1689/1/1 1690/2/1 1691/3/1 1692/4/1
f 1693/1/1 1694/2/1 1695/3/1 1696/4/1
f 1697/1/1 1698/2/1 1699/3/1 1700/4/1
f 1701/1/1 1702/2/1 1703/3/1 1704/4/1
f 1705/1/1 1706/2/1 1707/3/1 1708/4/1
f 1709/1/1 1710/2/1 1711/3/1 1712/4/1
f 1713/1/1 1714/2/1 1715/3/1 1716/4/1
f 1717/1/1 1718/2/1 1719/3/1 1720/4/1
f 1721/1/1 1722/2/1 1723/3/1 1724/4/1
f 1725/1/1 1726/2/1 1727/3/1 1728/4/1
f 1729/4/1 1730/1/1 1731/2/1 1732/3/1
f 1733/4/1 1734/1/1 1735/2/1 1736/3/1
f 1737/4/1 1738/1/1 1739/2/1 1740/3/1
f 1741/4/1 1742/1/1 1743/2/1 1744/3/1
f 1745/4/1 1746/1/1 1747/2/1 1748/3/1
f 1749/4/1 1750/1/1 1751/2/1 1752/3/1
f 1753/4/1 1754/1/1 1755/2/1 1756/3/1
f 1757/4/1 1758/1/1 1759/2/1 1760/3/1
f 1761/4/1 1762/1/1 1763/2/1 1764/3/1
f 1765/4/1 1766/1/1 1767/2/1 1768/3/1
f 1769/4/1 1770/1/1 1771/2/1 1772/3/1
f 1773/4/1 1774/1/1 1775/2/1 1776/3/1
f 1777/4/1 1778/1/1 1779/2/1 1780/3/1
f 1781/4/1 1782/1/1 1783/2/1 1784/3/1
f 1785/4/1 1786/1/1 1787/2/1 1788/3/1
f 1789/4/1 1790/1/1 1791/2/1 1792/3/1
f 1793/4/1 1794/1/1 1795/2/1 1796/3/1
f 1797/4/1 1798/1/1 1799/2/1 1800/3/1
f 1801/4/1 1802/1/1 1803/2/1 1804/3/1
f 1805/4/1 1806/1/1 1807/2/1 1808/3/1
f 1809/4/1 1810/1/1 1811/2/1 1812/3/1
f 1813/4/1 1814/1/1 1815/2/1 1816/3/1
f 1817/4/1 1818/1/1 1819/2/1 1820/3/1
f 1821/4/1 1822/1/1 1823/2/1 1824/3/1
f 1825/4/1 1826/1/1 1827/2/1 1828/3/1
f 1829/4/1 1830/1/1 1831/2/1 1832/3/1
f 1833/4/1 1834/1/1 1835/2/1 1836/3/1
f 1837/4/1 1838/1/1 1839/2/1 1840/3/1
f 1841/4/1 1842/1/1 1843/2/1 1844/3/1
f 1845/4/1 1846/1/1 1847/2/1 1848/3/1
f 1849/4/1 1850/1/1 1851/2/1 1852/3/1
f 1853/4/1 1854/1/1 1855/2/1 1856/3/1
f 1857/4/1 1858/1/1 1859/2/1 1860/3/1
f 1861/4/1 1862/1/1 1863/2/1 1864/3/1
f 1865/4/1 1866/1/1 1867/2/1 1868/3/1
f 1869/4/1 1870/1/1 1871/2/1 1872/3/1
f 1873/4/1 1874/1/1 1875/2/1 1876/3/1
f 1877/4/1 1878/1/1 1879/2/1 1880/3/1
f 1881/4/1 1882/1/1 1883/2/1 1884/3/1
f 1885/4/1 1886/1/1 1887/2/1 1888/3/1
f 1889/4/1 1890/1/1 1891/2/1 1892/3/1
f 1893/4/1 1894/1/1 1895/2/1 1896/3/1
f 1897/4/1 1898/1/1 1899/2/1 1900/3/1
f 1901/4/1 1902/1/1 1903/2/1 1904/3/1
f 1905/4/1 1906/1/1 1907/2/1 1908/3/1
f 1909/4/1 1910/1/1 1911/2/1 1912/3/1
f 1913/4/1 1914/1/1 1915/2/1 1916/3/1
f 1917/4/1 1918/1/1 1919/2/1 1920/3/1
f 1921/4/1 1922/1/1 1923/2/1 1924/3/1
f 1925/4/1 1926/1/1 1927/2/1 1928/3/1
f 1929/4/1 1930/1/1 1931/2/1 1932/3/1
f 1933/4/1 1934/1/1 1935/2/1 1936/3/1
f 1937/4/1 1938/1/1 1939/2/1 1940/3/1
f 1941/4/1 1942/1/1 1943/2/1 1944/3/1
f 1945/4/1 1946/1/1 1947/2/1 1948/3/1
f 1949/4/1 1950/1/1 1951/2/1 1952/3/1
f 1953/4/1 1954/1/1 1955/2/1 1956/3/1
f 1957/4/1 1958/1/1 1959/2/1 1960/3/1
f 1961/4/1 1962/1/1 1963/2/1 1964/3/1
f 1965/4/1 1966/1/1 1967/2/1 1968/3/1
f 1969/4/1 1970/1/1 1971/2/1 1972/3/1
f 1973/4/1 1974/1/1 1975/2/1 1976/3/1
f 1977/4/1 1978/1/1 1979/2/1 1980/3/1
f 1981/4/1 1982/1/1 1983/2/1 1984/3/1
f 1985/4/1 1986/1/1 1987/2/1 1988/3/1
f 1989/4/1 1990/1/1 1991/2/1 1992/3/1
f 1993/4/1 1994/1/1 1995/2/1 1996/3/1
f 1997/4/1 1998/1/1 1999/2/1 2000/3/1
f 2001/4/1 2002/1/1 2003/2/1 2004/3/1
f 2005/4/1 2006/1/1 2007/2/1 2008/3/1
f 2009/4/1 2010/1/1 2011/2/1 2012/3/1
f 2013/4/1 2014/1/1 2015/2/1 2016/3/1
f 2017/4/1 2018/1/1 2019/2/1 2020/3/1
f 2021/4/1 2022/1/1 2023/2/1 2024/3/1
f 2025/4/1 2026/1/1 2027/2/1 2028/3/1
f 2029/4/1 2030/1/1 2031/2/1 2032/3/1
f 2033/4/1 2034/1/1 2035/2/1 2036/3/1
f 2037/4/1 2038/1/1 2039/2/1 2040/3/1
f 2041/4/1 2042/1/1 2043/2/1 2044/3/1
f 2045/4/1 2046/1/1 2047/2/1 2048/3/1
f 2049/4/1 2050/1/1 2051/2/1 2052/3/1
f 2053/4/1 2054/1/1 2055/2/1 2056/3/1
f 2057/4/1 2058/1/1 2059/2/1 2060/3/1
f 2061/4/1 2062/1/1 2063/2/1 2064/3/1
f 2065/4/1 2066/1/1 2067/2/1 2068/3/1
f 2069/4/1 2070/1/1 2071/2/1 2072/3/1
f 2073/4/1 2074/1/1 2075/2/1 2076/3/1
f 2077/4/1 2078/1/1 2079/2/1 2080/3/1
f 2081/4/1 2082/1/1 2083/2/1 2084/3/1
f 2085/4/1 2086/1/1 2087/2/1 2088/3/1
f 2089/4/1 2090/1/1 2091/2/1 2092/3/1
f 2093/4/1 2094/1/1 2095/2/1 2096/3/1
f 2097/4/1 2098/1/1 2099/2/1 2100/3/1
f 2101/4/1 2102/1/1 2103/2/1 2104/3/1
f 2105/4/1 2106/1/1 2107/2/1 2108/3/1
f 2109/4/1 2110/1/1 2111/2/1 2112/3/1
f 2113/4/1 2114/1/1 2115/2/1 2116/3/1
f 2117/4/1 2118/1/1 2119/2/1 2120/3/1
f 2121/4/1 2122/1/1 2123/2/1 2124/3/1
f 2125/4/1 2126/1/1 2127/2/1 2128/3/1
f 2129/4/1 2130/1/1 2131/2/1 2132/3/1
f 2133/4/1 2134/1/1 2135/2/1 2136/3/1
f 2137/4/1 2138/1/1 2139/2/1 2140/3/1
f 2141/4/1 2142/1/1 2143/2/1 2144/3/1
f 2145/4/1 2146/1/1 2147/2/1 2148/3/1
f 2149/4/1 2150/1/1 2151/2/1 2152/3/1
f 2153/4/1 2154/1/1 2155/2/1 2156/3/1
f 2157/4/1 2158/1/1 2159/2/1 2160/3/1
f 2161/4/1 2162/1/1 2163/2/1 2164/3/1
f 2165/4/1 2166/1/1 2167/2/1 2168/3/1
f 2169/4/1 2170/1/1 2171/2/1 2172/3/1
f 2173/4/1 2174/1/1 2175/2/1 2176/3/1
f 2177/4/1 2178/1/1 2179/2/1 2180/3/1
f 2181/4/1 2182/1/1 2183/2/1 2184/3/1
f 2185/4/1 2186/1/1 2187/2/1 2188/3/1
f 2189/4/1 2190/1/1 2191/2/1 2192/3/1
f 2193/4/1 2194/1/1 2195/2/1 2196/3/1
f 2197/4/1 2198/1/1 2199/2/1 2200/3/1
f 2201/4/1 2202/1/1 2203/2/1 2204/3/1
f 2205/4/1 2206/1/1 2207/2/1 2208/3/1
f 2209/4/1 2210/1/1 2211/2/1 2212/3/1
f 2213/4/1 2214/1/1 2215/2/1 2216/3/1
f 2217/4/1 2218/1/1 2219/2/1 2220/3/1
f 2221/4/1 2222/1/1 2223/2/1 2224/3/1
f 2225/4/1 2226/1/1 2227/2/1 2228/3/1
f 2229/4/1 2230/1/1 2231/2/1 2232/3/1
f 2233/4/1 2234/1/1 2235/2/1 2236/3/1
f 2237/4/1 2238/1/1 2239/2/1 2240/3/1
f 2241/4/1 2242/1/1 2243/2/1 2244/3/1
f 2245/4/1 2246/1/1 2247/2/1 2248/3/1
f 2249/4/1 2250/1/1 2251/2/1 2252/3/1
f 2253/4/1 2254/1/1 2255/2/1 2256/3/1

